STARTFONT 2.1
COMMENT +
COMMENT  Copyright (c) 1989, 1991 Adobe Systems Incorporated.
COMMENT  Copyright 1996, 1997 BIZNET Poland, Inc. All Rights Reserved.
COMMENT -
FONT -BIZNET-Chimera-Regular-R-Normal--33-240-100-100-P-180-ISO8859-2
SIZE 24 100 100
FONTBOUNDINGBOX 33 33 -1 -8
STARTPROPERTIES 24
FOUNDRY "BIZNET"
FAMILY_NAME "BIZNET Utopia"
WEIGHT_NAME "Regular"
SLANT "R"
SETWIDTH_NAME "Normal"
ADD_STYLE_NAME ""
PIXEL_SIZE 33
POINT_SIZE 240
RESOLUTION_X 100
RESOLUTION_Y 100
SPACING "P"
AVERAGE_WIDTH 180
CHARSET_REGISTRY "ISO8859"
CHARSET_ENCODING "2"
CAP_HEIGHT 23
X_HEIGHT 16
FONT_ASCENT 31
FONT_DESCENT 8
FACE_NAME "BIZNET Utopia Regular"
DEFAULT_CHAR 32
RELATIVE_SETWIDTH 50
CHARSET_COLLECTIONS "ASCII ISO8859-2"
COPYRIGHT "Copyright (c) 1989, 1991 Adobe Systems Incorporated.  All Rights Reserved. Copyright (c) 1996 BIZNET Poland, Inc. All Rights Reserved."
NOTICE "The name "BIZNET" is a registered trademark of BIZNET Poland, Inc."
ENDPROPERTIES
CHARS 189
STARTCHAR exclam
ENCODING 33
SWIDTH 242 0
DWIDTH 8 0
BBX 4 24 2 0
BITMAP
60
F0
F0
F0
F0
60
60
60
60
60
60
60
60
60
60
60
40
00
00
00
60
F0
F0
60
ENDCHAR
STARTCHAR quotedbl
ENCODING 34
SWIDTH 458 0
DWIDTH 15 0
BBX 9 9 3 16
BITMAP
E380
E380
E380
E380
6300
6300
4100
4100
4100
ENDCHAR
STARTCHAR numbersign
ENCODING 35
SWIDTH 530 0
DWIDTH 18 0
BBX 17 22 0 0
BITMAP
018600
018600
010600
030400
030C00
030C00
020C00
3FFF80
3FFF80
061800
041800
0C3000
FFFE00
FFFE00
182000
186000
186000
186000
306000
30C000
30C000
30C000
ENDCHAR
STARTCHAR dollar
ENCODING 36
SWIDTH 530 0
DWIDTH 18 0
BBX 14 28 2 -3
BITMAP
0200
0200
0F80
3AF0
7278
6238
E210
E200
E200
F200
7A00
7E00
1FC0
0FE0
03F0
02F8
023C
021C
021C
021C
C218
E218
F238
7A70
1F80
0200
0200
0200
ENDCHAR
STARTCHAR percent
ENCODING 37
SWIDTH 838 0
DWIDTH 28 0
BBX 24 24 2 -1
BITMAP
1E0030
610060
61FFE0
C0C0C0
C0C180
C0C180
C0C300
C0C300
C0C600
618C00
638C00
1E1878
001986
003186
006303
006303
00C303
008303
018303
030303
030186
06018E
0C0078
040000
ENDCHAR
STARTCHAR ampersand
ENCODING 38
SWIDTH 706 0
DWIDTH 24 0
BBX 21 23 2 0
BITMAP
078000
0C7000
183000
383800
383800
383800
387000
1C6000
1FC020
0F0070
0F0070
1B8070
31C060
70E060
E070C0
E078C0
E03D80
E01F00
F00F00
700F80
7C1BE0
1FF0F0
078038
ENDCHAR
STARTCHAR quoteright
ENCODING 39
SWIDTH 278 0
DWIDTH 9 0
BBX 5 9 2 16
BITMAP
70
70
78
38
30
30
20
40
80
ENDCHAR
STARTCHAR parenleft
ENCODING 40
SWIDTH 350 0
DWIDTH 12 0
BBX 7 28 4 -4
BITMAP
06
1C
18
30
20
60
60
60
C0
C0
C0
C0
C0
C0
C0
C0
C0
C0
C0
C0
60
60
60
30
30
18
1C
06
ENDCHAR
STARTCHAR parenright
ENCODING 41
SWIDTH 350 0
DWIDTH 12 0
BBX 7 28 1 -4
BITMAP
C0
70
30
18
08
0C
0C
0C
04
06
06
06
06
06
06
06
06
06
06
04
0C
0C
0C
18
18
30
70
C0
ENDCHAR
STARTCHAR asterisk
ENCODING 42
SWIDTH 412 0
DWIDTH 14 0
BBX 10 12 2 12
BITMAP
0C00
0C00
4C80
EDC0
7B80
0C00
1E00
7B80
EDC0
4C80
0C00
0C00
ENDCHAR
STARTCHAR plus
ENCODING 43
SWIDTH 570 0
DWIDTH 19 0
BBX 16 17 2 0
BITMAP
0180
0180
0180
0180
0180
0180
0180
0180
FFFF
FFFF
0180
0180
0180
0180
0180
0180
0180
ENDCHAR
STARTCHAR comma
ENCODING 44
SWIDTH 265 0
DWIDTH 9 0
BBX 5 9 2 -5
BITMAP
30
70
78
38
38
30
20
40
80
ENDCHAR
STARTCHAR minus
ENCODING 45
SWIDTH 570 0
DWIDTH 19 0
BBX 16 2 2 7
BITMAP
FFFF
FFFF
ENDCHAR
STARTCHAR period
ENCODING 46
SWIDTH 265 0
DWIDTH 9 0
BBX 4 4 2 0
BITMAP
60
F0
F0
60
ENDCHAR
STARTCHAR slash
ENCODING 47
SWIDTH 460 0
DWIDTH 15 0
BBX 9 24 3 0
BITMAP
0180
0380
0300
0300
0300
0600
0600
0600
0E00
0C00
0C00
0C00
1800
1800
1800
3800
3000
3000
3000
6000
6000
6000
E000
C000
ENDCHAR
STARTCHAR zero
ENCODING 48
SWIDTH 530 0
DWIDTH 18 0
BBX 14 23 2 0
BITMAP
0780
1CE0
3870
7038
7038
7038
7038
E01C
E01C
E01C
E01C
E01C
E01C
E01C
E01C
E01C
7038
7038
7038
7038
3870
1CE0
0780
ENDCHAR
STARTCHAR one
ENCODING 49
SWIDTH 530 0
DWIDTH 18 0
BBX 11 23 4 0
BITMAP
0600
FE00
3E00
0E00
0E00
0E00
0E00
0E00
0E00
0E00
0E00
0E00
0E00
0E00
0E00
0E00
0E00
0E00
0E00
0E00
0E00
0E00
FFE0
ENDCHAR
STARTCHAR two
ENCODING 50
SWIDTH 530 0
DWIDTH 18 0
BBX 16 23 1 0
BITMAP
07E0
1C38
383C
781C
701E
301E
001E
001E
001C
003C
0038
0070
00E0
0180
0300
0600
0C00
1800
3001
3002
7FFE
7FFE
FFFE
ENDCHAR
STARTCHAR three
ENCODING 51
SWIDTH 530 0
DWIDTH 18 0
BBX 15 23 1 0
BITMAP
0FE0
3C70
3038
701C
601C
201C
001C
001C
0038
0060
1F80
0070
0038
003C
001C
001E
001E
401E
E01C
E01C
F038
7870
0FC0
ENDCHAR
STARTCHAR four
ENCODING 52
SWIDTH 530 0
DWIDTH 18 0
BBX 15 23 1 0
BITMAP
0070
0070
00F0
01F0
0170
0370
0270
0670
0C70
0870
1870
1070
3070
6070
4070
FFFE
FFFE
0070
0070
0070
0070
0070
03FC
ENDCHAR
STARTCHAR five
ENCODING 53
SWIDTH 530 0
DWIDTH 18 0
BBX 15 23 1 0
BITMAP
3FFC
3FFC
3FFC
3000
3000
3000
3000
3000
2000
23E0
3C78
301C
001C
000E
000E
000E
000E
000E
600E
F01C
7018
3C30
0FC0
ENDCHAR
STARTCHAR six
ENCODING 54
SWIDTH 530 0
DWIDTH 18 0
BBX 14 23 2 0
BITMAP
03E0
0C78
383C
301C
7008
7000
6000
6000
E000
E1C0
E7F0
E878
F038
F03C
E01C
E01C
E01C
601C
701C
7038
3038
1870
07C0
ENDCHAR
STARTCHAR seven
ENCODING 55
SWIDTH 530 0
DWIDTH 18 0
BBX 15 23 2 0
BITMAP
7FFE
7FFC
FFFC
C008
8018
0018
0030
0020
0060
00C0
0080
0180
0180
0300
0300
0600
0600
0600
0600
0E00
0E00
0E00
0E00
ENDCHAR
STARTCHAR eight
ENCODING 56
SWIDTH 530 0
DWIDTH 18 0
BBX 14 23 2 0
BITMAP
0F80
38E0
7070
F078
E038
E038
E038
E038
7070
7070
38E0
1FC0
3870
7038
7038
601C
E01C
E01C
E01C
7038
7038
3870
0FC0
ENDCHAR
STARTCHAR nine
ENCODING 57
SWIDTH 530 0
DWIDTH 18 0
BBX 15 23 1 0
BITMAP
07E0
1870
3038
701C
E01C
E01C
E00E
E00E
E00E
F00E
701E
782E
3FCE
0F0E
000E
000E
001C
001C
301C
7038
7838
3CF0
0FC0
ENDCHAR
STARTCHAR colon
ENCODING 58
SWIDTH 265 0
DWIDTH 9 0
BBX 4 17 2 0
BITMAP
60
F0
F0
F0
00
00
00
00
00
00
00
00
00
F0
F0
F0
60
ENDCHAR
STARTCHAR semicolon
ENCODING 59
SWIDTH 265 0
DWIDTH 9 0
BBX 5 21 2 -4
BITMAP
30
78
78
70
00
00
00
00
00
00
00
20
70
78
38
38
30
30
60
40
80
ENDCHAR
STARTCHAR less
ENCODING 60
SWIDTH 570 0
DWIDTH 19 0
BBX 16 17 2 0
BITMAP
0001
0007
001F
00FC
03E0
0F80
3E00
F000
C000
F000
7C00
0F80
03E0
00F8
001F
0007
0001
ENDCHAR
STARTCHAR equal
ENCODING 61
SWIDTH 570 0
DWIDTH 19 0
BBX 16 9 2 4
BITMAP
FFFF
FFFF
0000
0000
0000
0000
0000
FFFF
FFFF
ENDCHAR
STARTCHAR greater
ENCODING 62
SWIDTH 570 0
DWIDTH 19 0
BBX 16 17 1 0
BITMAP
8000
E000
F800
3F00
07C0
01F0
007C
000F
0003
000F
003E
01F0
07C0
1F00
F800
E000
8000
ENDCHAR
STARTCHAR question
ENCODING 63
SWIDTH 389 0
DWIDTH 13 0
BBX 11 24 1 0
BITMAP
1E00
79C0
70E0
E0E0
60E0
00E0
01C0
01C0
0380
0700
0E00
1C00
1800
3800
3800
3C00
0F80
0000
0000
0000
0E00
1E00
0E00
0C00
ENDCHAR
STARTCHAR at
ENCODING 64
SWIDTH 793 0
DWIDTH 26 0
BBX 24 24 1 0
BITMAP
001F00
00F0E0
038030
070008
0E000C
1C0006
3807C2
3838C2
7070C3
70E1C3
60C183
61C383
E1C382
E38706
E38B04
E39B0C
61E310
70C1E0
700000
380000
1C0000
0E0000
03C1C0
007E00
ENDCHAR
STARTCHAR A
ENCODING 65
SWIDTH 635 0
DWIDTH 21 0
BBX 23 24 -1 0
BITMAP
003800
003800
003C00
005C00
005C00
004E00
00CE00
008E00
008F00
018700
010700
010780
030380
030380
07FFC0
0601C0
0401C0
0C01E0
0C00E0
0C00E0
1800F0
180070
380078
FF03FE
ENDCHAR
STARTCHAR B
ENCODING 66
SWIDTH 646 0
DWIDTH 22 0
BBX 19 24 1 0
BITMAP
FFF000
1C1F00
1C0780
1C0380
1C03C0
1C03C0
1C03C0
1C03C0
1C0380
1C0700
1C1E00
1FF800
1C0F00
1C0780
1C03C0
1C01C0
1C01E0
1C01E0
1C01E0
1C01C0
1C01C0
1C0380
1E0F80
FFFC00
ENDCHAR
STARTCHAR C
ENCODING 67
SWIDTH 684 0
DWIDTH 23 0
BBX 20 24 1 0
BITMAP
007F00
03C1F0
0F0070
1E0030
3C0030
380010
780000
780000
700000
700000
F00000
F00000
F00000
F00000
F00000
700000
780000
780010
380010
3C0010
1E0030
0F0070
03C1F0
00FF80
ENDCHAR
STARTCHAR D
ENCODING 68
SWIDTH 779 0
DWIDTH 26 0
BBX 24 24 1 0
BITMAP
FFFF00
1C07E0
1C00F0
1C0078
1C003C
1C001C
1C001E
1C000E
1C000E
1C000F
1C000F
1C000F
1C000F
1C000F
1C000F
1C000E
1C001E
1C001E
1C001C
1C003C
1C0078
1C00F0
1E03C0
FFFF00
ENDCHAR
STARTCHAR E
ENCODING 69
SWIDTH 606 0
DWIDTH 20 0
BBX 18 24 1 0
BITMAP
FFFF80
1C0380
1C0180
1C0080
1C0080
1C0000
1C0000
1C0000
1C0200
1C0200
1C0600
1FFE00
1C0600
1C0200
1C0200
1C0000
1C0000
1C0000
1C0040
1C00C0
1C00C0
1C01C0
1E0380
FFFF80
ENDCHAR
STARTCHAR F
ENCODING 70
SWIDTH 580 0
DWIDTH 19 0
BBX 17 24 1 0
BITMAP
FFFF80
1C0380
1C0180
1C0080
1C0080
1C0000
1C0000
1C0000
1C0000
1C0200
1C0200
1C0600
1FFE00
1C0600
1C0200
1C0200
1C0000
1C0000
1C0000
1C0000
1C0000
1C0000
1C0000
FFC000
ENDCHAR
STARTCHAR G
ENCODING 71
SWIDTH 734 0
DWIDTH 24 0
BBX 23 24 1 0
BITMAP
003F80
03E0F8
0F0038
1E0018
3C0018
380008
780000
780000
700000
700000
F00000
F00000
F00000
F003FE
700038
700038
780038
780038
780038
3C0038
1E0038
0F0038
07C078
00FF80
ENDCHAR
STARTCHAR H
ENCODING 72
SWIDTH 798 0
DWIDTH 27 0
BBX 24 24 1 0
BITMAP
FF81FF
1C0038
1C0038
1C0038
1C0038
1C0038
1C0038
1C0038
1C0038
1C0038
1C0038
1FFFF8
1C0038
1C0038
1C0038
1C0038
1C0038
1C0038
1C0038
1C0038
1C0038
1C0038
1C0038
FF81FF
ENDCHAR
STARTCHAR I
ENCODING 73
SWIDTH 349 0
DWIDTH 12 0
BBX 9 24 1 0
BITMAP
FF80
1C00
1C00
1C00
1C00
1C00
1C00
1C00
1C00
1C00
1C00
1C00
1C00
1C00
1C00
1C00
1C00
1C00
1C00
1C00
1C00
1C00
1C00
FF80
ENDCHAR
STARTCHAR J
ENCODING 74
SWIDTH 350 0
DWIDTH 12 0
BBX 10 27 1 -3
BITMAP
7FC0
0E00
0E00
0E00
0E00
0E00
0E00
0E00
0E00
0E00
0E00
0E00
0E00
0E00
0E00
0E00
0E00
0E00
0E00
0E00
0E00
0E00
0C00
1C00
3C00
7000
8000
ENDCHAR
STARTCHAR K
ENCODING 75
SWIDTH 658 0
DWIDTH 22 0
BBX 21 24 1 0
BITMAP
FF87F8
1C01C0
1C0380
1C0700
1C0E00
1C0C00
1C1800
1C3000
1C6000
1C8000
1D8000
1FC000
1DE000
1DF000
1CF800
1C7800
1C3C00
1C1E00
1C1F00
1C0F80
1C0780
1C03C0
1C01F0
FF8038
ENDCHAR
STARTCHAR L
ENCODING 76
SWIDTH 568 0
DWIDTH 19 0
BBX 17 24 1 0
BITMAP
FF8000
1C0000
1C0000
1C0000
1C0000
1C0000
1C0000
1C0000
1C0000
1C0000
1C0000
1C0000
1C0000
1C0000
1C0000
1C0000
1C0000
1C0000
1C0080
1C0080
1C0080
1C0180
1E0780
FFFF80
ENDCHAR
STARTCHAR M
ENCODING 77
SWIDTH 944 0
DWIDTH 31 0
BBX 29 24 1 0
BITMAP
FE0003F8
1F0003C0
1F0003C0
1F8007C0
1F8005C0
1B800DC0
1BC00DC0
19C009C0
19E019C0
18E011C0
18E031C0
18F021C0
187061C0
187861C0
183841C0
183CC1C0
183C81C0
181D81C0
181F01C0
180F01C0
180F01C0
180601C0
3C0601C0
FF040FF8
ENDCHAR
STARTCHAR N
ENCODING 78
SWIDTH 780 0
DWIDTH 26 0
BBX 24 24 1 0
BITMAP
FE00FF
1F003C
1F0018
1F8018
1BC018
1BC018
19E018
18E018
18F018
187818
183818
183C18
181E18
180E18
180F18
180798
180398
1803D8
1801F8
1800F8
1800F8
180078
3C0038
FF0038
ENDCHAR
STARTCHAR O
ENCODING 79
SWIDTH 762 0
DWIDTH 25 0
BBX 23 24 1 0
BITMAP
00FE00
0783C0
0E00E0
1C0070
380038
380038
78003C
70001C
70001C
F0001E
F0001E
F0001E
F0001E
F0001E
F0001E
70001C
70001C
78003C
380038
380038
1C0070
0E00E0
0783C0
00FE00
ENDCHAR
STARTCHAR P
ENCODING 80
SWIDTH 600 0
DWIDTH 20 0
BBX 18 24 1 0
BITMAP
FFF800
1C1F00
1C0700
1C0780
1C0380
1C03C0
1C03C0
1C03C0
1C03C0
1C0380
1C0780
1C0700
1C1E00
1FF800
1C0000
1C0000
1C0000
1C0000
1C0000
1C0000
1C0000
1C0000
1C0000
FF8000
ENDCHAR
STARTCHAR Q
ENCODING 81
SWIDTH 762 0
DWIDTH 25 0
BBX 23 30 1 -6
BITMAP
00FE00
0783C0
0E00E0
1C0070
380038
380038
78003C
70001C
70001C
F0001E
F0001E
F0001E
F0001E
F0001E
F0001E
70001C
70001C
78003C
380038
380038
1C0070
0E00E0
0783C0
00FF00
001E00
001F00
000F00
0007C0
0003E0
0000FC
ENDCHAR
STARTCHAR R
ENCODING 82
SWIDTH 644 0
DWIDTH 21 0
BBX 20 24 1 0
BITMAP
FFFC00
1C1F00
1C0780
1C0380
1C03C0
1C03C0
1C03C0
1C03C0
1C0380
1C0780
1C0700
1C1E00
1FF000
1C1E00
1C0F00
1C0700
1C0700
1C0780
1C0780
1C0780
1C0380
1C03C0
1C01E0
FF80F0
ENDCHAR
STARTCHAR S
ENCODING 83
SWIDTH 541 0
DWIDTH 18 0
BBX 15 24 2 0
BITMAP
0FE0
3838
7018
6018
E018
E008
E000
F000
7800
7E00
3FC0
0FF0
03F8
00FC
007C
001E
000E
800E
C00E
C00E
E00C
F018
7830
1FC0
ENDCHAR
STARTCHAR T
ENCODING 84
SWIDTH 621 0
DWIDTH 21 0
BBX 19 24 1 0
BITMAP
FFFFE0
E0E0E0
C0E060
80E020
80E020
80E020
00E000
00E000
00E000
00E000
00E000
00E000
00E000
00E000
00E000
00E000
00E000
00E000
00E000
00E000
00E000
00E000
00E000
0FFE00
ENDCHAR
STARTCHAR U
ENCODING 85
SWIDTH 791 0
DWIDTH 26 0
BBX 24 24 1 0
BITMAP
FF81FF
1C0038
1C0038
1C0038
1C0038
1C0038
1C0038
1C0038
1C0038
1C0038
1C0038
1C0038
1C0038
1C0038
1C0038
1C0038
1C0038
1C0038
0C0030
0E0070
0E0070
0700E0
0381C0
007E00
ENDCHAR
STARTCHAR V
ENCODING 86
SWIDTH 634 0
DWIDTH 21 0
BBX 23 24 0 0
BITMAP
FF80FE
3C0038
1C0030
1E0030
1E0060
0E0060
0F0060
0700C0
0700C0
0780C0
038080
038180
03C100
01C300
01C300
01E200
00E600
00E600
00F400
007C00
007C00
007800
003800
003800
ENDCHAR
STARTCHAR W
ENCODING 87
SWIDTH 940 0
DWIDTH 31 0
BBX 33 24 0 0
BITMAP
FF00007F80
3C01C00E00
1C01C00C00
1C01E00C00
1C03E00800
1E03E01800
0E03601800
0E02701800
0E06701000
0706303000
0706383000
070C383000
070C382000
038C1C2000
03881C6000
03981C4000
03980E4000
01D80E4000
01D00EC000
01F00F8000
01F0078000
00F0078000
00E0078000
00E0030000
ENDCHAR
STARTCHAR X
ENCODING 88
SWIDTH 624 0
DWIDTH 21 0
BBX 22 24 0 0
BITMAP
FF03F8
3C00E0
1C00C0
0E0180
0F0300
070600
078400
03CC00
01D800
01F000
00F000
00F000
00F800
00FC00
01FC00
039E00
030E00
070F00
060780
0E0780
1C03C0
1801E0
3801E0
FF07FC
ENDCHAR
STARTCHAR Y
ENCODING 89
SWIDTH 588 0
DWIDTH 20 0
BBX 21 24 0 0
BITMAP
FF83F8
3C00E0
1C00C0
1E0180
0E0180
0F0300
070300
078200
038600
03C400
01CC00
01E800
00F800
00F000
007000
007000
007000
007000
007000
007000
007000
007000
007000
07FE00
ENDCHAR
STARTCHAR Z
ENCODING 90
SWIDTH 610 0
DWIDTH 20 0
BBX 19 24 0 0
BITMAP
3FFFE0
3803E0
3003C0
200780
200F80
200F00
001E00
003E00
003C00
007800
007800
00F000
01E000
01E000
03C000
078000
078000
0F0000
1E0020
1E0020
3C0020
780060
7801E0
FFFFE0
ENDCHAR
STARTCHAR bracketleft
ENCODING 91
SWIDTH 330 0
DWIDTH 11 0
BBX 5 28 4 -4
BITMAP
F8
C0
C0
C0
C0
C0
C0
C0
C0
C0
C0
C0
C0
C0
C0
C0
C0
C0
C0
C0
C0
C0
C0
C0
C0
C0
C0
F8
ENDCHAR
STARTCHAR backslash
ENCODING 92
SWIDTH 460 0
DWIDTH 15 0
BBX 9 24 3 0
BITMAP
C000
E000
6000
6000
6000
3000
3000
3000
3800
1800
1800
1800
0C00
0C00
0C00
0E00
0600
0600
0600
0300
0300
0300
0380
0180
ENDCHAR
STARTCHAR bracketright
ENCODING 93
SWIDTH 330 0
DWIDTH 11 0
BBX 5 28 2 -4
BITMAP
F8
18
18
18
18
18
18
18
18
18
18
18
18
18
18
18
18
18
18
18
18
18
18
18
18
18
18
F8
ENDCHAR
STARTCHAR asciicircum
ENCODING 94
SWIDTH 570 0
DWIDTH 19 0
BBX 15 14 2 9
BITMAP
0380
0380
06C0
06C0
0C60
0C60
0C70
1830
1830
3018
3018
701C
600C
E00E
ENDCHAR
STARTCHAR underscore
ENCODING 95
SWIDTH 500 0
DWIDTH 17 0
BBX 17 2 0 -4
BITMAP
FFFF80
FFFF80
ENDCHAR
STARTCHAR quoteleft
ENCODING 96
SWIDTH 278 0
DWIDTH 9 0
BBX 5 9 2 16
BITMAP
08
10
20
60
60
E0
F0
70
70
ENDCHAR
STARTCHAR a
ENCODING 97
SWIDTH 523 0
DWIDTH 17 0
BBX 15 17 2 0
BITMAP
07C0
38E0
F0F0
E070
6070
0070
01F0
0770
3C70
7070
E070
E070
E070
E070
70F0
7F7E
3C38
ENDCHAR
STARTCHAR b
ENCODING 98
SWIDTH 598 0
DWIDTH 20 0
BBX 17 25 1 0
BITMAP
180000
F80000
380000
380000
380000
380000
380000
380000
387000
39FE00
3E1E00
3C0700
380700
380300
380380
380380
380380
380380
380380
380300
380700
380700
3C0E00
3E1C00
27F000
ENDCHAR
STARTCHAR c
ENCODING 99
SWIDTH 496 0
DWIDTH 17 0
BBX 14 17 2 0
BITMAP
07C0
1870
3038
7038
6010
E000
E000
E000
E000
E000
E000
F000
700C
7818
3C30
1FE0
0700
ENDCHAR
STARTCHAR d
ENCODING 100
SWIDTH 598 0
DWIDTH 20 0
BBX 17 25 2 0
BITMAP
000600
003E00
000E00
000E00
000E00
000E00
000E00
000E00
07CE00
1C3E00
381E00
700E00
700E00
E00E00
E00E00
E00E00
E00E00
E00E00
E00E00
E00E00
700E00
781E00
3C3E00
1FEE00
070F80
ENDCHAR
STARTCHAR e
ENCODING 101
SWIDTH 514 0
DWIDTH 17 0
BBX 14 17 2 0
BITMAP
0780
1C70
3038
7018
601C
E01C
E01C
FFFC
E000
E000
E000
E000
700C
7808
3C38
1FF0
07C0
ENDCHAR
STARTCHAR f
ENCODING 102
SWIDTH 319 0
DWIDTH 11 0
BBX 12 25 1 0
BITMAP
03C0
0470
0C70
0C20
0C00
1C00
1C00
1C00
FFC0
1C00
1C00
1C00
1C00
1C00
1C00
1C00
1C00
1C00
1C00
1C00
1C00
1C00
1C00
1C00
7F80
ENDCHAR
STARTCHAR g
ENCODING 103
SWIDTH 520 0
DWIDTH 17 0
BBX 16 25 1 -8
BITMAP
07C7
1C7F
3838
7018
701C
701C
701C
383C
3838
1C70
0FC0
1800
3000
7000
7FF0
3FFC
0FFE
381F
6007
E007
E007
E006
700E
3C3C
07E0
ENDCHAR
STARTCHAR h
ENCODING 104
SWIDTH 607 0
DWIDTH 20 0
BBX 18 25 1 0
BITMAP
180000
F80000
380000
380000
380000
380000
380000
380000
387800
39FE00
3E1E00
3C0F00
380700
380700
380700
380700
380700
380700
380700
380700
380700
380700
380700
380700
FF3FC0
ENDCHAR
STARTCHAR i
ENCODING 105
SWIDTH 291 0
DWIDTH 10 0
BBX 7 24 2 0
BITMAP
30
78
78
30
00
00
00
38
F8
38
38
38
38
38
38
38
38
38
38
38
38
38
38
FE
ENDCHAR
STARTCHAR j
ENCODING 106
SWIDTH 280 0
DWIDTH 9 0
BBX 8 32 -1 -8
BITMAP
06
0F
0F
06
00
00
00
07
1F
07
07
07
07
07
07
07
07
07
07
07
07
07
07
07
07
07
07
06
0E
1C
38
E0
ENDCHAR
STARTCHAR k
ENCODING 107
SWIDTH 524 0
DWIDTH 17 0
BBX 17 25 1 0
BITMAP
180000
F80000
380000
380000
380000
380000
380000
380000
381F00
383800
387000
38E000
38C000
398000
3B0000
3F0000
3F8000
3F8000
3BC000
39E000
38F000
387800
383C00
381F00
FE0780
ENDCHAR
STARTCHAR l
ENCODING 108
SWIDTH 279 0
DWIDTH 9 0
BBX 7 25 1 0
BITMAP
18
F8
38
38
38
38
38
38
38
38
38
38
38
38
38
38
38
38
38
38
38
38
38
38
FE
ENDCHAR
STARTCHAR m
ENCODING 109
SWIDTH 923 0
DWIDTH 31 0
BBX 29 17 2 0
BITMAP
38380700
F9FE3FC0
3E0FC3C0
3C0781E0
380700E0
380700E0
380700E0
380700E0
380700E0
380700E0
380700E0
380700E0
380700E0
380700E0
380700E0
380700E0
FF3FE7F8
ENDCHAR
STARTCHAR n
ENCODING 110
SWIDTH 619 0
DWIDTH 21 0
BBX 18 17 2 0
BITMAP
387800
F9FE00
3E1E00
3C0F00
380700
380700
380700
380700
380700
380700
380700
380700
380700
380700
380700
380700
FE3FC0
ENDCHAR
STARTCHAR o
ENCODING 111
SWIDTH 577 0
DWIDTH 19 0
BBX 15 17 2 0
BITMAP
07C0
1830
3018
701C
701C
E00E
E00E
E00E
E00E
E00E
E00E
E00E
701C
701C
3018
1830
07C0
ENDCHAR
STARTCHAR p
ENCODING 112
SWIDTH 608 0
DWIDTH 20 0
BBX 17 25 1 -8
BITMAP
387000
F9FE00
3E1E00
3C0700
380700
380380
380380
380380
380380
380380
380380
380300
380700
380700
3C0E00
3E1C00
3BF000
380000
380000
380000
380000
380000
380000
380000
FF0000
ENDCHAR
STARTCHAR q
ENCODING 113
SWIDTH 591 0
DWIDTH 20 0
BBX 17 25 2 -8
BITMAP
07E600
1C3E00
381E00
700E00
700E00
E00E00
E00E00
E00E00
E00E00
E00E00
E00E00
E00E00
700E00
781E00
3C3E00
1FEE00
070E00
000E00
000E00
000E00
000E00
000E00
000E00
000E00
007F80
ENDCHAR
STARTCHAR r
ENCODING 114
SWIDTH 389 0
DWIDTH 13 0
BBX 11 17 2 0
BITMAP
38C0
F9E0
3FE0
3C40
3800
3800
3800
3800
3800
3800
3800
3800
3800
3800
3800
3800
FF00
ENDCHAR
STARTCHAR s
ENCODING 115
SWIDTH 436 0
DWIDTH 15 0
BBX 11 17 2 0
BITMAP
1F00
31C0
60C0
E040
E040
F000
7800
7E00
1F80
07C0
01E0
80E0
80E0
C0E0
C0C0
E180
3F00
ENDCHAR
STARTCHAR t
ENCODING 116
SWIDTH 344 0
DWIDTH 11 0
BBX 10 21 2 0
BITMAP
0800
1800
1800
3800
FF80
3800
3800
3800
3800
3800
3800
3800
3800
3800
3800
3800
3800
3800
3C00
1FC0
0E00
ENDCHAR
STARTCHAR u
ENCODING 117
SWIDTH 606 0
DWIDTH 20 0
BBX 18 17 1 0
BITMAP
380700
F81F00
380700
380700
380700
380700
380700
380700
380700
380700
380700
380700
380700
3C0F00
1E1F00
1FE700
0707C0
ENDCHAR
STARTCHAR v
ENCODING 118
SWIDTH 504 0
DWIDTH 17 0
BBX 18 17 0 0
BITMAP
FF1FC0
3C0300
1C0600
1C0600
1C0600
0E0400
0E0C00
0E0800
070800
071800
071000
039000
03B000
03A000
01E000
01E000
01C000
ENDCHAR
STARTCHAR w
ENCODING 119
SWIDTH 768 0
DWIDTH 26 0
BBX 27 17 0 0
BITMAP
FE000FE0
380E0180
380E0100
1C0F0300
1C1F0300
1C170200
1C138600
0E338600
0E23C400
0E21C400
0721CC00
0761E800
0740E800
0740E800
03C0F000
03807000
03807000
ENDCHAR
STARTCHAR x
ENCODING 120
SWIDTH 486 0
DWIDTH 16 0
BBX 17 17 0 0
BITMAP
FE3F00
3C0C00
1C1800
1E3000
0F3000
076000
07C000
03C000
01C000
03E000
06E000
067000
0C7800
0C3800
181C00
381E00
FC7F80
ENDCHAR
STARTCHAR y
ENCODING 121
SWIDTH 506 0
DWIDTH 17 0
BBX 17 25 0 -8
BITMAP
FF1F80
3C0600
3C0600
1C0400
1E0C00
0E0C00
0E0800
0F0800
071800
071000
039000
03B000
03A000
01E000
01E000
01E000
00C000
00C000
00C000
008000
008000
110000
390000
3E0000
1C0000
ENDCHAR
STARTCHAR z
ENCODING 122
SWIDTH 480 0
DWIDTH 16 0
BBX 14 17 1 0
BITMAP
7FFC
703C
6078
40F0
40F0
01E0
03C0
0380
0780
0F00
0E00
1E00
3C04
3804
780C
F03C
FFFC
ENDCHAR
STARTCHAR braceleft
ENCODING 123
SWIDTH 340 0
DWIDTH 11 0
BBX 7 28 3 -4
BITMAP
0E
18
30
30
30
30
30
38
18
18
18
18
18
30
E0
20
10
18
18
18
18
38
30
30
30
30
18
0E
ENDCHAR
STARTCHAR bar
ENCODING 124
SWIDTH 228 0
DWIDTH 8 0
BBX 2 24 3 0
BITMAP
C0
C0
C0
C0
C0
C0
C0
C0
C0
C0
C0
C0
C0
C0
C0
C0
C0
C0
C0
C0
C0
C0
C0
C0
ENDCHAR
STARTCHAR braceright
ENCODING 125
SWIDTH 340 0
DWIDTH 11 0
BBX 8 28 1 -4
BITMAP
E0
30
18
18
18
18
18
18
18
10
10
18
18
0C
07
18
18
18
10
18
18
18
18
18
18
18
30
E0
ENDCHAR
STARTCHAR asciitilde
ENCODING 126
SWIDTH 570 0
DWIDTH 19 0
BBX 14 5 3 6
BITMAP
0808
3F0C
7FF8
C1F0
4000
ENDCHAR
STARTCHAR Aogonek
ENCODING 161
SWIDTH 635 0
DWIDTH 21 0
BBX 23 31 -1 -7
BITMAP
003800
003800
003C00
005C00
005C00
004E00
00CE00
008E00
008F00
018700
010700
010780
030380
030380
07FFC0
0601C0
0401C0
0C01E0
0C00E0
0C00E0
1800F0
180070
380078
FF03FE
000018
000030
000020
000060
000060
000072
00001C
ENDCHAR
STARTCHAR breve
ENCODING 162
SWIDTH 394 0
DWIDTH 13 0
BBX 9 5 2 19
BITMAP
8080
8080
4100
7F00
3E00
ENDCHAR
STARTCHAR Lslash
ENCODING 163
SWIDTH 574 0
DWIDTH 19 0
BBX 18 24 1 0
BITMAP
7FC000
0E0000
0E0000
0E0000
0E0000
0E0000
0E0000
0E2000
0E6000
0EC000
0F8000
0F0000
0E0000
1E0000
6E0000
4E0000
8E0000
0E0000
0E0040
0E0040
0E0040
0E00C0
0F03C0
7FFFC0
ENDCHAR
STARTCHAR currency
ENCODING 164
SWIDTH 530 0
DWIDTH 18 0
BBX 16 16 1 4
BITMAP
4002
E3C7
6FF6
3C3C
300C
300C
6006
6006
6006
6006
6006
300C
300C
3C3C
6FF6
E3C7
ENDCHAR
STARTCHAR Lcaron
ENCODING 165
SWIDTH 568 0
DWIDTH 19 0
BBX 17 24 1 0
BITMAP
FF9C00
1C1C00
1C1E00
1C0E00
1C0C00
1C0C00
1C0800
1C1000
1C2000
1C0000
1C0000
1C0000
1C0000
1C0000
1C0000
1C0000
1C0000
1C0000
1C0080
1C0080
1C0080
1C0180
1E0780
FFFF80
ENDCHAR
STARTCHAR Sacute
ENCODING 166
SWIDTH 541 0
DWIDTH 18 0
BBX 15 30 2 0
BITMAP
0010
0038
0070
00E0
0180
0200
0FE0
3838
7018
6018
E018
E008
E000
F000
7800
7E00
3FC0
0FF0
03F8
00FC
007C
001E
000E
800E
C00E
C00E
E00C
F018
7830
1FC0
ENDCHAR
STARTCHAR section
ENCODING 167
SWIDTH 554 0
DWIDTH 18 0
BBX 16 28 1 -4
BITMAP
01F0
0638
041C
0C08
0C00
1E00
3700
67C0
43E0
41F0
C07C
C03E
E01E
700F
7C07
3E07
1F03
07C2
03E2
00F2
007C
003C
0038
0018
1818
3C10
1E30
07C0
ENDCHAR
STARTCHAR dieresis
ENCODING 168
SWIDTH 400 0
DWIDTH 13 0
BBX 11 4 1 19
BITMAP
60C0
F1E0
F1E0
60C0
ENDCHAR
STARTCHAR Scaron
ENCODING 169
SWIDTH 541 0
DWIDTH 18 0
BBX 15 29 2 0
BITMAP
3018
0C60
07C0
0380
0100
0FE0
3838
7018
6018
E018
E008
E000
F000
7800
7E00
3FC0
0FF0
03F8
00FC
007C
001E
001E
800E
C00E
C00E
E00C
F018
7830
1FC0
ENDCHAR
STARTCHAR Scedilla
ENCODING 170
SWIDTH 541 0
DWIDTH 18 0
BBX 15 32 2 -8
BITMAP
0FE0
3838
7018
6018
E018
E008
E000
F000
7800
7E00
3FC0
0FF0
03F8
00FC
007C
001E
000E
800E
C00E
C00E
E00C
F018
7830
1FC0
0180
0100
03C0
01E0
00E0
00E0
01C0
0780
ENDCHAR
STARTCHAR Tcaron
ENCODING 171
SWIDTH 621 0
DWIDTH 21 0
BBX 19 30 1 0
BITMAP
080400
0C0C00
061800
033000
01E000
01E000
FFFFE0
E0E0E0
C0E060
80E020
80E020
80E020
00E000
00E000
00E000
00E000
00E000
00E000
00E000
00E000
00E000
00E000
00E000
00E000
00E000
00E000
00E000
00E000
00E000
0FFE00
ENDCHAR
STARTCHAR Zacute
ENCODING 172
SWIDTH 610 0
DWIDTH 20 0
BBX 19 30 0 0
BITMAP
000100
000380
000700
000E00
001800
002000
3FFFE0
3803E0
3003C0
200780
200F80
200F00
001E00
003E00
003C00
007800
007800
00F000
01E000
01E000
03C000
078000
078000
0F0000
1E0020
1E0020
3C0020
780060
7801E0
FFFFE0
ENDCHAR
STARTCHAR hyphen
ENCODING 173
SWIDTH 392 0
DWIDTH 13 0
BBX 8 2 3 7
BITMAP
FF
FF
ENDCHAR
STARTCHAR Zcaron
ENCODING 174
SWIDTH 610 0
DWIDTH 20 0
BBX 19 29 0 0
BITMAP
060600
031C00
01F800
00F000
004000
3FFFE0
3803E0
3003C0
200780
200F80
200F00
001E00
003E00
003C00
007800
007800
00F000
01E000
01E000
03C000
078000
078000
0F0000
1E0020
1E0020
3C0020
780060
7801E0
FFFFE0
ENDCHAR
STARTCHAR Zdotaccent
ENCODING 175
SWIDTH 610 0
DWIDTH 20 0
BBX 19 30 0 0
BITMAP
003000
007800
007800
003000
000000
000000
3FFFE0
3803E0
3003C0
200780
200F80
200F00
001E00
003E00
003C00
007800
007800
00F000
01E000
01E000
03C000
078000
078000
0F0000
1E0020
1E0020
3C0020
780060
7801E0
FFFFE0
ENDCHAR
STARTCHAR degree
ENCODING 176
SWIDTH 350 0
DWIDTH 12 0
BBX 10 10 1 13
BITMAP
1E00
3F00
6180
E1C0
C0C0
C0C0
E1C0
6180
3F00
1E00
ENDCHAR
STARTCHAR aogonek
ENCODING 177
SWIDTH 523 0
DWIDTH 17 0
BBX 16 23 2 -6
BITMAP
07C0
38E0
F0F0
E070
6070
0070
01F0
0770
3C70
7070
E070
E070
E070
E070
70F0
7F7E
3C3C
0018
0010
0030
0030
0039
000E
ENDCHAR
STARTCHAR ogonek
ENCODING 178
SWIDTH 363 0
DWIDTH 12 0
BBX 6 7 3 -8
BITMAP
30
60
40
C0
C0
E4
38
ENDCHAR
STARTCHAR lslash
ENCODING 179
SWIDTH 294 0
DWIDTH 10 0
BBX 10 25 0 0
BITMAP
0C00
7C00
1C00
1C00
1C00
1C00
1C00
1C40
1C80
1D80
1F00
1C00
1C00
3C00
7C00
9C00
9C00
1C00
1C00
1C00
1C00
1C00
1C00
1C00
7F00
ENDCHAR
STARTCHAR acute
ENCODING 180
SWIDTH 400 0
DWIDTH 13 0
BBX 7 6 5 18
BITMAP
04
0E
1C
38
60
80
ENDCHAR
STARTCHAR lcaron
ENCODING 181
SWIDTH 372 0
DWIDTH 12 0
BBX 12 25 1 0
BITMAP
18E0
F8E0
38F0
3870
3860
3860
3840
3880
3900
3800
3800
3800
3800
3800
3800
3800
3800
3800
3800
3800
3800
3800
3800
3800
FE00
ENDCHAR
STARTCHAR sacute
ENCODING 182
SWIDTH 436 0
DWIDTH 15 0
BBX 11 24 2 0
BITMAP
0040
00E0
01C0
0380
0600
0800
0000
1F00
31C0
60C0
E040
E040
F000
7800
7E00
1F80
07C0
01E0
80E0
80E0
C0E0
C0C0
E180
3F00
ENDCHAR
STARTCHAR caron
ENCODING 183
SWIDTH 424 0
DWIDTH 14 0
BBX 10 7 2 18
BITMAP
8040
C0C0
6180
3300
1E00
1E00
0C00
ENDCHAR
STARTCHAR cedilla
ENCODING 184
SWIDTH 363 0
DWIDTH 12 0
BBX 6 8 3 -8
BITMAP
30
20
78
3C
1C
1C
38
F0
ENDCHAR
STARTCHAR scaron
ENCODING 185
SWIDTH 436 0
DWIDTH 15 0
BBX 11 25 2 0
BITMAP
8040
4040
6180
3380
1F00
0E00
0400
0000
1F00
31C0
60C0
E040
E040
F000
7800
7E00
1F80
07C0
01E0
80E0
80E0
C0E0
C0C0
E180
3F00
ENDCHAR
STARTCHAR scedilla
ENCODING 186
SWIDTH 436 0
DWIDTH 15 0
BBX 11 25 2 -8
BITMAP
1F00
31C0
60C0
E040
E040
F000
7800
7E00
1F80
07C0
01E0
80E0
80E0
C0E0
C0C0
E180
3F00
0600
0400
0F00
0780
0380
0380
0700
1E00
ENDCHAR
STARTCHAR tcaron
ENCODING 187
SWIDTH 469 0
DWIDTH 15 0
BBX 13 21 2 0
BITMAP
0800
1870
1870
3878
FFB8
3830
3830
3820
3840
3880
3800
3800
3800
3800
3800
3800
3800
3800
3C00
1FC0
0E00
ENDCHAR
STARTCHAR zacute
ENCODING 188
SWIDTH 480 0
DWIDTH 16 0
BBX 14 25 1 0
BITMAP
0010
0038
0070
00E0
0180
0200
0000
0000
7FFC
703C
6078
40F0
40F0
01E0
03C0
0380
0780
0F00
0E00
1E00
3C04
3804
780C
F03C
FFFC
ENDCHAR
STARTCHAR hungarumlaut
ENCODING 189
SWIDTH 394 0
DWIDTH 13 0
BBX 9 7 2 18
BITMAP
3100
3380
7300
6700
6600
C400
8400
ENDCHAR
STARTCHAR zcaron
ENCODING 190
SWIDTH 480 0
DWIDTH 16 0
BBX 14 25 1 0
BITMAP
2010
3030
1860
0CC0
0F80
0780
0300
0000
7FFC
703C
6078
40F0
40F0
01E0
03C0
0380
0780
0F00
0E00
1E00
3C04
3804
780C
F03C
FFFC
ENDCHAR
STARTCHAR zdotaccent
ENCODING 191
SWIDTH 480 0
DWIDTH 16 0
BBX 14 23 1 0
BITMAP
0180
03C0
03C0
0180
0000
0000
7FFC
703C
6078
40F0
40F0
01E0
03C0
0380
0780
0F00
0E00
1E00
3C04
3804
780C
F03C
FFFC
ENDCHAR
STARTCHAR Racute
ENCODING 192
SWIDTH 644 0
DWIDTH 21 0
BBX 20 30 1 0
BITMAP
000800
001C00
003800
007000
00C000
010000
FFFC00
1C1F00
1C0780
1C0380
1C03C0
1C03C0
1C03C0
1C03C0
1C0380
1C0780
1C0700
1C1E00
1FF000
1C1E00
1C0F00
1C0700
1C0700
1C0780
1C0780
1C0780
1C0380
1C03C0
1C01E0
FF80F0
ENDCHAR
STARTCHAR Aacute
ENCODING 193
SWIDTH 635 0
DWIDTH 21 0
BBX 23 30 -1 0
BITMAP
000200
000F00
001F00
007800
00C000
000000
003800
003800
003C00
007C00
005C00
004E00
00CE00
008E00
008700
018700
018700
010780
030380
030380
03FFC0
0601C0
0601C0
0C00E0
0C00E0
0C00E0
180070
180070
380078
FF03FE
ENDCHAR
STARTCHAR Acircumflex
ENCODING 194
SWIDTH 635 0
DWIDTH 21 0
BBX 23 29 -1 0
BITMAP
001000
003C00
007E00
01C300
010080
003800
003800
003C00
005C00
005C00
004E00
00CE00
008E00
008F00
018700
010700
010780
030380
030380
07FFC0
0601C0
0401C0
0C01E0
0C00E0
0C00E0
1800F0
180070
380078
FF03FE
ENDCHAR
STARTCHAR Abreve
ENCODING 195
SWIDTH 635 0
DWIDTH 21 0
BBX 23 30 -1 0
BITMAP
010100
010100
008200
00FE00
007C00
000000
003800
003800
003C00
005C00
005C00
004E00
00CE00
008E00
008F00
018700
010700
010780
030380
030380
07FFC0
0601C0
0401C0
0C01E0
0C00E0
0C00E0
1800F0
180070
380078
FF03FE
ENDCHAR
STARTCHAR Adieresis
ENCODING 196
SWIDTH 635 0
DWIDTH 21 0
BBX 23 28 -1 0
BITMAP
018300
03C780
03C780
018300
003800
003800
007C00
005C00
005C00
00DE00
008E00
008E00
018F00
010700
010700
030780
030380
020380
07FFC0
0601C0
0401E0
0C01E0
0C00E0
0800F0
180070
180070
380078
FE03FE
ENDCHAR
STARTCHAR Lacute
ENCODING 197
SWIDTH 568 0
DWIDTH 19 0
BBX 17 30 1 0
BITMAP
004000
00E000
01C000
038000
060000
080000
FF8000
1C0000
1C0000
1C0000
1C0000
1C0000
1C0000
1C0000
1C0000
1C0000
1C0000
1C0000
1C0000
1C0000
1C0000
1C0000
1C0000
1C0000
1C0080
1C0080
1C0080
1C0180
1E0780
FFFF80
ENDCHAR
STARTCHAR Cacute
ENCODING 198
SWIDTH 684 0
DWIDTH 23 0
BBX 20 30 1 0
BITMAP
000080
0001C0
000380
000700
000C00
001000
007F00
03C1F0
0F0070
1E0030
3C0030
380010
780000
780000
700000
700000
F00000
F00000
F00000
F00000
F00000
700000
780000
780010
380010
3C0010
1E0030
0F0070
03C1F0
00FF80
ENDCHAR
STARTCHAR Ccedilla
ENCODING 199
SWIDTH 680 0
DWIDTH 23 0
BBX 20 32 1 -8
BITMAP
007F00
03C1F0
0F0070
1E0030
3C0030
380010
780000
780000
700000
700000
F00000
F00000
F00000
F00000
F00000
700000
780000
780010
380010
3C0010
1E0030
0F0070
07C1F0
00FF80
001000
003000
003800
001E00
000E00
000E00
001C00
007800
ENDCHAR
STARTCHAR Ccaron
ENCODING 200
SWIDTH 684 0
DWIDTH 23 0
BBX 20 30 1 0
BITMAP
008040
00C0C0
006180
003300
001E00
001E00
007F00
03C1F0
0F0070
1E0030
3C0030
380010
780000
780000
700000
700000
F00000
F00000
F00000
F00000
F00000
700000
780000
780010
380010
3C0010
1E0030
0F0070
03C1F0
00FF80
ENDCHAR
STARTCHAR Eacute
ENCODING 201
SWIDTH 606 0
DWIDTH 20 0
BBX 18 30 1 0
BITMAP
000800
003C00
007C00
01E000
030000
000000
FFFF80
1C0380
1C0180
1C0080
1C0080
1C0000
1C0000
1C0000
1C0200
1C0200
1C0600
1FFE00
1C0600
1C0200
1C0200
1C0000
1C0000
1C0000
1C0040
1C00C0
1C00C0
1C01C0
1E0380
FFFF80
ENDCHAR
STARTCHAR Eogonek
ENCODING 202
SWIDTH 606 0
DWIDTH 20 0
BBX 18 31 1 -7
BITMAP
FFFF80
1C0380
1C0180
1C0080
1C0080
1C0000
1C0000
1C0000
1C0200
1C0200
1C0600
1FFE00
1C0600
1C0200
1C0200
1C0000
1C0000
1C0000
1C0040
1C00C0
1C00C0
1C01C0
1E0380
FFFF80
000600
000C00
000800
001800
001800
001C80
000700
ENDCHAR
STARTCHAR Edieresis
ENCODING 203
SWIDTH 606 0
DWIDTH 20 0
BBX 18 28 1 0
BITMAP
060C00
0F1E00
0F1E00
060C00
FFFF80
1C0380
1C0180
1C0080
1C0080
1C0000
1C0000
1C0000
1C0200
1C0200
1C0600
1FFE00
1C0600
1C0200
1C0200
1C0000
1C0000
1C0000
1C0040
1C00C0
1C00C0
1C01C0
1E0380
FFFF80
ENDCHAR
STARTCHAR Ecaron
ENCODING 204
SWIDTH 606 0
DWIDTH 20 0
BBX 18 30 1 0
BITMAP
080400
0C0C00
061800
033000
01E000
01E000
FFFF80
1C0380
1C0180
1C0080
1C0080
1C0000
1C0000
1C0000
1C0200
1C0200
1C0600
1FFE00
1C0600
1C0200
1C0200
1C0000
1C0000
1C0000
1C0040
1C00C0
1C00C0
1C01C0
1E0380
FFFF80
ENDCHAR
STARTCHAR Iacute
ENCODING 205
SWIDTH 349 0
DWIDTH 12 0
BBX 10 30 1 0
BITMAP
0080
03C0
0F80
1E00
3000
0000
FF80
1C00
1C00
1C00
1C00
1C00
1C00
1C00
1C00
1C00
1C00
1C00
1C00
1C00
1C00
1C00
1C00
1C00
1C00
1C00
1C00
1C00
1C00
FF80
ENDCHAR
STARTCHAR Icircumflex
ENCODING 206
SWIDTH 349 0
DWIDTH 12 0
BBX 9 29 1 0
BITMAP
0800
1C00
3F00
E380
8080
FF80
1C00
1C00
1C00
1C00
1C00
1C00
1C00
1C00
1C00
1C00
1C00
1C00
1C00
1C00
1C00
1C00
1C00
1C00
1C00
1C00
1C00
1C00
FF80
ENDCHAR
STARTCHAR Dcaron
ENCODING 207
SWIDTH 779 0
DWIDTH 26 0
BBX 24 30 1 0
BITMAP
040200
060600
030C00
019800
00F000
00F000
FFFF00
1C07E0
1C00F0
1C0078
1C003C
1C001C
1C001E
1C000E
1C000E
1C000F
1C000F
1C000F
1C000F
1C000F
1C000F
1C000E
1C001E
1C001E
1C001C
1C003C
1C0078
1C00F0
1E03C0
FFFF00
ENDCHAR
STARTCHAR Eth
ENCODING 208
SWIDTH 785 0
DWIDTH 26 0
BBX 24 24 1 0
BITMAP
7FFF00
0E03E0
0E00F0
0E0078
0E003C
0E001C
0E001E
0E000E
0E000E
0E000F
0E000F
FFF00F
0E000F
0E000F
0E000F
0E000E
0E001E
0E001E
0E001C
0E003C
0E0078
0E00F0
0F03C0
7FFF00
ENDCHAR
STARTCHAR Nacute
ENCODING 209
SWIDTH 780 0
DWIDTH 26 0
BBX 24 30 1 0
BITMAP
000040
0000E0
0001C0
000380
000600
000800
FE00FF
1F003C
1F0018
1F8018
1BC018
1BC018
19E018
18E018
18F018
187818
183818
183C18
181E18
180E18
180F18
180798
180398
1803D8
1801F8
1800F8
1800F8
180078
3C0038
FF0038
ENDCHAR
STARTCHAR Ncaron
ENCODING 210
SWIDTH 780 0
DWIDTH 26 0
BBX 24 30 1 0
BITMAP
008040
00C0C0
006180
003300
001E00
001E00
FE0CFF
1F003C
1F0018
1F8018
1BC018
1BC018
19E018
18E018
18F018
187818
183818
183C18
181E18
180E18
180F18
180798
180398
1803D8
1801F8
1800F8
1800F8
180078
3C0038
FF0038
ENDCHAR
STARTCHAR Oacute
ENCODING 211
SWIDTH 762 0
DWIDTH 25 0
BBX 23 30 1 0
BITMAP
000200
000F00
001F00
007800
00C000
000000
00FE00
0783C0
0E00E0
1C0070
380038
380038
78003C
70001C
70001C
F0001E
F0001E
F0001E
F0001E
F0001E
F0001E
70001C
70001C
78003C
380038
380038
1C0070
0E00E0
0783C0
00FE00
ENDCHAR
STARTCHAR Ocircumflex
ENCODING 212
SWIDTH 762 0
DWIDTH 25 0
BBX 23 29 1 0
BITMAP
001000
003800
00FE00
01C700
020080
00FE00
0783C0
0E00E0
1C0070
380038
380038
78003C
70001C
70001C
F0001E
F0001E
F0001E
F0001E
F0001E
F0001E
70001C
70001C
78003C
380038
380038
1C0070
0E00E0
0783C0
00FE00
ENDCHAR
STARTCHAR Ohungarumlaut
ENCODING 213
SWIDTH 762 0
DWIDTH 25 0
BBX 23 30 1 0
BITMAP
001880
0019C0
003980
003380
003300
006200
00FE00
0783C0
0E00E0
1C0070
380038
380038
78003C
70001C
70001C
F0001E
F0001E
F0001E
F0001E
F0001E
F0001E
70001C
70001C
78003C
380038
380038
1C0070
0E00E0
0783C0
00FE00
ENDCHAR
STARTCHAR Odieresis
ENCODING 214
SWIDTH 762 0
DWIDTH 25 0
BBX 23 28 1 0
BITMAP
018300
03C780
03C780
018300
00FE00
0783C0
0E00E0
1C0070
380038
380038
78003C
70001C
70001C
F0001E
F0001E
F0001E
F0001E
F0001E
F0001E
70001C
70001C
78003C
380038
380038
1C0070
0E00E0
0783C0
00FE00
ENDCHAR
STARTCHAR multiply
ENCODING 215
SWIDTH 570 0
DWIDTH 19 0
BBX 15 15 2 1
BITMAP
4004
E00E
701C
3838
1C70
0EE0
07C0
0380
07C0
0EE0
1C70
3838
701C
E00E
4004
ENDCHAR
STARTCHAR Rcaron
ENCODING 216
SWIDTH 644 0
DWIDTH 21 0
BBX 20 30 1 0
BITMAP
080400
0C0C00
061800
033000
01E000
01E000
FFFC00
1C1F00
1C0780
1C0380
1C03C0
1C03C0
1C03C0
1C03C0
1C0380
1C0780
1C0700
1C1E00
1FF000
1C1E00
1C0F00
1C0700
1C0700
1C0780
1C0780
1C0780
1C0380
1C03C0
1C01E0
FF80F0
ENDCHAR
STARTCHAR Uring
ENCODING 217
SWIDTH 791 0
DWIDTH 26 0
BBX 24 30 1 0
BITMAP
001C00
002200
006300
006300
006300
002200
FF9DFF
1C0038
1C0038
1C0038
1C0038
1C0038
1C0038
1C0038
1C0038
1C0038
1C0038
1C0038
1C0038
1C0038
1C0038
1C0038
1C0038
1C0038
0C0030
0E0070
0E0070
0700E0
0381C0
007E00
ENDCHAR
STARTCHAR Uacute
ENCODING 218
SWIDTH 791 0
DWIDTH 26 0
BBX 24 30 1 0
BITMAP
000100
000780
000F80
003C00
006000
000000
FF81FF
1C0038
1C0038
1C0038
1C0038
1C0038
1C0038
1C0038
1C0038
1C0038
1C0038
1C0038
1C0038
1C0038
1C0038
1C0038
1C0038
1C0038
0C0030
0E0070
0E0070
0700E0
0381C0
007E00
ENDCHAR
STARTCHAR Uhungarumlaut
ENCODING 219
SWIDTH 791 0
DWIDTH 26 0
BBX 24 30 1 0
BITMAP
001880
0019C0
003980
003380
003300
006200
FFC3FF
1C0038
1C0038
1C0038
1C0038
1C0038
1C0038
1C0038
1C0038
1C0038
1C0038
1C0038
1C0038
1C0038
1C0038
1C0038
1C0038
1C0038
0C0030
0E0070
0E0070
0700E0
0381C0
007E00
ENDCHAR
STARTCHAR Udieresis
ENCODING 220
SWIDTH 791 0
DWIDTH 26 0
BBX 24 28 1 0
BITMAP
00C180
01E3C0
01E3C0
00C180
FFC1FF
1C0038
1C0038
1C0038
1C0038
1C0038
1C0038
1C0038
1C0038
1C0038
1C0038
1C0038
1C0038
1C0038
1C0038
1C0038
1C0038
1C0038
0C0030
0E0070
0E0070
0700E0
0381C0
007E00
ENDCHAR
STARTCHAR Yacute
ENCODING 221
SWIDTH 588 0
DWIDTH 20 0
BBX 21 30 0 0
BITMAP
000100
000780
001F00
003C00
006000
000000
FF83F8
3C00E0
1C00C0
1E0180
0E0180
0F0300
070300
078200
038600
03C400
01CC00
01E800
00F800
00F000
007000
007000
007000
007000
007000
007000
007000
007000
007000
07FE00
ENDCHAR
STARTCHAR Tcedilla
ENCODING 222
SWIDTH 621 0
DWIDTH 21 0
BBX 19 32 1 -8
BITMAP
FFFFE0
E0E0E0
C0E060
80E020
80E020
80E020
00E000
00E000
00E000
00E000
00E000
00E000
00E000
00E000
00E000
00E000
00E000
00E000
00E000
00E000
00E000
00E000
00E000
0FFE00
006000
004000
00F000
007800
003800
003800
007000
01E000
ENDCHAR
STARTCHAR germandbls
ENCODING 223
SWIDTH 601 0
DWIDTH 20 0
BBX 18 25 1 0
BITMAP
03F000
070C00
0E0E00
1C0700
1C0700
380700
380600
380E00
381C00
383800
383000
387000
387000
383800
383C00
381E00
380F00
380780
380380
380180
3801C0
3801C0
386180
387380
FE1C00
ENDCHAR
STARTCHAR racute
ENCODING 224
SWIDTH 389 0
DWIDTH 13 0
BBX 13 25 2 0
BITMAP
0010
0038
0070
00E0
0180
0200
0000
0000
38C0
F9E0
3FE0
3C40
3800
3800
3800
3800
3800
3800
3800
3800
3800
3800
3800
3800
FF00
ENDCHAR
STARTCHAR aacute
ENCODING 225
SWIDTH 523 0
DWIDTH 17 0
BBX 15 25 2 0
BITMAP
0020
0060
01E0
01C0
0300
0C00
0000
0000
07C0
38E0
F0F0
E070
6070
0070
01F0
0770
3C70
7070
E070
E070
E070
E070
70F0
7F7E
3C38
ENDCHAR
STARTCHAR acircumflex
ENCODING 226
SWIDTH 523 0
DWIDTH 17 0
BBX 15 24 2 0
BITMAP
0200
0700
0F80
18C0
3060
2020
0000
07C0
38E0
F0F0
E070
6070
0070
00F0
0770
1C70
7070
E070
E070
E070
E070
70F0
7F7E
3C38
ENDCHAR
STARTCHAR abreve
ENCODING 227
SWIDTH 523 0
DWIDTH 17 0
BBX 15 25 2 0
BITMAP
1010
1010
0820
0FE0
07C0
0000
0000
0000
07C0
38E0
F0F0
E070
6070
0070
01F0
0770
3C70
7070
E070
E070
E070
E070
70F0
7F7E
3C38
ENDCHAR
STARTCHAR adieresis
ENCODING 228
SWIDTH 523 0
DWIDTH 17 0
BBX 15 23 2 0
BITMAP
3060
78F0
78F0
3060
0000
0000
07C0
38E0
F0F0
E070
6070
0070
01F0
0770
3C70
7070
E070
E070
E070
E070
70F0
7F7E
3C38
ENDCHAR
STARTCHAR lacute
ENCODING 229
SWIDTH 279 0
DWIDTH 9 0
BBX 10 31 1 0
BITMAP
0080
01C0
0380
0700
0C00
1000
1800
F800
3800
3800
3800
3800
3800
3800
3800
3800
3800
3800
3800
3800
3800
3800
3800
3800
3800
3800
3800
3800
3800
3800
FE00
ENDCHAR
STARTCHAR cacute
ENCODING 230
SWIDTH 496 0
DWIDTH 17 0
BBX 14 24 2 0
BITMAP
0010
0038
0070
00E0
0180
0200
0000
07C0
1870
3038
7038
6010
E000
E000
E000
E000
E000
E000
F000
700C
7818
3C30
1FE0
0700
ENDCHAR
STARTCHAR ccedilla
ENCODING 231
SWIDTH 496 0
DWIDTH 17 0
BBX 13 25 2 -8
BITMAP
0780
18F0
3078
7038
6010
E000
E000
E000
E000
E000
E000
F000
7008
7018
3830
1FE0
0780
0200
0200
0700
03C0
01C0
01C0
0380
0F00
ENDCHAR
STARTCHAR ccaron
ENCODING 232
SWIDTH 496 0
DWIDTH 17 0
BBX 14 25 2 0
BITMAP
1008
1818
0C30
0660
03C0
03C0
0180
0000
07C0
1870
3038
7038
6010
E000
E000
E000
E000
E000
E000
F000
700C
7818
3C30
1FE0
0700
ENDCHAR
STARTCHAR eacute
ENCODING 233
SWIDTH 514 0
DWIDTH 17 0
BBX 14 24 2 0
BITMAP
0030
0070
01E0
03C0
0700
0400
0000
0780
1C70
3038
7018
601C
E01C
E01C
FFFC
E000
E000
E000
E000
700C
7808
3C38
1FF0
07C0
ENDCHAR
STARTCHAR eogonek
ENCODING 234
SWIDTH 514 0
DWIDTH 17 0
BBX 14 24 2 -7
BITMAP
0780
1C70
3038
7018
601C
E01C
E01C
FFFC
E000
E000
E000
E000
700C
7808
3C38
1FF0
07C0
0180
0300
0200
0600
0600
0720
01C0
ENDCHAR
STARTCHAR edieresis
ENCODING 235
SWIDTH 514 0
DWIDTH 17 0
BBX 14 23 2 0
BITMAP
3060
78F0
78F0
3060
0000
0000
0780
1C70
3038
7018
601C
E01C
E01C
FFFC
E000
E000
E000
E000
700C
7808
3C38
1FF0
07C0
ENDCHAR
STARTCHAR ecaron
ENCODING 236
SWIDTH 514 0
DWIDTH 17 0
BBX 14 25 2 0
BITMAP
2010
3030
1860
0CC0
0780
0780
0300
0000
0780
1C70
3038
7018
601C
E01C
E01C
FFFC
E000
E000
E000
E000
700C
7808
3C38
1FF0
07C0
ENDCHAR
STARTCHAR iacute
ENCODING 237
SWIDTH 291 0
DWIDTH 10 0
BBX 7 24 2 0
BITMAP
06
0E
1C
38
60
80
00
38
F8
38
38
38
38
38
38
38
38
38
38
38
38
38
38
FE
ENDCHAR
STARTCHAR icircumflex
ENCODING 238
SWIDTH 291 0
DWIDTH 10 0
BBX 10 24 0 0
BITMAP
0400
0E00
1F00
3380
60C0
C040
0000
0E00
3E00
0E00
0E00
0E00
0E00
0E00
0E00
0E00
0E00
0E00
0E00
0E00
0E00
0E00
0E00
3F80
ENDCHAR
STARTCHAR dcaron
ENCODING 239
SWIDTH 687 0
DWIDTH 23 0
BBX 22 25 2 0
BITMAP
000638
003E38
000E3C
000E1C
000E18
000E18
000E10
000E20
07CE40
1C3E00
381E00
700E00
700E00
E00E00
E00E00
E00E00
E00E00
E00E00
E00E00
E00E00
700E00
781E00
3C3E00
1FEE00
070F80
ENDCHAR
STARTCHAR dmacron
ENCODING 240
SWIDTH 598 0
DWIDTH 20 0
BBX 19 25 2 0
BITMAP
000600
003E00
000E00
000E00
07FFE0
07FFE0
000E00
000E00
07CE00
1C3E00
381E00
700E00
700E00
E00E00
E00E00
E00E00
E00E00
E00E00
E00E00
E00E00
700E00
781E00
3C3E00
1FEE00
070F80
ENDCHAR
STARTCHAR nacute
ENCODING 241
SWIDTH 619 0
DWIDTH 21 0
BBX 18 25 2 0
BITMAP
000400
000E00
001C00
003800
006000
008000
000000
000000
387800
F9FE00
3E1E00
3C0F00
380700
380700
380700
380700
380700
380700
380700
380700
380700
380700
380700
380700
FE3FC0
ENDCHAR
STARTCHAR ncaron
ENCODING 242
SWIDTH 619 0
DWIDTH 21 0
BBX 18 25 2 0
BITMAP
040200
060600
030C00
019800
00F000
00F000
006000
000000
387800
F9FE00
3E1E00
3C0F00
380700
380700
380700
380700
380700
380700
380700
380700
380700
380700
380700
380700
FE3FC0
ENDCHAR
STARTCHAR oacute
ENCODING 243
SWIDTH 577 0
DWIDTH 19 0
BBX 15 24 2 0
BITMAP
0030
00F0
01E0
0380
0700
0400
0000
07C0
1830
3018
701C
701C
E00E
E00E
E00E
E00E
E00E
E00E
E00E
701C
701C
3018
1830
07C0
ENDCHAR
STARTCHAR ocircumflex
ENCODING 244
SWIDTH 577 0
DWIDTH 19 0
BBX 15 24 2 0
BITMAP
0100
0380
07C0
0C60
1830
3018
0000
07C0
1830
3018
701C
701C
E00E
E00E
E00E
E00E
E00E
E00E
E00E
701C
701C
3018
1830
07C0
ENDCHAR
STARTCHAR ohungarumlaut
ENCODING 245
SWIDTH 577 0
DWIDTH 19 0
BBX 15 25 2 0
BITMAP
0188
019C
0398
0338
0330
0620
0420
0000
07C0
1830
3018
701C
701C
E00E
E00E
E00E
E00E
E00E
E00E
E00E
701C
701C
3018
1830
07C0
ENDCHAR
STARTCHAR odieresis
ENCODING 246
SWIDTH 577 0
DWIDTH 19 0
BBX 15 23 2 0
BITMAP
1830
3C78
3C78
1830
0000
0000
07C0
1830
3018
701C
701C
E00E
E00E
E00E
E00E
E00E
E00E
E00E
701C
701C
3018
1830
07C0
ENDCHAR
STARTCHAR divide
ENCODING 247
SWIDTH 570 0
DWIDTH 19 0
BBX 16 16 1 1
BITMAP
0180
03C0
03C0
0180
0000
0000
0000
FFFF
FFFF
0000
0000
0000
0180
03C0
03C0
0180
ENDCHAR
STARTCHAR rcaron
ENCODING 248
SWIDTH 389 0
DWIDTH 13 0
BBX 11 25 2 0
BITMAP
4020
6060
30C0
1980
0F00
0F00
0600
0000
38C0
F9E0
3FE0
3C40
3800
3800
3800
3800
3800
3800
3800
3800
3800
3800
3800
3800
FF00
ENDCHAR
STARTCHAR uring
ENCODING 249
SWIDTH 606 0
DWIDTH 20 0
BBX 18 25 1 0
BITMAP
00E000
011000
031800
031800
031800
011000
00E000
000000
380700
F81F00
380700
380700
380700
380700
380700
380700
380700
380700
380700
380700
380700
3C0F00
1E1F00
1FE700
0707C0
ENDCHAR
STARTCHAR uacute
ENCODING 250
SWIDTH 606 0
DWIDTH 20 0
BBX 18 24 1 0
BITMAP
000C00
003C00
007800
007000
00C000
010000
000000
380700
F81F00
380700
380700
380700
380700
380700
380700
380700
380700
380700
380700
380700
3C0F00
1E1F00
1FE700
0707C0
ENDCHAR
STARTCHAR uhungarumlaut
ENCODING 251
SWIDTH 606 0
DWIDTH 20 0
BBX 18 25 1 0
BITMAP
00C400
00CE00
01CC00
019C00
019800
031000
021000
000000
380700
F81F00
380700
380700
380700
380700
380700
380700
380700
380700
380700
380700
380700
3C0F00
1E1F00
1FE700
0707C0
ENDCHAR
STARTCHAR udieresis
ENCODING 252
SWIDTH 606 0
DWIDTH 20 0
BBX 18 23 1 0
BITMAP
060C00
0F1E00
0F1E00
060C00
000000
000000
380700
F81F00
380700
380700
380700
380700
380700
380700
380700
380700
380700
380700
380700
3C0F00
1E1F00
1FE700
0707C0
ENDCHAR
STARTCHAR yacute
ENCODING 253
SWIDTH 506 0
DWIDTH 17 0
BBX 17 33 0 -8
BITMAP
000800
001C00
003C00
007000
00E000
018000
000000
000000
FF1F80
3C0600
3C0600
1C0400
1E0C00
0E0C00
0E0800
0F0800
071800
071000
039000
03B000
03A000
01E000
01E000
01E000
00C000
00C000
00C000
008000
008000
110000
390000
3E0000
1C0000
ENDCHAR
STARTCHAR tcedilla
ENCODING 254
SWIDTH 344 0
DWIDTH 11 0
BBX 10 29 2 -8
BITMAP
0800
1800
1800
3800
FF80
3800
3800
3800
3800
3800
3800
3800
3800
3800
3800
3800
3800
3800
3C00
1FC0
0E00
0C00
0800
1E00
0F00
0700
0700
0E00
3C00
ENDCHAR
STARTCHAR dotaccent
ENCODING 255
SWIDTH 303 0
DWIDTH 10 0
BBX 4 4 3 19
BITMAP
60
F0
F0
60
ENDCHAR
ENDFONT
