STARTFONT 2.1
COMMENT +
COMMENT  Copyright 1986, 1985 Bigelow & Holmes. 
COMMENT  Copyright 1996 BIZNET Poland, Inc.
COMMENT -
FONT -BIZNET-FotinosBright-DemiBold-R-Normal--12-120-75-75-P-71-ISO8859-2
SIZE 12 72 72
FONTBOUNDINGBOX 12 12 0 -2
STARTPROPERTIES 21
FOUNDRY "BIZNET"
FAMILY_NAME "BIZNET FotinosBright"
WEIGHT_NAME "DemiBold"
SLANT "R"
SETWIDTH_NAME "Normal"
ADD_STYLE_NAME ""
PIXEL_SIZE 12
POINT_SIZE 120
RESOLUTION_X 75
RESOLUTION_Y 75
SPACING "P"
AVERAGE_WIDTH 71
CHARSET_REGISTRY "ISO8859"
CHARSET_ENCODING "2"
FONT_ASCENT 11
FONT_DESCENT 3
FACE_NAME "BIZNET Fotinos Bright Demibold"
DEFAULT_CHAR 0
CHARSET_COLLECTIONS "ASCII ISO8859-2"
COPYRIGHT "Copyright Bigelow & Holmes 1986, 1985. Copyright (c) 1996 BIZNET Poland, Inc. All Rights Reserved."
NOTICE "The name "BIZNET" is a registered trademark of BIZNET Poland, Inc."
ENDPROPERTIES
CHARS 190
STARTCHAR space
ENCODING 32
SWIDTH 333 0
DWIDTH 4 0
BBX 1 1 0 0
BITMAP
00
ENDCHAR
STARTCHAR exclam
ENCODING 33
SWIDTH 265 0
DWIDTH 3 0
BBX 2 9 1 0
BITMAP
C0
C0
C0
C0
40
40
00
C0
C0
ENDCHAR
STARTCHAR quotedbl
ENCODING 34
SWIDTH 461 0
DWIDTH 6 0
BBX 5 4 0 5
BITMAP
D8
D8
50
50
ENDCHAR
STARTCHAR numbersign
ENCODING 35
SWIDTH 663 0
DWIDTH 8 0
BBX 7 9 0 0
BITMAP
14
24
7E
28
28
FC
48
50
50
ENDCHAR
STARTCHAR dollar
ENCODING 36
SWIDTH 623 0
DWIDTH 7 0
BBX 5 11 1 -1
BITMAP
20
78
E8
E0
60
30
38
B8
B8
F0
20
ENDCHAR
STARTCHAR percent
ENCODING 37
SWIDTH 759 0
DWIDTH 9 0
BBX 8 9 1 0
BITMAP
63
F2
F4
F8
78
16
2F
4F
C6
ENDCHAR
STARTCHAR ampersand
ENCODING 38
SWIDTH 765 0
DWIDTH 9 0
BBX 8 9 1 0
BITMAP
38
6C
6C
30
73
DA
CE
EE
7F
ENDCHAR
STARTCHAR quoteright
ENCODING 39
SWIDTH 265 0
DWIDTH 3 0
BBX 2 4 1 5
BITMAP
C0
C0
C0
C0
ENDCHAR
STARTCHAR parenleft
ENCODING 40
SWIDTH 327 0
DWIDTH 4 0
BBX 3 11 0 -2
BITMAP
20
40
40
C0
C0
C0
C0
C0
40
40
20
ENDCHAR
STARTCHAR parenright
ENCODING 41
SWIDTH 327 0
DWIDTH 4 0
BBX 3 11 0 -2
BITMAP
80
40
40
60
60
60
60
60
40
40
80
ENDCHAR
STARTCHAR asterisk
ENCODING 42
SWIDTH 434 0
DWIDTH 5 0
BBX 5 4 0 5
BITMAP
20
F8
50
D0
ENDCHAR
STARTCHAR plus
ENCODING 43
SWIDTH 623 0
DWIDTH 7 0
BBX 7 8 0 0
BITMAP
10
10
10
10
FE
10
10
10
ENDCHAR
STARTCHAR comma
ENCODING 44
SWIDTH 265 0
DWIDTH 3 0
BBX 2 4 1 -2
BITMAP
C0
C0
C0
C0
ENDCHAR
STARTCHAR minus
ENCODING 45
SWIDTH 623 0
DWIDTH 7 0
BBX 7 1 0 3
BITMAP
FE
ENDCHAR
STARTCHAR period
ENCODING 46
SWIDTH 265 0
DWIDTH 3 0
BBX 2 2 1 0
BITMAP
C0
C0
ENDCHAR
STARTCHAR slash
ENCODING 47
SWIDTH 527 0
DWIDTH 6 0
BBX 6 11 0 -2
BITMAP
04
08
08
10
10
30
20
20
40
40
80
ENDCHAR
STARTCHAR zero
ENCODING 48
SWIDTH 623 0
DWIDTH 7 0
BBX 7 9 0 0
BITMAP
38
6C
C6
C6
C6
C6
C6
6C
38
ENDCHAR
STARTCHAR one
ENCODING 49
SWIDTH 623 0
DWIDTH 7 0
BBX 6 9 1 0
BITMAP
F0
30
30
30
30
30
30
30
FC
ENDCHAR
STARTCHAR two
ENCODING 50
SWIDTH 623 0
DWIDTH 7 0
BBX 6 9 1 0
BITMAP
F8
8C
8C
0C
18
20
40
FC
FC
ENDCHAR
STARTCHAR three
ENCODING 51
SWIDTH 623 0
DWIDTH 7 0
BBX 6 9 1 0
BITMAP
F8
8C
0C
08
70
1C
0C
8C
F8
ENDCHAR
STARTCHAR four
ENCODING 52
SWIDTH 623 0
DWIDTH 7 0
BBX 7 9 0 0
BITMAP
0C
1C
2C
4C
FE
FE
0C
0C
1E
ENDCHAR
STARTCHAR five
ENCODING 53
SWIDTH 623 0
DWIDTH 7 0
BBX 5 9 1 0
BITMAP
F8
F8
80
80
F0
38
18
98
F0
ENDCHAR
STARTCHAR six
ENCODING 54
SWIDTH 623 0
DWIDTH 7 0
BBX 7 9 0 0
BITMAP
3E
62
C0
FC
CE
C6
C6
66
3C
ENDCHAR
STARTCHAR seven
ENCODING 55
SWIDTH 623 0
DWIDTH 7 0
BBX 6 9 1 0
BITMAP
FC
FC
08
18
30
20
60
C0
C0
ENDCHAR
STARTCHAR eight
ENCODING 56
SWIDTH 623 0
DWIDTH 7 0
BBX 6 9 1 0
BITMAP
78
CC
CC
68
38
CC
CC
CC
78
ENDCHAR
STARTCHAR nine
ENCODING 57
SWIDTH 623 0
DWIDTH 7 0
BBX 7 9 0 0
BITMAP
78
CC
C6
C6
E6
7E
06
8C
F8
ENDCHAR
STARTCHAR colon
ENCODING 58
SWIDTH 265 0
DWIDTH 3 0
BBX 2 6 1 0
BITMAP
C0
C0
00
00
C0
C0
ENDCHAR
STARTCHAR semicolon
ENCODING 59
SWIDTH 265 0
DWIDTH 3 0
BBX 2 8 1 -2
BITMAP
C0
C0
00
00
C0
C0
C0
80
ENDCHAR
STARTCHAR less
ENCODING 60
SWIDTH 623 0
DWIDTH 7 0
BBX 7 8 0 0
BITMAP
02
0C
18
E0
60
18
0C
02
ENDCHAR
STARTCHAR equal
ENCODING 61
SWIDTH 623 0
DWIDTH 7 0
BBX 7 3 0 2
BITMAP
FE
00
FE
ENDCHAR
STARTCHAR greater
ENCODING 62
SWIDTH 623 0
DWIDTH 7 0
BBX 7 8 0 0
BITMAP
80
60
30
0C
0E
30
60
80
ENDCHAR
STARTCHAR question
ENCODING 63
SWIDTH 505 0
DWIDTH 6 0
BBX 5 9 1 0
BITMAP
F0
98
18
10
20
60
60
60
60
ENDCHAR
STARTCHAR at
ENCODING 64
SWIDTH 861 0
DWIDTH 10 0
BBX 9 9 1 0
BITMAP
1E00
2100
5880
9E80
B280
B680
BB80
4000
3E00
ENDCHAR
STARTCHAR A
ENCODING 65
SWIDTH 795 0
DWIDTH 10 0
BBX 10 9 0 0
BITMAP
0C00
0C00
1E00
1600
2300
3F00
4180
4180
C3C0
ENDCHAR
STARTCHAR B
ENCODING 66
SWIDTH 639 0
DWIDTH 8 0
BBX 7 9 0 0
BITMAP
FC
66
66
64
78
66
66
66
FC
ENDCHAR
STARTCHAR C
ENCODING 67
SWIDTH 711 0
DWIDTH 9 0
BBX 8 9 0 0
BITMAP
3F
61
C1
C0
C0
C0
C0
61
3F
ENDCHAR
STARTCHAR D
ENCODING 68
SWIDTH 794 0
DWIDTH 10 0
BBX 9 9 0 0
BITMAP
FE00
6300
6180
6180
6180
6180
6180
6300
FE00
ENDCHAR
STARTCHAR E
ENCODING 69
SWIDTH 601 0
DWIDTH 7 0
BBX 7 9 0 0
BITMAP
FE
62
60
64
7C
64
60
62
FE
ENDCHAR
STARTCHAR F
ENCODING 70
SWIDTH 584 0
DWIDTH 7 0
BBX 7 9 0 0
BITMAP
FE
62
60
64
7C
64
60
60
F0
ENDCHAR
STARTCHAR G
ENCODING 71
SWIDTH 753 0
DWIDTH 9 0
BBX 8 9 1 0
BITMAP
3E
62
C2
C0
C0
CF
C6
66
3E
ENDCHAR
STARTCHAR H
ENCODING 72
SWIDTH 798 0
DWIDTH 10 0
BBX 9 9 0 0
BITMAP
F780
6300
6300
6300
7F00
6300
6300
6300
F780
ENDCHAR
STARTCHAR I
ENCODING 73
SWIDTH 349 0
DWIDTH 4 0
BBX 4 9 0 0
BITMAP
F0
60
60
60
60
60
60
60
F0
ENDCHAR
STARTCHAR J
ENCODING 74
SWIDTH 452 0
DWIDTH 5 0
BBX 5 11 0 -2
BITMAP
78
30
30
30
30
30
30
30
30
B0
E0
ENDCHAR
STARTCHAR K
ENCODING 75
SWIDTH 747 0
DWIDTH 9 0
BBX 9 9 0 0
BITMAP
F300
6200
6400
6800
7800
6C00
6E00
6700
F780
ENDCHAR
STARTCHAR L
ENCODING 76
SWIDTH 584 0
DWIDTH 7 0
BBX 7 9 0 0
BITMAP
F0
60
60
60
60
60
60
62
FE
ENDCHAR
STARTCHAR M
ENCODING 77
SWIDTH 904 0
DWIDTH 11 0
BBX 10 9 0 0
BITMAP
E1C0
7180
7380
7380
5D80
5D80
4D80
4980
E3C0
ENDCHAR
STARTCHAR N
ENCODING 78
SWIDTH 788 0
DWIDTH 9 0
BBX 9 9 0 0
BITMAP
E380
6100
7100
7900
5D00
4D00
4700
4700
E300
ENDCHAR
STARTCHAR O
ENCODING 79
SWIDTH 810 0
DWIDTH 10 0
BBX 9 9 0 0
BITMAP
3E00
6300
C180
C180
C180
C180
C180
6300
3E00
ENDCHAR
STARTCHAR P
ENCODING 80
SWIDTH 614 0
DWIDTH 7 0
BBX 7 9 0 0
BITMAP
FC
66
66
66
7C
60
60
60
F0
ENDCHAR
STARTCHAR Q
ENCODING 81
SWIDTH 810 0
DWIDTH 10 0
BBX 10 11 1 -2
BITMAP
3E00
6300
C180
C180
C180
C180
C180
6300
3E00
03C0
0180
ENDCHAR
STARTCHAR R
ENCODING 82
SWIDTH 720 0
DWIDTH 9 0
BBX 9 9 0 0
BITMAP
FC00
6600
6600
6E00
7800
6C00
6600
6700
F380
ENDCHAR
STARTCHAR S
ENCODING 83
SWIDTH 556 0
DWIDTH 7 0
BBX 6 9 0 0
BITMAP
78
C8
C8
E0
78
1C
8C
8C
F8
ENDCHAR
STARTCHAR T
ENCODING 84
SWIDTH 714 0
DWIDTH 9 0
BBX 8 9 0 0
BITMAP
FF
99
18
18
18
18
18
18
3C
ENDCHAR
STARTCHAR U
ENCODING 85
SWIDTH 747 0
DWIDTH 9 0
BBX 9 9 0 0
BITMAP
F380
6100
6100
6100
6100
6100
6100
6100
3E00
ENDCHAR
STARTCHAR V
ENCODING 86
SWIDTH 753 0
DWIDTH 9 0
BBX 9 9 0 0
BITMAP
F180
6100
7100
3200
3200
1E00
1C00
0C00
0800
ENDCHAR
STARTCHAR W
ENCODING 87
SWIDTH 955 0
DWIDTH 11 0
BBX 11 9 0 0
BITMAP
E660
6640
6640
6E40
7B80
3B80
3380
3100
1100
ENDCHAR
STARTCHAR X
ENCODING 88
SWIDTH 702 0
DWIDTH 8 0
BBX 8 9 0 0
BITMAP
F3
62
36
3C
18
2C
6E
46
CF
ENDCHAR
STARTCHAR Y
ENCODING 89
SWIDTH 717 0
DWIDTH 9 0
BBX 8 9 0 0
BITMAP
E3
62
72
34
38
18
18
18
3C
ENDCHAR
STARTCHAR Z
ENCODING 90
SWIDTH 639 0
DWIDTH 8 0
BBX 6 9 1 0
BITMAP
FC
8C
18
38
30
70
60
C4
FC
ENDCHAR
STARTCHAR bracketleft
ENCODING 91
SWIDTH 327 0
DWIDTH 4 0
BBX 3 11 1 -2
BITMAP
E0
C0
C0
C0
C0
C0
C0
C0
C0
C0
E0
ENDCHAR
STARTCHAR backslash
ENCODING 92
SWIDTH 527 0
DWIDTH 6 0
BBX 6 11 0 -2
BITMAP
80
40
40
20
20
30
10
10
08
08
04
ENDCHAR
STARTCHAR bracketright
ENCODING 93
SWIDTH 327 0
DWIDTH 4 0
BBX 3 11 0 -2
BITMAP
E0
60
60
60
60
60
60
60
60
60
E0
ENDCHAR
STARTCHAR asciicircum
ENCODING 94
SWIDTH 623 0
DWIDTH 7 0
BBX 7 8 0 1
BITMAP
10
10
28
28
6C
44
44
82
ENDCHAR
STARTCHAR underscore
ENCODING 95
SWIDTH 500 0
DWIDTH 6 0
BBX 5 1 1 -1
BITMAP
F8
ENDCHAR
STARTCHAR quoteleft
ENCODING 96
SWIDTH 265 0
DWIDTH 3 0
BBX 2 4 1 5
BITMAP
C0
C0
C0
C0
ENDCHAR
STARTCHAR a
ENCODING 97
SWIDTH 556 0
DWIDTH 7 0
BBX 7 6 0 0
BITMAP
78
0C
7C
CC
CC
76
ENDCHAR
STARTCHAR b
ENCODING 98
SWIDTH 640 0
DWIDTH 8 0
BBX 7 9 0 0
BITMAP
E0
60
60
6C
7E
66
66
66
7C
ENDCHAR
STARTCHAR c
ENCODING 99
SWIDTH 541 0
DWIDTH 6 0
BBX 6 6 0 0
BITMAP
3C
C4
C0
C0
E0
3C
ENDCHAR
STARTCHAR d
ENCODING 100
SWIDTH 652 0
DWIDTH 8 0
BBX 7 9 1 0
BITMAP
1C
0C
0C
7C
CC
CC
CC
FC
6E
ENDCHAR
STARTCHAR e
ENCODING 101
SWIDTH 568 0
DWIDTH 7 0
BBX 6 6 0 0
BITMAP
78
CC
FC
C0
E0
7C
ENDCHAR
STARTCHAR f
ENCODING 102
SWIDTH 416 0
DWIDTH 5 0
BBX 5 9 0 0
BITMAP
38
68
60
F0
60
60
60
60
F0
ENDCHAR
STARTCHAR g
ENCODING 103
SWIDTH 599 0
DWIDTH 7 0
BBX 6 8 1 -2
BITMAP
7C
D8
D8
70
FC
7C
CC
F8
ENDCHAR
STARTCHAR h
ENCODING 104
SWIDTH 654 0
DWIDTH 8 0
BBX 8 9 0 0
BITMAP
E0
60
60
6C
7E
66
66
66
FF
ENDCHAR
STARTCHAR i
ENCODING 105
SWIDTH 325 0
DWIDTH 4 0
BBX 4 9 0 0
BITMAP
60
60
00
E0
60
60
60
60
F0
ENDCHAR
STARTCHAR j
ENCODING 106
SWIDTH 355 0
DWIDTH 4 0
BBX 4 11 0 -2
BITMAP
30
30
00
70
30
30
30
30
30
B0
F0
ENDCHAR
STARTCHAR k
ENCODING 107
SWIDTH 654 0
DWIDTH 7 0
BBX 8 9 0 0
BITMAP
E0
60
60
66
64
78
7C
6E
F7
ENDCHAR
STARTCHAR l
ENCODING 108
SWIDTH 325 0
DWIDTH 4 0
BBX 4 9 0 0
BITMAP
E0
60
60
60
60
60
60
60
F0
ENDCHAR
STARTCHAR m
ENCODING 109
SWIDTH 967 0
DWIDTH 12 0
BBX 12 6 0 0
BITMAP
ECE0
7FE0
6660
6660
6660
FFF0
ENDCHAR
STARTCHAR n
ENCODING 110
SWIDTH 654 0
DWIDTH 8 0
BBX 8 6 0 0
BITMAP
EC
7E
66
66
66
FF
ENDCHAR
STARTCHAR o
ENCODING 111
SWIDTH 617 0
DWIDTH 7 0
BBX 7 6 0 0
BITMAP
7C
EE
C6
C6
EE
7C
ENDCHAR
STARTCHAR p
ENCODING 112
SWIDTH 652 0
DWIDTH 8 0
BBX 7 8 0 -2
BITMAP
EC
7E
66
66
66
7C
60
F0
ENDCHAR
STARTCHAR q
ENCODING 113
SWIDTH 640 0
DWIDTH 8 0
BBX 7 8 1 -2
BITMAP
7C
CC
CC
CC
FC
6C
0C
1E
ENDCHAR
STARTCHAR r
ENCODING 114
SWIDTH 462 0
DWIDTH 6 0
BBX 5 6 0 0
BITMAP
E8
78
60
60
60
F0
ENDCHAR
STARTCHAR s
ENCODING 115
SWIDTH 525 0
DWIDTH 6 0
BBX 5 6 1 0
BITMAP
70
D0
F0
F8
98
F0
ENDCHAR
STARTCHAR t
ENCODING 116
SWIDTH 389 0
DWIDTH 5 0
BBX 5 8 0 0
BITMAP
60
60
F8
60
60
60
60
78
ENDCHAR
STARTCHAR u
ENCODING 117
SWIDTH 654 0
DWIDTH 8 0
BBX 8 6 0 0
BITMAP
EE
66
66
66
7E
37
ENDCHAR
STARTCHAR v
ENCODING 118
SWIDTH 657 0
DWIDTH 8 0
BBX 8 6 0 0
BITMAP
F3
62
76
34
18
18
ENDCHAR
STARTCHAR w
ENCODING 119
SWIDTH 880 0
DWIDTH 11 0
BBX 11 6 0 0
BITMAP
F660
6640
6F40
3B80
3B80
1100
ENDCHAR
STARTCHAR x
ENCODING 120
SWIDTH 608 0
DWIDTH 7 0
BBX 7 6 0 0
BITMAP
F6
74
38
38
4C
CE
ENDCHAR
STARTCHAR y
ENCODING 121
SWIDTH 654 0
DWIDTH 8 0
BBX 8 8 0 -2
BITMAP
F3
62
76
34
18
18
10
60
ENDCHAR
STARTCHAR z
ENCODING 122
SWIDTH 584 0
DWIDTH 7 0
BBX 6 6 0 0
BITMAP
FC
9C
38
70
E4
FC
ENDCHAR
STARTCHAR braceleft
ENCODING 123
SWIDTH 366 0
DWIDTH 4 0
BBX 3 11 1 -2
BITMAP
60
60
60
C0
C0
80
C0
C0
60
60
60
ENDCHAR
STARTCHAR bar
ENCODING 124
SWIDTH 259 0
DWIDTH 3 0
BBX 1 11 1 -2
BITMAP
80
80
80
80
80
80
80
80
80
80
80
ENDCHAR
STARTCHAR braceright
ENCODING 125
SWIDTH 366 0
DWIDTH 4 0
BBX 3 11 1 -2
BITMAP
C0
C0
C0
60
60
20
60
60
C0
C0
C0
ENDCHAR
STARTCHAR asciitilde
ENCODING 126
SWIDTH 623 0
DWIDTH 7 0
BBX 7 2 0 2
BITMAP
72
9C
ENDCHAR
STARTCHAR Aogonek
ENCODING 161
SWIDTH 795 0
DWIDTH 10 0
BBX 11 11 0 -2
BITMAP
0C00
0C00
1E00
1600
2300
3F00
4180
4180
C3C0
0040
0060
ENDCHAR
STARTCHAR breve
ENCODING 162
SWIDTH 520 0
DWIDTH 6 0
BBX 4 2 1 7
BITMAP
90
60
ENDCHAR
STARTCHAR Lslash
ENCODING 163
SWIDTH 584 0
DWIDTH 7 0
BBX 7 9 0 0
BITMAP
F0
60
60
70
E0
60
60
62
FE
ENDCHAR
STARTCHAR currency
ENCODING 164
SWIDTH 623 0
DWIDTH 7 0
BBX 7 9 0 0
BITMAP
82
7C
6C
44
44
44
6C
7C
82
ENDCHAR
STARTCHAR Lcaron
ENCODING 165
SWIDTH 584 0
DWIDTH 7 0
BBX 7 9 0 0
BITMAP
F4
64
64
64
60
60
60
62
FE
ENDCHAR
STARTCHAR Sacute
ENCODING 166
SWIDTH 556 0
DWIDTH 7 0
BBX 6 12 0 0
BITMAP
0C
10
00
78
C8
C8
E0
78
1C
8C
8C
F8
ENDCHAR
STARTCHAR section
ENCODING 167
SWIDTH 623 0
DWIDTH 7 0
BBX 6 11 1 -2
BITMAP
7C
C4
C0
70
FC
CC
FC
78
0C
8C
F8
ENDCHAR
STARTCHAR dieresis
ENCODING 168
SWIDTH 617 0
DWIDTH 7 0
BBX 4 2 2 7
BITMAP
90
90
ENDCHAR
STARTCHAR Scaron
ENCODING 169
SWIDTH 556 0
DWIDTH 7 0
BBX 6 12 0 0
BITMAP
24
18
00
78
C8
C8
E0
78
1C
8C
8C
F8
ENDCHAR
STARTCHAR Scedilla
ENCODING 170
SWIDTH 556 0
DWIDTH 7 0
BBX 6 11 0 -2
BITMAP
78
C8
C8
E0
78
1C
8C
8C
F8
20
30
ENDCHAR
STARTCHAR Tcaron
ENCODING 171
SWIDTH 714 0
DWIDTH 9 0
BBX 8 12 0 0
BITMAP
24
18
00
FF
99
18
18
18
18
18
18
3C
ENDCHAR
STARTCHAR Zacute
ENCODING 172
SWIDTH 639 0
DWIDTH 8 0
BBX 6 12 1 0
BITMAP
0C
10
00
FC
8C
18
38
30
70
60
C4
FC
ENDCHAR
STARTCHAR hyphen
ENCODING 173
SWIDTH 289 0
DWIDTH 3 0
BBX 3 2 0 2
BITMAP
E0
E0
ENDCHAR
STARTCHAR Zcaron
ENCODING 174
SWIDTH 639 0
DWIDTH 8 0
BBX 6 12 1 0
BITMAP
48
30
00
FC
8C
18
38
30
70
60
C4
FC
ENDCHAR
STARTCHAR Zdotaccent
ENCODING 175
SWIDTH 639 0
DWIDTH 8 0
BBX 6 11 1 0
BITMAP
10
00
FC
8C
18
38
30
70
60
C4
FC
ENDCHAR
STARTCHAR degree
ENCODING 176
SWIDTH 259 0
DWIDTH 3 0
BBX 2 2 1 7
BITMAP
C0
C0
ENDCHAR
STARTCHAR aogonek
ENCODING 177
SWIDTH 556 0
DWIDTH 7 0
BBX 8 8 0 -2
BITMAP
78
0C
7C
CC
CC
76
02
03
ENDCHAR
STARTCHAR ogonek
ENCODING 178
SWIDTH 520 0
DWIDTH 6 0
BBX 2 2 2 -2
BITMAP
C0
C0
ENDCHAR
STARTCHAR lslash
ENCODING 179
SWIDTH 325 0
DWIDTH 4 0
BBX 5 9 1 0
BITMAP
70
30
30
38
70
B0
30
30
78
ENDCHAR
STARTCHAR acute
ENCODING 180
SWIDTH 617 0
DWIDTH 7 0
BBX 3 2 3 7
BITMAP
60
80
ENDCHAR
STARTCHAR lcaron
ENCODING 181
SWIDTH 406 0
DWIDTH 5 0
BBX 6 9 0 0
BITMAP
E4
64
64
64
60
60
60
60
F0
ENDCHAR
STARTCHAR sacute
ENCODING 182
SWIDTH 525 0
DWIDTH 6 0
BBX 5 9 1 0
BITMAP
18
20
00
70
D0
F0
F8
98
F0
ENDCHAR
STARTCHAR caron
ENCODING 183
SWIDTH 520 0
DWIDTH 6 0
BBX 4 2 1 7
BITMAP
90
60
ENDCHAR
STARTCHAR cedilla
ENCODING 184
SWIDTH 520 0
DWIDTH 6 0
BBX 2 2 2 -2
BITMAP
80
C0
ENDCHAR
STARTCHAR scaron
ENCODING 185
SWIDTH 525 0
DWIDTH 6 0
BBX 5 9 1 0
BITMAP
48
30
00
70
D0
F0
F8
98
F0
ENDCHAR
STARTCHAR scedilla
ENCODING 186
SWIDTH 525 0
DWIDTH 6 0
BBX 5 8 1 -2
BITMAP
70
D0
F0
F8
98
F0
20
30
ENDCHAR
STARTCHAR tcaron
ENCODING 187
SWIDTH 389 0
DWIDTH 5 0
BBX 5 11 0 0
BITMAP
08
08
08
68
60
F8
60
60
60
60
78
ENDCHAR
STARTCHAR zacute
ENCODING 188
SWIDTH 584 0
DWIDTH 7 0
BBX 6 9 0 0
BITMAP
0C
10
00
FC
9C
38
70
E4
FC
ENDCHAR
STARTCHAR hungarumlaut
ENCODING 189
SWIDTH 520 0
DWIDTH 6 0
BBX 4 2 1 7
BITMAP
50
A0
ENDCHAR
STARTCHAR zcaron
ENCODING 190
SWIDTH 584 0
DWIDTH 7 0
BBX 6 9 0 0
BITMAP
24
18
00
FC
9C
38
70
E4
FC
ENDCHAR
STARTCHAR zdotaccent
ENCODING 191
SWIDTH 584 0
DWIDTH 7 0
BBX 6 8 0 0
BITMAP
10
00
FC
9C
38
70
E4
FC
ENDCHAR
STARTCHAR Racute
ENCODING 192
SWIDTH 720 0
DWIDTH 9 0
BBX 9 12 0 0
BITMAP
0C00
1000
0000
FC00
6600
6600
6E00
7800
6C00
6600
6700
F380
ENDCHAR
STARTCHAR Aacute
ENCODING 193
SWIDTH 795 0
DWIDTH 10 0
BBX 10 12 0 0
BITMAP
0600
0800
0000
0C00
0C00
1E00
1600
2300
3F00
4180
4180
C3C0
ENDCHAR
STARTCHAR Acircumflex
ENCODING 194
SWIDTH 795 0
DWIDTH 10 0
BBX 10 12 0 0
BITMAP
0C00
1200
0000
0C00
0C00
1E00
1600
2300
3F00
4180
4180
C3C0
ENDCHAR
STARTCHAR Abreve
ENCODING 195
SWIDTH 795 0
DWIDTH 10 0
BBX 10 12 0 0
BITMAP
1200
0C00
0000
0C00
0C00
1E00
1600
2300
3F00
4180
4180
C3C0
ENDCHAR
STARTCHAR Adieresis
ENCODING 196
SWIDTH 795 0
DWIDTH 10 0
BBX 10 12 0 0
BITMAP
1200
1200
0000
0C00
0C00
1E00
1600
2300
3F00
4180
4180
C3C0
ENDCHAR
STARTCHAR Lacute
ENCODING 197
SWIDTH 584 0
DWIDTH 7 0
BBX 7 12 0 0
BITMAP
18
20
00
F0
60
60
60
60
60
60
62
FE
ENDCHAR
STARTCHAR Cacute
ENCODING 198
SWIDTH 711 0
DWIDTH 9 0
BBX 8 12 0 0
BITMAP
03
04
00
3F
61
C1
C0
C0
C0
C0
61
3F
ENDCHAR
STARTCHAR Ccedilla
ENCODING 199
SWIDTH 711 0
DWIDTH 9 0
BBX 8 11 0 -2
BITMAP
3F
61
C1
C0
C0
C0
C0
61
3F
10
18
ENDCHAR
STARTCHAR Ccaron
ENCODING 200
SWIDTH 711 0
DWIDTH 9 0
BBX 8 12 0 0
BITMAP
12
0C
00
3F
61
C1
C0
C0
C0
C0
61
3F
ENDCHAR
STARTCHAR Eacute
ENCODING 201
SWIDTH 601 0
DWIDTH 7 0
BBX 7 12 0 0
BITMAP
18
20
00
FE
62
60
64
7C
64
60
62
FE
ENDCHAR
STARTCHAR Eogonek
ENCODING 202
SWIDTH 601 0
DWIDTH 7 0
BBX 7 11 0 -2
BITMAP
FE
62
60
64
7C
64
60
62
FE
04
06
ENDCHAR
STARTCHAR Edieresis
ENCODING 203
SWIDTH 601 0
DWIDTH 7 0
BBX 7 12 0 0
BITMAP
24
24
00
FE
62
60
64
7C
64
60
62
FE
ENDCHAR
STARTCHAR Ecaron
ENCODING 204
SWIDTH 601 0
DWIDTH 7 0
BBX 7 12 0 0
BITMAP
24
18
00
FE
62
60
64
7C
64
60
62
FE
ENDCHAR
STARTCHAR Iacute
ENCODING 205
SWIDTH 349 0
DWIDTH 4 0
BBX 4 12 0 0
BITMAP
30
40
00
F0
60
60
60
60
60
60
60
F0
ENDCHAR
STARTCHAR Icircumflex
ENCODING 206
SWIDTH 349 0
DWIDTH 4 0
BBX 4 12 0 0
BITMAP
60
90
00
F0
60
60
60
60
60
60
60
F0
ENDCHAR
STARTCHAR Dcaron
ENCODING 207
SWIDTH 794 0
DWIDTH 10 0
BBX 9 12 0 0
BITMAP
2400
1800
0000
FE00
6300
6180
6180
6180
6180
6180
6300
FE00
ENDCHAR
STARTCHAR Eth
ENCODING 208
SWIDTH 794 0
DWIDTH 10 0
BBX 9 9 0 0
BITMAP
FE00
6300
6180
6180
F980
6180
6180
6300
FE00
ENDCHAR
STARTCHAR Nacute
ENCODING 209
SWIDTH 788 0
DWIDTH 9 0
BBX 9 12 0 0
BITMAP
0600
0800
0000
E380
6100
7100
7900
5D00
4D00
4700
4700
E300
ENDCHAR
STARTCHAR Ncaron
ENCODING 210
SWIDTH 788 0
DWIDTH 9 0
BBX 9 12 0 0
BITMAP
1200
0C00
0000
E380
6100
7100
7900
5D00
4D00
4700
4700
E300
ENDCHAR
STARTCHAR Oacute
ENCODING 211
SWIDTH 810 0
DWIDTH 10 0
BBX 9 12 0 0
BITMAP
0C00
1000
0000
3E00
6300
C180
C180
C180
C180
C180
6300
3E00
ENDCHAR
STARTCHAR Ocircumflex
ENCODING 212
SWIDTH 810 0
DWIDTH 10 0
BBX 9 12 0 0
BITMAP
1800
2400
0000
3E00
6300
C180
C180
C180
C180
C180
6300
3E00
ENDCHAR
STARTCHAR Ohungarumlaut
ENCODING 213
SWIDTH 810 0
DWIDTH 10 0
BBX 9 12 0 0
BITMAP
0A00
1400
0000
3E00
6300
C180
C180
C180
C180
C180
6300
3E00
ENDCHAR
STARTCHAR Odieresis
ENCODING 214
SWIDTH 810 0
DWIDTH 10 0
BBX 9 12 0 0
BITMAP
2400
2400
0000
3E00
6300
C180
C180
C180
C180
C180
6300
3E00
ENDCHAR
STARTCHAR multiply
ENCODING 215
SWIDTH 623 0
DWIDTH 7 0
BBX 7 8 0 0
BITMAP
82
44
28
38
38
28
44
82
ENDCHAR
STARTCHAR Rcaron
ENCODING 216
SWIDTH 720 0
DWIDTH 9 0
BBX 9 12 0 0
BITMAP
2400
1800
0000
FC00
6600
6600
6E00
7800
6C00
6600
6700
F380
ENDCHAR
STARTCHAR Uring
ENCODING 217
SWIDTH 747 0
DWIDTH 9 0
BBX 9 12 0 0
BITMAP
0C00
0C00
0000
F380
6100
6100
6100
6100
6100
6100
6100
3E00
ENDCHAR
STARTCHAR Uacute
ENCODING 218
SWIDTH 747 0
DWIDTH 9 0
BBX 9 12 0 0
BITMAP
0C00
1000
0000
F380
6100
6100
6100
6100
6100
6100
6100
3E00
ENDCHAR
STARTCHAR Uhungarumlaut
ENCODING 219
SWIDTH 747 0
DWIDTH 9 0
BBX 9 12 0 0
BITMAP
0A00
1400
0000
F380
6100
6100
6100
6100
6100
6100
6100
3E00
ENDCHAR
STARTCHAR Udieresis
ENCODING 220
SWIDTH 747 0
DWIDTH 9 0
BBX 9 12 0 0
BITMAP
2400
2400
0000
F380
6100
6100
6100
6100
6100
6100
6100
3E00
ENDCHAR
STARTCHAR Yacute
ENCODING 221
SWIDTH 717 0
DWIDTH 9 0
BBX 8 12 0 0
BITMAP
0C
10
00
E3
62
72
34
38
18
18
18
3C
ENDCHAR
STARTCHAR Tcedilla
ENCODING 222
SWIDTH 714 0
DWIDTH 9 0
BBX 8 11 0 -2
BITMAP
FF
99
18
18
18
18
18
18
3C
08
0C
ENDCHAR
STARTCHAR germandbls
ENCODING 223
SWIDTH 700 0
DWIDTH 8 0
BBX 8 9 0 0
BITMAP
3C
66
64
68
6C
6E
67
6B
FE
ENDCHAR
STARTCHAR racute
ENCODING 224
SWIDTH 462 0
DWIDTH 6 0
BBX 6 9 0 0
BITMAP
0C
10
00
E8
78
60
60
60
F0
ENDCHAR
STARTCHAR aacute
ENCODING 225
SWIDTH 556 0
DWIDTH 7 0
BBX 7 9 0 0
BITMAP
18
20
00
78
0C
7C
CC
CC
76
ENDCHAR
STARTCHAR acircumflex
ENCODING 226
SWIDTH 556 0
DWIDTH 7 0
BBX 7 9 0 0
BITMAP
30
48
00
78
0C
7C
CC
CC
76
ENDCHAR
STARTCHAR abreve
ENCODING 227
SWIDTH 556 0
DWIDTH 7 0
BBX 7 9 0 0
BITMAP
24
18
00
78
0C
7C
CC
CC
76
ENDCHAR
STARTCHAR adieresis
ENCODING 228
SWIDTH 556 0
DWIDTH 7 0
BBX 7 9 0 0
BITMAP
48
48
00
78
0C
7C
CC
CC
76
ENDCHAR
STARTCHAR lacute
ENCODING 229
SWIDTH 325 0
DWIDTH 4 0
BBX 5 12 0 0
BITMAP
18
20
00
E0
60
60
60
60
60
60
60
F0
ENDCHAR
STARTCHAR cacute
ENCODING 230
SWIDTH 541 0
DWIDTH 6 0
BBX 7 9 0 0
BITMAP
06
08
00
3C
C4
C0
C0
E0
3C
ENDCHAR
STARTCHAR ccedilla
ENCODING 231
SWIDTH 541 0
DWIDTH 6 0
BBX 6 8 0 -2
BITMAP
3C
C4
C0
C0
E0
3C
20
30
ENDCHAR
STARTCHAR ccaron
ENCODING 232
SWIDTH 541 0
DWIDTH 6 0
BBX 6 9 0 0
BITMAP
24
18
00
3C
C4
C0
C0
E0
3C
ENDCHAR
STARTCHAR eacute
ENCODING 233
SWIDTH 568 0
DWIDTH 7 0
BBX 6 9 0 0
BITMAP
18
20
00
78
CC
FC
C0
E0
7C
ENDCHAR
STARTCHAR eogonek
ENCODING 234
SWIDTH 568 0
DWIDTH 7 0
BBX 6 8 0 -2
BITMAP
78
CC
FC
C0
E0
7C
10
18
ENDCHAR
STARTCHAR edieresis
ENCODING 235
SWIDTH 568 0
DWIDTH 7 0
BBX 6 9 0 0
BITMAP
48
48
00
78
CC
FC
C0
E0
7C
ENDCHAR
STARTCHAR ecaron
ENCODING 236
SWIDTH 568 0
DWIDTH 7 0
BBX 6 9 0 0
BITMAP
24
18
00
78
CC
FC
C0
E0
7C
ENDCHAR
STARTCHAR iacute
ENCODING 237
SWIDTH 325 0
DWIDTH 4 0
BBX 4 9 0 0
BITMAP
30
40
00
E0
60
60
60
60
F0
ENDCHAR
STARTCHAR icircumflex
ENCODING 238
SWIDTH 325 0
DWIDTH 4 0
BBX 4 9 0 0
BITMAP
60
90
00
E0
60
60
60
60
F0
ENDCHAR
STARTCHAR dcaron
ENCODING 239
SWIDTH 652 0
DWIDTH 8 0
BBX 8 9 1 0
BITMAP
1D
0D
0D
7D
CC
CC
CC
FC
6E
ENDCHAR
STARTCHAR dmacron
ENCODING 240
SWIDTH 652 0
DWIDTH 8 0
BBX 7 9 1 0
BITMAP
0C
3E
0C
7C
CC
CC
CC
FC
6E
ENDCHAR
STARTCHAR nacute
ENCODING 241
SWIDTH 654 0
DWIDTH 8 0
BBX 8 9 0 0
BITMAP
0C
10
00
EC
7E
66
66
66
FF
ENDCHAR
STARTCHAR ncaron
ENCODING 242
SWIDTH 654 0
DWIDTH 8 0
BBX 8 9 0 0
BITMAP
12
0C
00
EC
7E
66
66
66
FF
ENDCHAR
STARTCHAR oacute
ENCODING 243
SWIDTH 617 0
DWIDTH 7 0
BBX 7 9 0 0
BITMAP
18
20
00
7C
EE
C6
C6
EE
7C
ENDCHAR
STARTCHAR ocircumflex
ENCODING 244
SWIDTH 617 0
DWIDTH 7 0
BBX 7 9 0 0
BITMAP
18
24
00
7C
EE
C6
C6
EE
7C
ENDCHAR
STARTCHAR ohungarumlaut
ENCODING 245
SWIDTH 617 0
DWIDTH 7 0
BBX 7 9 0 0
BITMAP
14
28
00
7C
EE
C6
C6
EE
7C
ENDCHAR
STARTCHAR odieresis
ENCODING 246
SWIDTH 617 0
DWIDTH 7 0
BBX 7 9 0 0
BITMAP
24
24
00
7C
EE
C6
C6
EE
7C
ENDCHAR
STARTCHAR divide
ENCODING 247
SWIDTH 623 0
DWIDTH 7 0
BBX 8 6 0 0
BITMAP
18
18
FF
00
18
18
ENDCHAR
STARTCHAR rcaron
ENCODING 248
SWIDTH 462 0
DWIDTH 6 0
BBX 6 9 0 0
BITMAP
24
18
00
E8
78
60
60
60
F0
ENDCHAR
STARTCHAR uring
ENCODING 249
SWIDTH 654 0
DWIDTH 8 0
BBX 8 9 0 0
BITMAP
18
18
00
EE
66
66
66
7E
37
ENDCHAR
STARTCHAR uacute
ENCODING 250
SWIDTH 654 0
DWIDTH 8 0
BBX 8 9 0 0
BITMAP
0C
10
00
EE
66
66
66
7E
37
ENDCHAR
STARTCHAR uhungarumlaut
ENCODING 251
SWIDTH 654 0
DWIDTH 8 0
BBX 8 9 0 0
BITMAP
14
28
00
EE
66
66
66
7E
37
ENDCHAR
STARTCHAR udieresis
ENCODING 252
SWIDTH 654 0
DWIDTH 8 0
BBX 8 9 0 0
BITMAP
24
24
00
EE
66
66
66
7E
37
ENDCHAR
STARTCHAR yacute
ENCODING 253
SWIDTH 654 0
DWIDTH 8 0
BBX 8 11 0 -2
BITMAP
0C
10
00
F3
62
76
34
18
18
10
60
ENDCHAR
STARTCHAR tcedilla
ENCODING 254
SWIDTH 389 0
DWIDTH 5 0
BBX 5 10 0 -2
BITMAP
60
60
F8
60
60
60
60
78
10
18
ENDCHAR
STARTCHAR dotaccent
ENCODING 255
SWIDTH 434 0
DWIDTH 5 0
BBX 1 2 2 7
BITMAP
80
80
ENDCHAR
ENDFONT
