STARTFONT 2.1
COMMENT +
COMMENT  Copyright 1986, 1985 Bigelow & Holmes. 
COMMENT  Copyright 1996 BIZNET Poland, Inc.
COMMENT -
FONT -BIZNET-Fotinos-Medium-R-Normal-Sans-18-180-75-75-P-106-ISO8859-2
SIZE 18 72 72
FONTBOUNDINGBOX 14 17 -1 -3
STARTPROPERTIES 21
FOUNDRY "BIZNET"
FAMILY_NAME "BIZNET Fotinos"
WEIGHT_NAME "Medium"
SLANT "R"
SETWIDTH_NAME "Normal"
ADD_STYLE_NAME "Sans"
PIXEL_SIZE 18
POINT_SIZE 180
RESOLUTION_X 75
RESOLUTION_Y 75
SPACING "P"
AVERAGE_WIDTH 106
CHARSET_REGISTRY "ISO8859"
CHARSET_ENCODING "2"
FONT_ASCENT 16
FONT_DESCENT 3
FACE_NAME "BIZNET Fotinos Sans"
DEFAULT_CHAR 0
CHARSET_COLLECTIONS "ASCII ISO8859-2"
COPYRIGHT "Copyright Bigelow & Holmes 1986, 1985. Copyright (c) 1996 BIZNET Poland, Inc. All Rights Reserved."
NOTICE "The name "BIZNET" is a registered trademark of BIZNET Poland, Inc."
ENDPROPERTIES
CHARS 190
STARTCHAR space
ENCODING 32
SWIDTH 316 0
DWIDTH 5 0
BBX 1 1 0 0
BITMAP
00
ENDCHAR
STARTCHAR exclam
ENCODING 33
SWIDTH 205 0
DWIDTH 4 0
BBX 2 13 1 0
BITMAP
C0
C0
C0
C0
C0
C0
C0
C0
40
00
00
C0
C0
ENDCHAR
STARTCHAR quotedbl
ENCODING 34
SWIDTH 373 0
DWIDTH 7 0
BBX 5 4 1 10
BITMAP
D8
D8
90
90
ENDCHAR
STARTCHAR numbersign
ENCODING 35
SWIDTH 633 0
DWIDTH 12 0
BBX 11 13 1 0
BITMAP
0CC0
0CC0
0CC0
0880
7FE0
1100
3300
3300
FFC0
2200
6600
6600
6600
ENDCHAR
STARTCHAR dollar
ENCODING 36
SWIDTH 633 0
DWIDTH 12 0
BBX 8 15 3 -1
BITMAP
08
3E
4B
C8
C8
E8
78
3C
1E
17
13
13
D2
7C
10
ENDCHAR
STARTCHAR percent
ENCODING 37
SWIDTH 669 0
DWIDTH 13 0
BBX 11 13 1 0
BITMAP
7000
D840
88C0
8980
8900
DA00
75C0
0B60
1220
3220
6220
4360
01C0
ENDCHAR
STARTCHAR ampersand
ENCODING 38
SWIDTH 697 0
DWIDTH 13 0
BBX 12 13 1 0
BITMAP
3E00
6300
6300
6200
3400
1800
2C60
6660
C340
C180
C1C0
6360
3C30
ENDCHAR
STARTCHAR quoteright
ENCODING 39
SWIDTH 229 0
DWIDTH 4 0
BBX 2 4 1 10
BITMAP
C0
C0
40
80
ENDCHAR
STARTCHAR parenleft
ENCODING 40
SWIDTH 325 0
DWIDTH 6 0
BBX 4 16 1 -2
BITMAP
10
20
60
40
C0
C0
C0
C0
C0
C0
C0
C0
40
60
20
10
ENDCHAR
STARTCHAR parenright
ENCODING 41
SWIDTH 325 0
DWIDTH 6 0
BBX 4 16 1 -2
BITMAP
80
40
60
20
30
30
30
30
30
30
30
30
20
60
40
80
ENDCHAR
STARTCHAR asterisk
ENCODING 42
SWIDTH 482 0
DWIDTH 9 0
BBX 7 7 1 6
BITMAP
10
10
92
EE
10
6C
44
ENDCHAR
STARTCHAR plus
ENCODING 43
SWIDTH 633 0
DWIDTH 12 0
BBX 9 9 2 1
BITMAP
0800
0800
0800
0800
FF80
0800
0800
0800
0800
ENDCHAR
STARTCHAR comma
ENCODING 44
SWIDTH 316 0
DWIDTH 4 0
BBX 2 4 1 -2
BITMAP
C0
C0
40
80
ENDCHAR
STARTCHAR minus
ENCODING 45
SWIDTH 633 0
DWIDTH 12 0
BBX 9 1 2 5
BITMAP
FF80
ENDCHAR
STARTCHAR period
ENCODING 46
SWIDTH 316 0
DWIDTH 4 0
BBX 2 2 1 0
BITMAP
C0
C0
ENDCHAR
STARTCHAR slash
ENCODING 47
SWIDTH 494 0
DWIDTH 9 0
BBX 7 16 1 -2
BITMAP
02
02
06
04
0C
08
08
18
10
30
20
60
40
C0
80
80
ENDCHAR
STARTCHAR zero
ENCODING 48
SWIDTH 633 0
DWIDTH 12 0
BBX 9 13 2 0
BITMAP
3E00
6300
4100
C180
C180
C180
C180
C180
C180
C180
4100
6300
3E00
ENDCHAR
STARTCHAR one
ENCODING 49
SWIDTH 633 0
DWIDTH 12 0
BBX 5 13 3 0
BITMAP
18
F8
18
18
18
18
18
18
18
18
18
18
18
ENDCHAR
STARTCHAR two
ENCODING 50
SWIDTH 633 0
DWIDTH 12 0
BBX 8 13 2 0
BITMAP
7E
C7
03
03
03
06
0C
18
30
60
C0
FF
FF
ENDCHAR
STARTCHAR three
ENCODING 51
SWIDTH 633 0
DWIDTH 11 0
BBX 8 13 1 0
BITMAP
7E
C7
03
03
06
3C
06
03
03
03
03
C7
7E
ENDCHAR
STARTCHAR four
ENCODING 52
SWIDTH 633 0
DWIDTH 12 0
BBX 11 13 1 0
BITMAP
0180
0380
0780
0D80
0980
1180
3180
6180
C180
FFE0
0180
0180
0180
ENDCHAR
STARTCHAR five
ENCODING 53
SWIDTH 633 0
DWIDTH 12 0
BBX 8 13 3 0
BITMAP
FF
FF
80
80
80
F8
1E
07
03
03
03
C7
7E
ENDCHAR
STARTCHAR six
ENCODING 54
SWIDTH 633 0
DWIDTH 12 0
BBX 9 13 2 0
BITMAP
1E00
7300
6000
C000
C000
DE00
E300
C180
C180
C180
C180
6300
3E00
ENDCHAR
STARTCHAR seven
ENCODING 55
SWIDTH 633 0
DWIDTH 12 0
BBX 9 13 2 0
BITMAP
FF80
FF80
0180
0300
0600
0600
0C00
1800
1800
3000
3000
6000
6000
ENDCHAR
STARTCHAR eight
ENCODING 56
SWIDTH 633 0
DWIDTH 12 0
BBX 9 13 2 0
BITMAP
3E00
6300
C180
C180
E100
7A00
3E00
6700
C380
C180
C180
6300
3E00
ENDCHAR
STARTCHAR nine
ENCODING 57
SWIDTH 633 0
DWIDTH 12 0
BBX 9 13 2 0
BITMAP
3E00
6300
C180
C180
C180
C180
6380
3D80
0180
0100
0300
C600
7C00
ENDCHAR
STARTCHAR colon
ENCODING 58
SWIDTH 316 0
DWIDTH 4 0
BBX 2 10 1 0
BITMAP
C0
C0
00
00
00
00
00
00
C0
C0
ENDCHAR
STARTCHAR semicolon
ENCODING 59
SWIDTH 316 0
DWIDTH 4 0
BBX 2 12 1 -2
BITMAP
C0
C0
00
00
00
00
00
00
C0
C0
40
80
ENDCHAR
STARTCHAR less
ENCODING 60
SWIDTH 633 0
DWIDTH 12 0
BBX 10 9 1 1
BITMAP
00C0
0380
0E00
3800
E000
3800
0E00
0380
00C0
ENDCHAR
STARTCHAR equal
ENCODING 61
SWIDTH 633 0
DWIDTH 12 0
BBX 9 4 2 3
BITMAP
FF80
0000
0000
FF80
ENDCHAR
STARTCHAR greater
ENCODING 62
SWIDTH 633 0
DWIDTH 12 0
BBX 10 9 1 1
BITMAP
C000
7000
1C00
0700
01C0
0700
1C00
7000
C000
ENDCHAR
STARTCHAR question
ENCODING 63
SWIDTH 422 0
DWIDTH 8 0
BBX 7 13 1 0
BITMAP
7C
CE
06
06
0C
30
60
60
60
00
00
60
60
ENDCHAR
STARTCHAR at
ENCODING 64
SWIDTH 858 0
DWIDTH 16 0
BBX 14 13 1 0
BITMAP
07E0
1C38
3008
63EC
4464
C864
98C4
99CC
DAD8
4CF0
6000
3800
0FC0
ENDCHAR
STARTCHAR A
ENCODING 65
SWIDTH 690 0
DWIDTH 13 0
BBX 11 13 1 0
BITMAP
0600
0600
0F00
0B00
1980
1180
3180
20C0
7FC0
60C0
4060
C060
C060
ENDCHAR
STARTCHAR B
ENCODING 66
SWIDTH 575 0
DWIDTH 11 0
BBX 8 13 2 0
BITMAP
FE
C7
C3
C3
C3
C6
FC
C6
C3
C3
C3
C7
FE
ENDCHAR
STARTCHAR C
ENCODING 67
SWIDTH 692 0
DWIDTH 13 0
BBX 11 13 1 0
BITMAP
0FC0
38E0
6000
6000
C000
C000
C000
C000
C000
6000
7000
38E0
0FC0
ENDCHAR
STARTCHAR D
ENCODING 68
SWIDTH 749 0
DWIDTH 14 0
BBX 11 13 2 0
BITMAP
FF00
C1C0
C0C0
C060
C060
C060
C060
C060
C060
C0C0
C0C0
C380
FE00
ENDCHAR
STARTCHAR E
ENCODING 69
SWIDTH 542 0
DWIDTH 10 0
BBX 7 13 2 0
BITMAP
FE
C0
C0
C0
C0
C0
FC
C0
C0
C0
C0
C0
FE
ENDCHAR
STARTCHAR F
ENCODING 70
SWIDTH 536 0
DWIDTH 10 0
BBX 7 13 2 0
BITMAP
FE
C0
C0
C0
C0
C0
FC
C0
C0
C0
C0
C0
C0
ENDCHAR
STARTCHAR G
ENCODING 71
SWIDTH 723 0
DWIDTH 13 0
BBX 11 13 1 0
BITMAP
0FC0
38E0
6000
6000
C000
C000
C000
C060
C060
6060
7060
3860
0FE0
ENDCHAR
STARTCHAR H
ENCODING 72
SWIDTH 735 0
DWIDTH 14 0
BBX 10 13 2 0
BITMAP
C0C0
C0C0
C0C0
C0C0
C0C0
C0C0
FFC0
C0C0
C0C0
C0C0
C0C0
C0C0
C0C0
ENDCHAR
STARTCHAR I
ENCODING 73
SWIDTH 288 0
DWIDTH 6 0
BBX 2 13 2 0
BITMAP
C0
C0
C0
C0
C0
C0
C0
C0
C0
C0
C0
C0
C0
ENDCHAR
STARTCHAR J
ENCODING 74
SWIDTH 311 0
DWIDTH 6 0
BBX 5 15 -1 -2
BITMAP
18
18
18
18
18
18
18
18
18
18
18
18
18
30
E0
ENDCHAR
STARTCHAR K
ENCODING 75
SWIDTH 653 0
DWIDTH 12 0
BBX 10 13 2 0
BITMAP
C180
C300
C600
CC00
D800
F000
F000
D800
CC00
C600
C300
C180
C0C0
ENDCHAR
STARTCHAR L
ENCODING 76
SWIDTH 533 0
DWIDTH 10 0
BBX 7 13 2 0
BITMAP
C0
C0
C0
C0
C0
C0
C0
C0
C0
C0
C0
C0
FE
ENDCHAR
STARTCHAR M
ENCODING 77
SWIDTH 861 0
DWIDTH 16 0
BBX 12 13 2 0
BITMAP
E070
E070
B0B0
B0B0
B0B0
9930
9930
9930
8E30
8E30
8430
8430
8030
ENDCHAR
STARTCHAR N
ENCODING 78
SWIDTH 741 0
DWIDTH 14 0
BBX 10 13 2 0
BITMAP
C040
E040
F040
B040
9840
9C40
8C40
8640
8740
8340
81C0
81C0
80C0
ENDCHAR
STARTCHAR O
ENCODING 79
SWIDTH 777 0
DWIDTH 14 0
BBX 12 13 1 0
BITMAP
0F00
39C0
6060
6060
C030
C030
C030
C030
C030
6060
6060
39C0
0F00
ENDCHAR
STARTCHAR P
ENCODING 80
SWIDTH 553 0
DWIDTH 11 0
BBX 8 13 2 0
BITMAP
FE
C7
C3
C3
C3
C3
C6
F8
C0
C0
C0
C0
C0
ENDCHAR
STARTCHAR Q
ENCODING 81
SWIDTH 777 0
DWIDTH 14 0
BBX 13 16 1 -3
BITMAP
0F00
39C0
6060
6060
C030
C030
C030
C030
C030
6060
6060
39C0
0F00
01C0
0070
0038
ENDCHAR
STARTCHAR R
ENCODING 82
SWIDTH 633 0
DWIDTH 12 0
BBX 9 13 2 0
BITMAP
FE00
C700
C300
C300
C300
C600
F800
CC00
C600
C600
C300
C180
C180
ENDCHAR
STARTCHAR S
ENCODING 83
SWIDTH 539 0
DWIDTH 10 0
BBX 8 13 1 0
BITMAP
3E
67
C0
C0
E0
78
1E
07
03
03
03
E6
7C
ENDCHAR
STARTCHAR T
ENCODING 84
SWIDTH 633 0
DWIDTH 12 0
BBX 12 13 0 0
BITMAP
FFF0
0600
0600
0600
0600
0600
0600
0600
0600
0600
0600
0600
0600
ENDCHAR
STARTCHAR U
ENCODING 85
SWIDTH 693 0
DWIDTH 13 0
BBX 9 13 2 0
BITMAP
C180
C180
C180
C180
C180
C180
C180
C180
C180
C180
6300
7700
1C00
ENDCHAR
STARTCHAR V
ENCODING 86
SWIDTH 654 0
DWIDTH 12 0
BBX 10 13 1 0
BITMAP
C0C0
C0C0
C0C0
6080
6180
6180
3100
3300
3300
1A00
1E00
0C00
0C00
ENDCHAR
STARTCHAR W
ENCODING 87
SWIDTH 855 0
DWIDTH 16 0
BBX 14 13 1 0
BITMAP
C00C
C30C
C30C
C78C
C598
6598
6CD8
68D0
68D0
38F0
3060
3060
3060
ENDCHAR
STARTCHAR X
ENCODING 88
SWIDTH 626 0
DWIDTH 11 0
BBX 9 13 1 0
BITMAP
C180
C180
6180
6300
3200
1C00
1C00
1C00
2600
6300
C300
C180
C180
ENDCHAR
STARTCHAR Y
ENCODING 89
SWIDTH 623 0
DWIDTH 12 0
BBX 10 13 1 0
BITMAP
C0C0
C0C0
6180
3100
3300
1E00
0C00
0C00
0C00
0C00
0C00
0C00
0C00
ENDCHAR
STARTCHAR Z
ENCODING 90
SWIDTH 605 0
DWIDTH 11 0
BBX 9 13 1 0
BITMAP
FF80
FF80
0180
0300
0600
0C00
1C00
1800
3000
6000
C000
FF80
FF80
ENDCHAR
STARTCHAR bracketleft
ENCODING 91
SWIDTH 325 0
DWIDTH 6 0
BBX 4 16 1 -2
BITMAP
F0
C0
C0
C0
C0
C0
C0
C0
C0
C0
C0
C0
C0
C0
C0
F0
ENDCHAR
STARTCHAR backslash
ENCODING 92
SWIDTH 494 0
DWIDTH 9 0
BBX 7 16 1 -2
BITMAP
80
80
C0
40
60
20
30
10
10
18
08
0C
04
06
02
02
ENDCHAR
STARTCHAR bracketright
ENCODING 93
SWIDTH 325 0
DWIDTH 6 0
BBX 4 16 1 -2
BITMAP
F0
30
30
30
30
30
30
30
30
30
30
30
30
30
30
F0
ENDCHAR
STARTCHAR asciicircum
ENCODING 94
SWIDTH 633 0
DWIDTH 12 0
BBX 9 10 2 2
BITMAP
0800
1C00
1400
3600
2200
6300
6300
C180
C180
C180
ENDCHAR
STARTCHAR underscore
ENCODING 95
SWIDTH 500 0
DWIDTH 12 0
BBX 10 1 1 -1
BITMAP
FFC0
ENDCHAR
STARTCHAR quoteleft
ENCODING 96
SWIDTH 229 0
DWIDTH 4 0
BBX 2 4 1 10
BITMAP
40
80
C0
C0
ENDCHAR
STARTCHAR a
ENCODING 97
SWIDTH 552 0
DWIDTH 10 0
BBX 9 10 1 0
BITMAP
3E00
6700
0300
0300
3F00
6300
C300
C300
E700
7980
ENDCHAR
STARTCHAR b
ENCODING 98
SWIDTH 630 0
DWIDTH 12 0
BBX 9 14 2 0
BITMAP
C000
C000
C000
C000
DC00
E700
C300
C180
C180
C180
C180
C300
E700
DC00
ENDCHAR
STARTCHAR c
ENCODING 99
SWIDTH 518 0
DWIDTH 10 0
BBX 8 10 1 0
BITMAP
1E
73
60
C0
C0
C0
C0
60
73
1E
ENDCHAR
STARTCHAR d
ENCODING 100
SWIDTH 630 0
DWIDTH 12 0
BBX 9 14 1 0
BITMAP
0180
0180
0180
0180
1D80
7380
6180
C180
C180
C180
C180
6180
7380
1D80
ENDCHAR
STARTCHAR e
ENCODING 101
SWIDTH 557 0
DWIDTH 10 0
BBX 8 10 1 0
BITMAP
3C
66
C3
C3
FF
C0
C0
E0
73
3E
ENDCHAR
STARTCHAR f
ENCODING 102
SWIDTH 367 0
DWIDTH 7 0
BBX 6 14 1 0
BITMAP
1C
30
60
60
FC
60
60
60
60
60
60
60
60
60
ENDCHAR
STARTCHAR g
ENCODING 103
SWIDTH 623 0
DWIDTH 12 0
BBX 9 13 1 -3
BITMAP
1D80
7380
6180
C180
C180
C180
C180
6380
3D80
0180
0180
6300
3E00
ENDCHAR
STARTCHAR h
ENCODING 104
SWIDTH 620 0
DWIDTH 12 0
BBX 8 14 2 0
BITMAP
C0
C0
C0
C0
DE
E7
C3
C3
C3
C3
C3
C3
C3
C3
ENDCHAR
STARTCHAR i
ENCODING 105
SWIDTH 289 0
DWIDTH 6 0
BBX 2 14 2 0
BITMAP
C0
C0
00
00
C0
C0
C0
C0
C0
C0
C0
C0
C0
C0
ENDCHAR
STARTCHAR j
ENCODING 106
SWIDTH 304 0
DWIDTH 6 0
BBX 4 17 0 -3
BITMAP
30
30
00
00
30
30
30
30
30
30
30
30
30
30
30
60
C0
ENDCHAR
STARTCHAR k
ENCODING 107
SWIDTH 585 0
DWIDTH 11 0
BBX 9 14 2 0
BITMAP
C000
C000
C000
C000
C300
C600
CC00
D800
F000
D800
CC00
C600
C300
C180
ENDCHAR
STARTCHAR l
ENCODING 108
SWIDTH 289 0
DWIDTH 6 0
BBX 2 14 2 0
BITMAP
C0
C0
C0
C0
C0
C0
C0
C0
C0
C0
C0
C0
C0
C0
ENDCHAR
STARTCHAR m
ENCODING 109
SWIDTH 934 0
DWIDTH 18 0
BBX 14 10 2 0
BITMAP
DE78
E79C
C30C
C30C
C30C
C30C
C30C
C30C
C30C
C30C
ENDCHAR
STARTCHAR n
ENCODING 110
SWIDTH 620 0
DWIDTH 12 0
BBX 8 10 2 0
BITMAP
DE
E7
C3
C3
C3
C3
C3
C3
C3
C3
ENDCHAR
STARTCHAR o
ENCODING 111
SWIDTH 614 0
DWIDTH 11 0
BBX 9 10 1 0
BITMAP
1C00
7700
6300
C180
C180
C180
C180
6300
7700
1C00
ENDCHAR
STARTCHAR p
ENCODING 112
SWIDTH 630 0
DWIDTH 12 0
BBX 9 13 2 -3
BITMAP
DC00
E700
C300
C180
C180
C180
C180
C300
E700
DC00
C000
C000
C000
ENDCHAR
STARTCHAR q
ENCODING 113
SWIDTH 630 0
DWIDTH 12 0
BBX 9 13 1 -3
BITMAP
1D80
7380
6180
C180
C180
C180
C180
6180
7380
1D80
0180
0180
0180
ENDCHAR
STARTCHAR r
ENCODING 114
SWIDTH 409 0
DWIDTH 8 0
BBX 6 10 2 0
BITMAP
CC
DC
E0
C0
C0
C0
C0
C0
C0
C0
ENDCHAR
STARTCHAR s
ENCODING 115
SWIDTH 510 0
DWIDTH 9 0
BBX 7 10 1 0
BITMAP
7C
C6
C0
E0
70
1C
0E
06
C6
7C
ENDCHAR
STARTCHAR t
ENCODING 116
SWIDTH 374 0
DWIDTH 7 0
BBX 5 12 1 0
BITMAP
60
60
F8
60
60
60
60
60
60
60
60
38
ENDCHAR
STARTCHAR u
ENCODING 117
SWIDTH 620 0
DWIDTH 12 0
BBX 8 10 2 0
BITMAP
C3
C3
C3
C3
C3
C3
C3
C3
E7
7B
ENDCHAR
STARTCHAR v
ENCODING 118
SWIDTH 572 0
DWIDTH 10 0
BBX 8 10 1 0
BITMAP
C3
C3
C3
62
66
66
34
34
18
18
ENDCHAR
STARTCHAR w
ENCODING 119
SWIDTH 840 0
DWIDTH 16 0
BBX 14 10 1 0
BITMAP
C00C
C30C
C30C
6318
6598
6590
68D0
38F0
3060
3060
ENDCHAR
STARTCHAR x
ENCODING 120
SWIDTH 613 0
DWIDTH 11 0
BBX 8 10 2 0
BITMAP
C3
C3
66
34
38
1C
2C
66
C3
C3
ENDCHAR
STARTCHAR y
ENCODING 121
SWIDTH 568 0
DWIDTH 10 0
BBX 8 13 1 -3
BITMAP
C3
C3
C3
62
66
66
34
3C
18
18
10
30
30
ENDCHAR
STARTCHAR z
ENCODING 122
SWIDTH 573 0
DWIDTH 10 0
BBX 8 10 1 0
BITMAP
FF
03
07
0E
1C
38
70
E0
C0
FF
ENDCHAR
STARTCHAR braceleft
ENCODING 123
SWIDTH 325 0
DWIDTH 6 0
BBX 4 16 1 -2
BITMAP
70
C0
C0
40
60
20
20
C0
20
20
60
40
C0
C0
C0
70
ENDCHAR
STARTCHAR bar
ENCODING 124
SWIDTH 265 0
DWIDTH 4 0
BBX 2 16 1 -2
BITMAP
C0
C0
C0
C0
C0
C0
C0
C0
C0
C0
C0
C0
C0
C0
C0
C0
ENDCHAR
STARTCHAR braceright
ENCODING 125
SWIDTH 325 0
DWIDTH 6 0
BBX 4 16 1 -2
BITMAP
E0
30
30
20
60
40
40
30
40
40
60
20
30
30
30
E0
ENDCHAR
STARTCHAR asciitilde
ENCODING 126
SWIDTH 633 0
DWIDTH 12 0
BBX 9 3 2 4
BITMAP
7080
9C80
8700
ENDCHAR
STARTCHAR Aogonek
ENCODING 161
SWIDTH 690 0
DWIDTH 13 0
BBX 12 16 1 -3
BITMAP
0600
0600
0F00
0B00
1980
1180
3180
20C0
7FC0
60C0
4060
C060
C060
0060
00C0
0070
ENDCHAR
STARTCHAR breve
ENCODING 162
SWIDTH 480 0
DWIDTH 9 0
BBX 5 3 2 11
BITMAP
88
F8
70
ENDCHAR
STARTCHAR Lslash
ENCODING 163
SWIDTH 533 0
DWIDTH 10 0
BBX 9 13 0 0
BITMAP
3000
3000
3000
3000
3000
3C00
F000
3000
3000
3000
3000
3000
3F80
ENDCHAR
STARTCHAR currency
ENCODING 164
SWIDTH 633 0
DWIDTH 12 0
BBX 11 11 1 1
BITMAP
8020
4040
3F80
3180
60C0
60C0
60C0
3180
3F80
4040
8020
ENDCHAR
STARTCHAR Lcaron
ENCODING 165
SWIDTH 533 0
DWIDTH 10 0
BBX 7 13 2 0
BITMAP
D8
C8
C8
D0
C0
C0
C0
C0
C0
C0
C0
C0
FE
ENDCHAR
STARTCHAR Sacute
ENCODING 166
SWIDTH 539 0
DWIDTH 10 0
BBX 8 16 1 0
BITMAP
07
0C
00
3E
67
C0
C0
E0
78
1E
07
03
03
03
E6
7C
ENDCHAR
STARTCHAR section
ENCODING 167
SWIDTH 633 0
DWIDTH 12 0
BBX 8 15 2 -2
BITMAP
7E
E3
C0
E0
78
5E
C7
C3
E3
7A
1E
07
03
C7
7E
ENDCHAR
STARTCHAR dieresis
ENCODING 168
SWIDTH 614 0
DWIDTH 11 0
BBX 6 2 3 11
BITMAP
CC
CC
ENDCHAR
STARTCHAR Scaron
ENCODING 169
SWIDTH 539 0
DWIDTH 10 0
BBX 8 16 1 0
BITMAP
36
1C
00
3E
67
C0
C0
E0
78
1E
07
03
03
03
E6
7C
ENDCHAR
STARTCHAR Scedilla
ENCODING 170
SWIDTH 539 0
DWIDTH 10 0
BBX 8 16 1 -3
BITMAP
3E
67
C0
C0
E0
78
1E
07
03
03
03
E6
7C
18
0C
38
ENDCHAR
STARTCHAR Tcaron
ENCODING 171
SWIDTH 633 0
DWIDTH 12 0
BBX 12 16 0 0
BITMAP
0D80
0700
0000
FFF0
0600
0600
0600
0600
0600
0600
0600
0600
0600
0600
0600
0600
ENDCHAR
STARTCHAR Zacute
ENCODING 172
SWIDTH 605 0
DWIDTH 11 0
BBX 9 16 1 0
BITMAP
0700
0C00
0000
FF80
FF80
0180
0300
0600
0C00
1C00
1800
3000
6000
C000
FF80
FF80
ENDCHAR
STARTCHAR hyphen
ENCODING 173
SWIDTH 325 0
DWIDTH 6 0
BBX 4 1 1 5
BITMAP
F0
ENDCHAR
STARTCHAR Zcaron
ENCODING 174
SWIDTH 605 0
DWIDTH 11 0
BBX 9 16 1 0
BITMAP
3600
1C00
0000
FF80
FF80
0180
0300
0600
0C00
1C00
1800
3000
6000
C000
FF80
FF80
ENDCHAR
STARTCHAR Zdotaccent
ENCODING 175
SWIDTH 605 0
DWIDTH 11 0
BBX 9 16 1 0
BITMAP
0C00
0C00
0000
FF80
FF80
0180
0300
0600
0C00
1C00
1800
3000
6000
C000
FF80
FF80
ENDCHAR
STARTCHAR degree
ENCODING 176
SWIDTH 277 0
DWIDTH 5 0
BBX 4 4 1 10
BITMAP
60
90
90
60
ENDCHAR
STARTCHAR aogonek
ENCODING 177
SWIDTH 552 0
DWIDTH 10 0
BBX 10 13 1 -3
BITMAP
3E00
6700
0300
0300
3F00
6300
C300
C300
E700
7980
0180
0300
01C0
ENDCHAR
STARTCHAR ogonek
ENCODING 178
SWIDTH 534 0
DWIDTH 10 0
BBX 4 3 3 -3
BITMAP
60
C0
70
ENDCHAR
STARTCHAR lslash
ENCODING 179
SWIDTH 289 0
DWIDTH 6 0
BBX 6 14 0 0
BITMAP
30
30
30
30
30
3C
F0
30
30
30
30
30
30
30
ENDCHAR
STARTCHAR acute
ENCODING 180
SWIDTH 614 0
DWIDTH 11 0
BBX 4 2 4 11
BITMAP
70
C0
ENDCHAR
STARTCHAR lcaron
ENCODING 181
SWIDTH 289 0
DWIDTH 6 0
BBX 5 14 2 0
BITMAP
D8
C8
C8
D0
C0
C0
C0
C0
C0
C0
C0
C0
C0
C0
ENDCHAR
STARTCHAR sacute
ENCODING 182
SWIDTH 510 0
DWIDTH 9 0
BBX 7 13 1 0
BITMAP
0E
18
00
7C
C6
C0
E0
70
1C
0E
06
C6
7C
ENDCHAR
STARTCHAR caron
ENCODING 183
SWIDTH 480 0
DWIDTH 9 0
BBX 5 2 2 11
BITMAP
D8
70
ENDCHAR
STARTCHAR cedilla
ENCODING 184
SWIDTH 534 0
DWIDTH 10 0
BBX 4 3 3 -3
BITMAP
60
30
E0
ENDCHAR
STARTCHAR scaron
ENCODING 185
SWIDTH 510 0
DWIDTH 9 0
BBX 7 13 1 0
BITMAP
36
1C
00
7C
C6
C0
E0
70
1C
0E
06
C6
7C
ENDCHAR
STARTCHAR scedilla
ENCODING 186
SWIDTH 510 0
DWIDTH 9 0
BBX 7 13 1 -3
BITMAP
7C
C6
C0
E0
70
1C
0E
06
C6
7C
18
0C
38
ENDCHAR
STARTCHAR tcaron
ENCODING 187
SWIDTH 374 0
DWIDTH 7 0
BBX 6 15 1 0
BITMAP
0C
04
04
68
60
F8
60
60
60
60
60
60
60
60
38
ENDCHAR
STARTCHAR zacute
ENCODING 188
SWIDTH 573 0
DWIDTH 10 0
BBX 8 13 1 0
BITMAP
0E
18
00
FF
03
07
0E
1C
38
70
E0
C0
FF
ENDCHAR
STARTCHAR hungarumlaut
ENCODING 189
SWIDTH 480 0
DWIDTH 9 0
BBX 5 3 2 11
BITMAP
48
D8
90
ENDCHAR
STARTCHAR zcaron
ENCODING 190
SWIDTH 573 0
DWIDTH 10 0
BBX 8 13 1 0
BITMAP
36
1C
00
FF
03
07
0E
1C
38
70
E0
C0
FF
ENDCHAR
STARTCHAR zdotaccent
ENCODING 191
SWIDTH 573 0
DWIDTH 10 0
BBX 8 14 1 0
BITMAP
0C
0C
00
00
FF
03
07
0E
1C
38
70
E0
C0
FF
ENDCHAR
STARTCHAR Racute
ENCODING 192
SWIDTH 633 0
DWIDTH 12 0
BBX 9 16 2 0
BITMAP
0E00
1800
0000
FE00
C700
C300
C300
C300
C600
F800
CC00
C600
C600
C300
C180
C180
ENDCHAR
STARTCHAR Aacute
ENCODING 193
SWIDTH 690 0
DWIDTH 13 0
BBX 11 16 1 0
BITMAP
0700
0C00
0000
0600
0600
0F00
0B00
1980
1180
3180
20C0
7FC0
60C0
4060
C060
C060
ENDCHAR
STARTCHAR Acircumflex
ENCODING 194
SWIDTH 690 0
DWIDTH 13 0
BBX 11 16 1 0
BITMAP
0E00
1B00
0000
0600
0600
0F00
0B00
1980
1180
3180
20C0
7FC0
60C0
4060
C060
C060
ENDCHAR
STARTCHAR Abreve
ENCODING 195
SWIDTH 690 0
DWIDTH 13 0
BBX 11 16 1 0
BITMAP
0F80
0700
0000
0600
0600
0F00
0B00
1980
1180
3180
20C0
7FC0
60C0
4060
C060
C060
ENDCHAR
STARTCHAR Adieresis
ENCODING 196
SWIDTH 690 0
DWIDTH 13 0
BBX 11 16 1 0
BITMAP
1980
1980
0000
0600
0600
0F00
0B00
1980
1180
3180
20C0
7FC0
60C0
4060
C060
C060
ENDCHAR
STARTCHAR Lacute
ENCODING 197
SWIDTH 533 0
DWIDTH 10 0
BBX 7 16 2 0
BITMAP
38
60
00
C0
C0
C0
C0
C0
C0
C0
C0
C0
C0
C0
C0
FE
ENDCHAR
STARTCHAR Cacute
ENCODING 198
SWIDTH 692 0
DWIDTH 13 0
BBX 11 16 1 0
BITMAP
0380
0600
0000
0FC0
38E0
6000
6000
C000
C000
C000
C000
C000
6000
7000
38E0
0FC0
ENDCHAR
STARTCHAR Ccedilla
ENCODING 199
SWIDTH 692 0
DWIDTH 13 0
BBX 11 16 1 -3
BITMAP
0FC0
38E0
6000
6000
C000
C000
C000
C000
C000
6000
7000
38E0
0FC0
0C00
0600
1C00
ENDCHAR
STARTCHAR Ccaron
ENCODING 200
SWIDTH 692 0
DWIDTH 13 0
BBX 11 16 1 0
BITMAP
0D80
0700
0000
0FC0
38E0
6000
6000
C000
C000
C000
C000
C000
6000
7000
38E0
0FC0
ENDCHAR
STARTCHAR Eacute
ENCODING 201
SWIDTH 542 0
DWIDTH 10 0
BBX 7 16 2 0
BITMAP
1C
30
00
FE
C0
C0
C0
C0
C0
FC
C0
C0
C0
C0
C0
FE
ENDCHAR
STARTCHAR Eogonek
ENCODING 202
SWIDTH 542 0
DWIDTH 10 0
BBX 8 16 2 -3
BITMAP
FE
C0
C0
C0
C0
C0
FC
C0
C0
C0
C0
C0
FE
06
0C
07
ENDCHAR
STARTCHAR Edieresis
ENCODING 203
SWIDTH 542 0
DWIDTH 10 0
BBX 7 16 2 0
BITMAP
66
66
00
FE
C0
C0
C0
C0
C0
FC
C0
C0
C0
C0
C0
FE
ENDCHAR
STARTCHAR Ecaron
ENCODING 204
SWIDTH 542 0
DWIDTH 10 0
BBX 7 16 2 0
BITMAP
6C
38
00
FE
C0
C0
C0
C0
C0
FC
C0
C0
C0
C0
C0
FE
ENDCHAR
STARTCHAR Iacute
ENCODING 205
SWIDTH 288 0
DWIDTH 6 0
BBX 4 16 1 0
BITMAP
70
C0
00
60
60
60
60
60
60
60
60
60
60
60
60
60
ENDCHAR
STARTCHAR Icircumflex
ENCODING 206
SWIDTH 288 0
DWIDTH 6 0
BBX 5 16 1 0
BITMAP
70
D8
00
60
60
60
60
60
60
60
60
60
60
60
60
60
ENDCHAR
STARTCHAR Dcaron
ENCODING 207
SWIDTH 749 0
DWIDTH 14 0
BBX 11 16 2 0
BITMAP
1B00
0E00
0000
FF00
C1C0
C0C0
C060
C060
C060
C060
C060
C060
C0C0
C0C0
C380
FE00
ENDCHAR
STARTCHAR Eth
ENCODING 208
SWIDTH 749 0
DWIDTH 14 0
BBX 13 13 0 0
BITMAP
3FC0
3070
3030
3018
3018
3018
FC18
3018
3018
3030
3030
30E0
3F80
ENDCHAR
STARTCHAR Nacute
ENCODING 209
SWIDTH 741 0
DWIDTH 14 0
BBX 10 16 2 0
BITMAP
0700
0C00
0000
C040
E040
F040
B040
9840
9C40
8C40
8640
8740
8340
81C0
81C0
80C0
ENDCHAR
STARTCHAR Ncaron
ENCODING 210
SWIDTH 741 0
DWIDTH 14 0
BBX 10 16 2 0
BITMAP
1B00
0E00
0000
C040
E040
F040
B040
9840
9C40
8C40
8640
8740
8340
81C0
81C0
80C0
ENDCHAR
STARTCHAR Oacute
ENCODING 211
SWIDTH 777 0
DWIDTH 14 0
BBX 12 16 1 0
BITMAP
0700
0C00
0000
0F00
39C0
6060
6060
C030
C030
C030
C030
C030
6060
6060
39C0
0F00
ENDCHAR
STARTCHAR Ocircumflex
ENCODING 212
SWIDTH 777 0
DWIDTH 14 0
BBX 12 16 1 0
BITMAP
0700
0D80
0000
0F00
39C0
6060
6060
C030
C030
C030
C030
C030
6060
6060
39C0
0F00
ENDCHAR
STARTCHAR Ohungarumlaut
ENCODING 213
SWIDTH 777 0
DWIDTH 14 0
BBX 12 16 1 0
BITMAP
0480
0D80
0900
0F00
39C0
6060
6060
C030
C030
C030
C030
C030
6060
6060
39C0
0F00
ENDCHAR
STARTCHAR Odieresis
ENCODING 214
SWIDTH 777 0
DWIDTH 14 0
BBX 12 16 1 0
BITMAP
1980
1980
0000
0F00
39C0
6060
6060
C030
C030
C030
C030
C030
6060
6060
39C0
0F00
ENDCHAR
STARTCHAR multiply
ENCODING 215
SWIDTH 633 0
DWIDTH 12 0
BBX 7 7 3 2
BITMAP
C2
64
38
10
38
4C
86
ENDCHAR
STARTCHAR Rcaron
ENCODING 216
SWIDTH 633 0
DWIDTH 12 0
BBX 9 16 2 0
BITMAP
3600
1C00
0000
FE00
C700
C300
C300
C300
C600
F800
CC00
C600
C600
C300
C180
C180
ENDCHAR
STARTCHAR Uring
ENCODING 217
SWIDTH 693 0
DWIDTH 13 0
BBX 9 16 2 0
BITMAP
1C00
2600
1C00
C180
C180
C180
C180
C180
C180
C180
C180
C180
C180
6300
7700
1C00
ENDCHAR
STARTCHAR Uacute
ENCODING 218
SWIDTH 693 0
DWIDTH 13 0
BBX 9 16 2 0
BITMAP
0E00
1800
0000
C180
C180
C180
C180
C180
C180
C180
C180
C180
C180
6300
7700
1C00
ENDCHAR
STARTCHAR Uhungarumlaut
ENCODING 219
SWIDTH 693 0
DWIDTH 13 0
BBX 9 16 2 0
BITMAP
0900
1B00
1200
C180
C180
C180
C180
C180
C180
C180
C180
C180
C180
6300
7700
1C00
ENDCHAR
STARTCHAR Udieresis
ENCODING 220
SWIDTH 693 0
DWIDTH 13 0
BBX 9 16 2 0
BITMAP
3300
3300
0000
C180
C180
C180
C180
C180
C180
C180
C180
C180
C180
6300
7700
1C00
ENDCHAR
STARTCHAR Yacute
ENCODING 221
SWIDTH 623 0
DWIDTH 12 0
BBX 10 16 1 0
BITMAP
0700
0C00
0000
C0C0
C0C0
6180
3100
3300
1E00
0C00
0C00
0C00
0C00
0C00
0C00
0C00
ENDCHAR
STARTCHAR Tcedilla
ENCODING 222
SWIDTH 633 0
DWIDTH 12 0
BBX 12 16 0 -3
BITMAP
FFF0
0600
0600
0600
0600
0600
0600
0600
0600
0600
0600
0600
0600
0600
0300
0E00
ENDCHAR
STARTCHAR germandbls
ENCODING 223
SWIDTH 598 0
DWIDTH 11 0
BBX 8 14 2 0
BITMAP
3C
46
C6
C4
C8
D8
DC
CE
C6
C7
C3
C3
C3
CE
ENDCHAR
STARTCHAR racute
ENCODING 224
SWIDTH 409 0
DWIDTH 8 0
BBX 6 13 2 0
BITMAP
1C
30
00
CC
DC
E0
C0
C0
C0
C0
C0
C0
C0
ENDCHAR
STARTCHAR aacute
ENCODING 225
SWIDTH 552 0
DWIDTH 10 0
BBX 9 13 1 0
BITMAP
0E00
1800
0000
3E00
6700
0300
0300
3F00
6300
C300
C300
E700
7980
ENDCHAR
STARTCHAR acircumflex
ENCODING 226
SWIDTH 552 0
DWIDTH 10 0
BBX 9 13 1 0
BITMAP
1C00
3600
0000
3E00
6700
0300
0300
3F00
6300
C300
C300
E700
7980
ENDCHAR
STARTCHAR abreve
ENCODING 227
SWIDTH 552 0
DWIDTH 10 0
BBX 9 13 1 0
BITMAP
2200
3E00
1C00
3E00
6700
0300
0300
3F00
6300
C300
C300
E700
7980
ENDCHAR
STARTCHAR adieresis
ENCODING 228
SWIDTH 552 0
DWIDTH 10 0
BBX 9 13 1 0
BITMAP
6600
6600
0000
3E00
6700
0300
0300
3F00
6300
C300
C300
E700
7980
ENDCHAR
STARTCHAR lacute
ENCODING 229
SWIDTH 289 0
DWIDTH 6 0
BBX 5 16 2 0
BITMAP
38
60
C0
C0
C0
C0
C0
C0
C0
C0
C0
C0
C0
C0
C0
C0
ENDCHAR
STARTCHAR cacute
ENCODING 230
SWIDTH 518 0
DWIDTH 10 0
BBX 8 13 1 0
BITMAP
07
0C
00
1E
73
60
C0
C0
C0
C0
60
73
1E
ENDCHAR
STARTCHAR ccedilla
ENCODING 231
SWIDTH 518 0
DWIDTH 10 0
BBX 8 13 1 -3
BITMAP
1E
73
60
C0
C0
C0
C0
60
73
1E
18
0C
38
ENDCHAR
STARTCHAR ccaron
ENCODING 232
SWIDTH 518 0
DWIDTH 10 0
BBX 8 13 1 0
BITMAP
1B
0E
00
1E
73
60
C0
C0
C0
C0
60
73
1E
ENDCHAR
STARTCHAR eacute
ENCODING 233
SWIDTH 557 0
DWIDTH 10 0
BBX 8 13 1 0
BITMAP
0E
18
00
3C
66
C3
C3
FF
C0
C0
E0
73
3E
ENDCHAR
STARTCHAR eogonek
ENCODING 234
SWIDTH 557 0
DWIDTH 10 0
BBX 8 13 1 -3
BITMAP
3C
66
C3
C3
FF
C0
C0
E0
73
3E
0C
18
0E
ENDCHAR
STARTCHAR edieresis
ENCODING 235
SWIDTH 557 0
DWIDTH 10 0
BBX 8 13 1 0
BITMAP
66
66
00
3C
66
C3
C3
FF
C0
C0
E0
73
3E
ENDCHAR
STARTCHAR ecaron
ENCODING 236
SWIDTH 557 0
DWIDTH 10 0
BBX 8 13 1 0
BITMAP
36
1C
00
3C
66
C3
C3
FF
C0
C0
E0
73
3E
ENDCHAR
STARTCHAR iacute
ENCODING 237
SWIDTH 289 0
DWIDTH 6 0
BBX 4 13 2 0
BITMAP
70
C0
00
C0
C0
C0
C0
C0
C0
C0
C0
C0
C0
ENDCHAR
STARTCHAR icircumflex
ENCODING 238
SWIDTH 289 0
DWIDTH 6 0
BBX 5 13 1 0
BITMAP
70
D8
00
60
60
60
60
60
60
60
60
60
60
ENDCHAR
STARTCHAR dcaron
ENCODING 239
SWIDTH 630 0
DWIDTH 12 0
BBX 12 14 1 0
BITMAP
01B0
0190
0190
01A0
1D80
7380
6180
C180
C180
C180
C180
6180
7380
1D80
ENDCHAR
STARTCHAR dmacron
ENCODING 240
SWIDTH 630 0
DWIDTH 12 0
BBX 11 14 1 0
BITMAP
0180
0180
3FE0
0180
1D80
7380
6180
C180
C180
C180
C180
6180
7380
1D80
ENDCHAR
STARTCHAR nacute
ENCODING 241
SWIDTH 620 0
DWIDTH 12 0
BBX 8 13 2 0
BITMAP
0E
18
00
DE
E7
C3
C3
C3
C3
C3
C3
C3
C3
ENDCHAR
STARTCHAR ncaron
ENCODING 242
SWIDTH 620 0
DWIDTH 12 0
BBX 8 13 2 0
BITMAP
36
1C
00
DE
E7
C3
C3
C3
C3
C3
C3
C3
C3
ENDCHAR
STARTCHAR oacute
ENCODING 243
SWIDTH 614 0
DWIDTH 11 0
BBX 9 13 1 0
BITMAP
0E00
1800
0000
1C00
7700
6300
C180
C180
C180
C180
6300
7700
1C00
ENDCHAR
STARTCHAR ocircumflex
ENCODING 244
SWIDTH 614 0
DWIDTH 11 0
BBX 9 13 1 0
BITMAP
1C00
3600
0000
1C00
7700
6300
C180
C180
C180
C180
6300
7700
1C00
ENDCHAR
STARTCHAR ohungarumlaut
ENCODING 245
SWIDTH 614 0
DWIDTH 11 0
BBX 9 13 1 0
BITMAP
0900
1B00
1200
1C00
7700
6300
C180
C180
C180
C180
6300
7700
1C00
ENDCHAR
STARTCHAR odieresis
ENCODING 246
SWIDTH 614 0
DWIDTH 11 0
BBX 9 13 1 0
BITMAP
3300
3300
0000
1C00
7700
6300
C180
C180
C180
C180
6300
7700
1C00
ENDCHAR
STARTCHAR divide
ENCODING 247
SWIDTH 633 0
DWIDTH 12 0
BBX 9 9 2 1
BITMAP
0800
0800
0000
0000
FF80
0000
0000
0800
0800
ENDCHAR
STARTCHAR rcaron
ENCODING 248
SWIDTH 409 0
DWIDTH 8 0
BBX 6 13 2 0
BITMAP
6C
38
00
CC
DC
E0
C0
C0
C0
C0
C0
C0
C0
ENDCHAR
STARTCHAR uring
ENCODING 249
SWIDTH 620 0
DWIDTH 12 0
BBX 8 13 2 0
BITMAP
1C
26
1C
C3
C3
C3
C3
C3
C3
C3
C3
E7
7B
ENDCHAR
STARTCHAR uacute
ENCODING 250
SWIDTH 620 0
DWIDTH 12 0
BBX 8 13 2 0
BITMAP
1C
30
00
C3
C3
C3
C3
C3
C3
C3
C3
E7
7B
ENDCHAR
STARTCHAR uhungarumlaut
ENCODING 251
SWIDTH 620 0
DWIDTH 12 0
BBX 8 13 2 0
BITMAP
12
36
24
C3
C3
C3
C3
C3
C3
C3
C3
E7
7B
ENDCHAR
STARTCHAR udieresis
ENCODING 252
SWIDTH 620 0
DWIDTH 12 0
BBX 8 13 2 0
BITMAP
66
66
00
C3
C3
C3
C3
C3
C3
C3
C3
E7
7B
ENDCHAR
STARTCHAR yacute
ENCODING 253
SWIDTH 568 0
DWIDTH 10 0
BBX 8 16 1 -3
BITMAP
0E
18
00
C3
C3
C3
62
66
66
34
3C
18
18
10
30
30
ENDCHAR
STARTCHAR tcedilla
ENCODING 254
SWIDTH 374 0
DWIDTH 7 0
BBX 6 15 1 -3
BITMAP
60
60
F8
60
60
60
60
60
60
60
60
38
18
0C
38
ENDCHAR
STARTCHAR dotaccent
ENCODING 255
SWIDTH 427 0
DWIDTH 8 0
BBX 2 2 3 11
BITMAP
C0
C0
ENDCHAR
ENDFONT
