STARTFONT 2.1
COMMENT +
COMMENT  Copyright 1984-1989, 1994 Adobe Systems Incorporated.
COMMENT  Copyright 1988, 1994 Digital Equipment Corporation.
COMMENT  Copyright 1996 BIZNET Poland, Inc.
COMMENT
COMMENT  Permission to use, copy, modify, distribute and sell this software
COMMENT  and its documentation for any purpose and without fee is hereby
COMMENT  granted, provided that the above copyright notices appear in all
COMMENT  copies and that both those copyright notices and this permission
COMMENT  notice appear in supporting documentation, and that the names of
COMMENT  Adobe Systems and Digital Equipment Corporation not be used in
COMMENT  advertising or publicity pertaining to distribution of the software
COMMENT  without specific, written prior permission.  Adobe Systems and
COMMENT  Digital Equipment Corporation make no representations about the
COMMENT  suitability of this software for any purpose.  It is provided "as
COMMENT  is" without express or implied warranty.
COMMENT -
FONT -BIZNET-Anagnostiko-Medium-I-Normal--18-180-75-75-P-104-ISO8859-2
SIZE 18 75 75
FONTBOUNDINGBOX 17 18 -2 -4
STARTPROPERTIES 25
FOUNDRY "BIZNET"
FAMILY_NAME "BIZNET Anagnostiko"
WEIGHT_NAME "Medium"
SLANT "I"
SETWIDTH_NAME "Normal"
ADD_STYLE_NAME ""
PIXEL_SIZE 18
POINT_SIZE 180
RESOLUTION_X 75
RESOLUTION_Y 75
SPACING "P"
AVERAGE_WIDTH 104
CHARSET_REGISTRY "ISO8859"
CHARSET_ENCODING "2"
CAP_HEIGHT 14
X_HEIGHT 9
FONT_ASCENT 16
FONT_DESCENT 4
FACE_NAME "BIZNET Anagnostiko Italic"
DEFAULT_CHAR 32
RELATIVE_SETWIDTH 50
RELATIVE_WEIGHT 50
CHARSET_COLLECTIONS "ASCII ISO8859-2"
COPYRIGHT "Copyright (c) 1984, 1987 Adobe Systems Incorporated. All Rights Reserved. Copyright (c) 1988, 1991 Digital Equipment Corporation. All Rights Reserved. Copyright (c) 1996 BIZNET Poland, Inc. All Rights Reserved."
NOTICE "The name "BIZNET" is a registered trademark of BIZNET Poland, Inc."
ENDPROPERTIES
CHARS 190
STARTCHAR space
ENCODING 32
SWIDTH 278 0
DWIDTH 5 0
BBX 1 1 0 0
BITMAP
00
ENDCHAR
STARTCHAR exclam
ENCODING 33
SWIDTH 333 0
DWIDTH 7 0
BBX 4 14 2 0
BITMAP
30
30
30
30
20
60
60
40
40
40
00
00
C0
C0
ENDCHAR
STARTCHAR quotedbl
ENCODING 34
SWIDTH 400 0
DWIDTH 7 0
BBX 5 5 2 9
BITMAP
D8
D8
90
90
90
ENDCHAR
STARTCHAR numbersign
ENCODING 35
SWIDTH 606 0
DWIDTH 11 0
BBX 10 13 1 0
BITMAP
0900
0900
0900
0900
7FC0
1200
1200
1200
FF80
2400
2400
2400
2400
ENDCHAR
STARTCHAR dollar
ENCODING 36
SWIDTH 556 0
DWIDTH 10 0
BBX 9 16 1 -2
BITMAP
0200
0F80
3580
2500
4800
6800
7800
3E00
0F00
0B00
0900
5200
D600
F800
2000
2000
ENDCHAR
STARTCHAR percent
ENCODING 37
SWIDTH 833 0
DWIDTH 16 0
BBX 15 14 1 0
BITMAP
1C60
33A0
6240
6240
C480
C480
C91C
7132
0262
0262
04C4
04C4
08C8
0870
ENDCHAR
STARTCHAR ampersand
ENCODING 38
SWIDTH 852 0
DWIDTH 15 0
BBX 14 14 1 0
BITMAP
0780
08C0
18C0
18C0
1980
0E00
3C3C
6618
C610
C320
C320
C1C0
6188
3EF0
ENDCHAR
STARTCHAR quoteright
ENCODING 39
SWIDTH 204 0
DWIDTH 5 0
BBX 3 5 1 9
BITMAP
60
60
20
40
80
ENDCHAR
STARTCHAR parenleft
ENCODING 40
SWIDTH 333 0
DWIDTH 7 0
BBX 6 16 1 -2
BITMAP
04
08
10
30
60
60
C0
C0
C0
C0
C0
C0
60
60
20
10
ENDCHAR
STARTCHAR parenright
ENCODING 41
SWIDTH 333 0
DWIDTH 7 0
BBX 6 16 0 -2
BITMAP
20
10
18
18
0C
0C
0C
0C
0C
0C
18
18
30
20
40
80
ENDCHAR
STARTCHAR asterisk
ENCODING 42
SWIDTH 500 0
DWIDTH 9 0
BBX 8 7 1 6
BITMAP
66
24
99
FF
99
24
66
ENDCHAR
STARTCHAR plus
ENCODING 43
SWIDTH 606 0
DWIDTH 10 0
BBX 9 9 1 1
BITMAP
0800
0800
0800
0800
FF80
0800
0800
0800
0800
ENDCHAR
STARTCHAR comma
ENCODING 44
SWIDTH 278 0
DWIDTH 5 0
BBX 3 5 0 -3
BITMAP
60
60
20
40
80
ENDCHAR
STARTCHAR minus
ENCODING 45
SWIDTH 606 0
DWIDTH 11 0
BBX 9 1 1 5
BITMAP
FF80
ENDCHAR
STARTCHAR period
ENCODING 46
SWIDTH 278 0
DWIDTH 5 0
BBX 2 2 1 0
BITMAP
C0
C0
ENDCHAR
STARTCHAR slash
ENCODING 47
SWIDTH 606 0
DWIDTH 10 0
BBX 5 15 2 -1
BITMAP
08
08
08
10
10
10
20
20
20
40
40
40
80
80
80
ENDCHAR
STARTCHAR zero
ENCODING 48
SWIDTH 556 0
DWIDTH 10 0
BBX 9 14 1 0
BITMAP
0E00
1300
2180
6180
6180
6180
C180
C180
C300
C300
C300
C200
6400
3800
ENDCHAR
STARTCHAR one
ENCODING 49
SWIDTH 556 0
DWIDTH 10 0
BBX 6 14 2 0
BITMAP
04
0C
3C
0C
0C
18
18
18
18
30
30
30
30
FC
ENDCHAR
STARTCHAR two
ENCODING 50
SWIDTH 556 0
DWIDTH 10 0
BBX 9 14 1 0
BITMAP
0E00
3180
6180
6180
0180
0300
0300
0600
0C00
1800
3080
6080
FF00
FF00
ENDCHAR
STARTCHAR three
ENCODING 51
SWIDTH 556 0
DWIDTH 10 0
BBX 9 14 1 0
BITMAP
0F00
1180
3180
3180
0100
0200
1C00
0700
0300
0300
0300
C600
C400
7800
ENDCHAR
STARTCHAR four
ENCODING 52
SWIDTH 556 0
DWIDTH 10 0
BBX 9 14 1 0
BITMAP
0180
0380
0580
0980
0980
1300
2300
4300
4300
8600
FF80
0600
0600
1F80
ENDCHAR
STARTCHAR five
ENCODING 53
SWIDTH 556 0
DWIDTH 10 0
BBX 9 14 1 0
BITMAP
1F80
1F00
1000
1000
2000
3E00
2300
0300
0300
0300
0300
C600
C400
7800
ENDCHAR
STARTCHAR six
ENCODING 54
SWIDTH 556 0
DWIDTH 10 0
BBX 9 14 1 0
BITMAP
0F00
1180
2180
6000
6000
6E00
D100
E180
C180
C180
C300
C300
6600
3800
ENDCHAR
STARTCHAR seven
ENCODING 55
SWIDTH 556 0
DWIDTH 10 0
BBX 9 14 2 0
BITMAP
7F80
7F80
8100
8300
0200
0600
0400
0C00
0800
1800
1000
3000
3000
3000
ENDCHAR
STARTCHAR eight
ENCODING 56
SWIDTH 556 0
DWIDTH 10 0
BBX 9 14 1 0
BITMAP
0F00
1980
3080
3080
3080
1900
1E00
2300
6180
C180
C180
C300
4300
3C00
ENDCHAR
STARTCHAR nine
ENCODING 57
SWIDTH 556 0
DWIDTH 10 0
BBX 9 14 1 0
BITMAP
0E00
3300
6180
6180
C180
C180
C380
4580
3B00
0300
0300
C200
C400
7800
ENDCHAR
STARTCHAR colon
ENCODING 58
SWIDTH 278 0
DWIDTH 5 0
BBX 3 9 1 0
BITMAP
60
60
00
00
00
00
00
C0
C0
ENDCHAR
STARTCHAR semicolon
ENCODING 59
SWIDTH 278 0
DWIDTH 5 0
BBX 4 12 0 -3
BITMAP
30
30
00
00
00
00
00
60
60
20
40
80
ENDCHAR
STARTCHAR less
ENCODING 60
SWIDTH 606 0
DWIDTH 11 0
BBX 10 9 0 1
BITMAP
00C0
0380
0E00
3800
E000
3800
0E00
0380
00C0
ENDCHAR
STARTCHAR equal
ENCODING 61
SWIDTH 606 0
DWIDTH 11 0
BBX 9 4 1 4
BITMAP
FF80
0000
0000
FF80
ENDCHAR
STARTCHAR greater
ENCODING 62
SWIDTH 606 0
DWIDTH 11 0
BBX 10 9 1 1
BITMAP
C000
7000
1C00
0700
01C0
0700
1C00
7000
C000
ENDCHAR
STARTCHAR question
ENCODING 63
SWIDTH 444 0
DWIDTH 9 0
BBX 7 14 2 0
BITMAP
3C
46
46
06
0C
18
60
C0
90
60
00
00
C0
C0
ENDCHAR
STARTCHAR at
ENCODING 64
SWIDTH 747 0
DWIDTH 15 0
BBX 14 14 1 0
BITMAP
07C0
1830
2008
4368
4CE4
8C64
9864
98C8
98C8
99D0
4EE0
4000
3020
0FC0
ENDCHAR
STARTCHAR A
ENCODING 65
SWIDTH 704 0
DWIDTH 13 0
BBX 12 14 0 0
BITMAP
0100
0300
0380
0580
0580
08C0
08C0
10C0
1FC0
2060
2060
4060
4060
E0F0
ENDCHAR
STARTCHAR B
ENCODING 66
SWIDTH 722 0
DWIDTH 13 0
BBX 12 14 1 0
BITMAP
3FC0
1830
1830
1830
1830
3060
3F80
30C0
3060
6060
6060
6040
60C0
FF00
ENDCHAR
STARTCHAR C
ENCODING 67
SWIDTH 722 0
DWIDTH 13 0
BBX 12 14 1 0
BITMAP
07D0
1830
3020
6020
6020
C000
C000
C000
C000
C020
C020
6040
60C0
1F00
ENDCHAR
STARTCHAR D
ENCODING 68
SWIDTH 778 0
DWIDTH 15 0
BBX 13 14 1 0
BITMAP
3FE0
1830
1818
1818
1818
3018
3018
3018
3030
6030
6030
6060
60C0
FF00
ENDCHAR
STARTCHAR E
ENCODING 69
SWIDTH 722 0
DWIDTH 13 0
BBX 12 14 1 0
BITMAP
3FF0
1830
1810
1810
1880
3080
3F00
3300
3100
6120
6020
6040
60C0
FFC0
ENDCHAR
STARTCHAR F
ENCODING 70
SWIDTH 667 0
DWIDTH 12 0
BBX 11 14 1 0
BITMAP
3FE0
1860
1820
1820
1880
3080
3F00
3300
3100
6100
6000
6000
6000
F000
ENDCHAR
STARTCHAR G
ENCODING 71
SWIDTH 778 0
DWIDTH 14 0
BBX 13 14 1 0
BITMAP
07C8
1838
3010
6010
6010
C000
C000
C0F8
C030
C030
C060
6060
60E0
1F20
ENDCHAR
STARTCHAR H
ENCODING 72
SWIDTH 833 0
DWIDTH 15 0
BBX 14 14 1 0
BITMAP
3C3C
1818
1818
1818
1818
3030
3FF0
3030
3030
6060
6060
6060
6060
F0F0
ENDCHAR
STARTCHAR I
ENCODING 73
SWIDTH 407 0
DWIDTH 8 0
BBX 6 14 2 0
BITMAP
3C
18
18
18
18
30
30
30
30
60
60
60
60
F0
ENDCHAR
STARTCHAR J
ENCODING 74
SWIDTH 611 0
DWIDTH 10 0
BBX 10 14 0 0
BITMAP
03C0
0180
0180
0180
0300
0300
0300
0300
0600
0600
C600
C400
8C00
7000
ENDCHAR
STARTCHAR K
ENCODING 75
SWIDTH 741 0
DWIDTH 14 0
BBX 13 14 1 0
BITMAP
3C38
1820
1840
1880
1900
3200
3700
3B00
3180
6180
60C0
60C0
6060
F0F8
ENDCHAR
STARTCHAR L
ENCODING 76
SWIDTH 667 0
DWIDTH 12 0
BBX 11 14 1 0
BITMAP
3C00
1800
1800
1800
1800
3000
3000
3000
3000
6020
6020
6040
60C0
FFC0
ENDCHAR
STARTCHAR M
ENCODING 77
SWIDTH 944 0
DWIDTH 18 0
BBX 17 14 1 0
BITMAP
3C0780
1C0700
1C0B00
1C0B00
1C1300
261600
262600
262600
264600
464C00
438C00
438C00
430C00
E31E00
ENDCHAR
STARTCHAR N
ENCODING 78
SWIDTH 815 0
DWIDTH 15 0
BBX 14 14 1 0
BITMAP
3C1C
1C08
1608
1608
1308
3318
2190
2190
20D0
60F0
4060
4060
4020
E020
ENDCHAR
STARTCHAR O
ENCODING 79
SWIDTH 778 0
DWIDTH 14 0
BBX 13 14 1 0
BITMAP
07C0
1830
3030
6018
6018
C018
C018
C018
C018
C030
C030
6060
60C0
1F00
ENDCHAR
STARTCHAR P
ENCODING 80
SWIDTH 667 0
DWIDTH 13 0
BBX 12 14 1 0
BITMAP
3FC0
1830
1830
1830
1830
3060
3F80
3000
3000
6000
6000
6000
6000
F000
ENDCHAR
STARTCHAR Q
ENCODING 81
SWIDTH 778 0
DWIDTH 14 0
BBX 13 17 1 -3
BITMAP
07C0
1830
3030
6018
6018
C018
C018
C018
C018
CE30
D330
6360
61C0
1F80
0190
01E0
00C0
ENDCHAR
STARTCHAR R
ENCODING 82
SWIDTH 741 0
DWIDTH 14 0
BBX 13 14 1 0
BITMAP
3FC0
1830
1830
1830
1830
3060
3F80
3180
30C0
60C0
60C0
60C0
60C8
F070
ENDCHAR
STARTCHAR S
ENCODING 83
SWIDTH 667 0
DWIDTH 12 0
BBX 11 14 1 0
BITMAP
07A0
1860
1040
2040
3000
3800
3F00
0FC0
01C0
00C0
4040
4080
E180
9E00
ENDCHAR
STARTCHAR T
ENCODING 84
SWIDTH 685 0
DWIDTH 12 0
BBX 12 14 1 0
BITMAP
FFF0
C630
8610
8610
0600
0C00
0C00
0C00
0C00
1800
1800
1800
1800
3C00
ENDCHAR
STARTCHAR U
ENCODING 85
SWIDTH 815 0
DWIDTH 15 0
BBX 13 14 2 0
BITMAP
7C38
3010
3010
3010
6020
6020
6020
6020
C020
C040
C040
C040
6080
3F00
ENDCHAR
STARTCHAR V
ENCODING 86
SWIDTH 704 0
DWIDTH 12 0
BBX 12 14 1 0
BITMAP
F070
6020
6040
6040
6080
3080
3100
3100
3200
1A00
1C00
1C00
1800
1800
ENDCHAR
STARTCHAR W
ENCODING 87
SWIDTH 926 0
DWIDTH 17 0
BBX 17 14 1 0
BITMAP
F1E380
60C100
60C100
61C200
61C200
316200
326400
326400
326400
1C3800
1C3800
1C3800
183000
183000
ENDCHAR
STARTCHAR X
ENCODING 88
SWIDTH 704 0
DWIDTH 13 0
BBX 14 14 0 0
BITMAP
1E3C
0C18
0C10
0620
0640
0380
0300
0380
0580
08C0
10C0
2060
6060
F0F0
ENDCHAR
STARTCHAR Y
ENCODING 89
SWIDTH 685 0
DWIDTH 14 0
BBX 13 14 2 0
BITMAP
F078
6030
3020
3040
1880
1900
0E00
0C00
0C00
1800
1800
1800
1800
3C00
ENDCHAR
STARTCHAR Z
ENCODING 90
SWIDTH 667 0
DWIDTH 13 0
BBX 12 14 1 0
BITMAP
3FF0
3070
60E0
41C0
0180
0300
0700
0E00
0C00
1800
3820
7060
E0C0
FFC0
ENDCHAR
STARTCHAR bracketleft
ENCODING 91
SWIDTH 333 0
DWIDTH 7 0
BBX 7 16 0 -2
BITMAP
1E
18
18
18
30
30
30
30
60
60
60
60
C0
C0
C0
F0
ENDCHAR
STARTCHAR backslash
ENCODING 92
SWIDTH 606 0
DWIDTH 10 0
BBX 7 14 1 0
BITMAP
80
80
40
40
20
20
10
10
08
08
04
04
02
02
ENDCHAR
STARTCHAR bracketright
ENCODING 93
SWIDTH 333 0
DWIDTH 8 0
BBX 7 16 0 -2
BITMAP
1E
06
06
06
0C
0C
0C
0C
18
18
18
18
30
30
30
F0
ENDCHAR
STARTCHAR asciicircum
ENCODING 94
SWIDTH 606 0
DWIDTH 8 0
BBX 7 8 1 6
BITMAP
10
10
38
28
6C
44
C6
82
ENDCHAR
STARTCHAR underscore
ENCODING 95
SWIDTH 500 0
DWIDTH 10 0
BBX 10 1 0 -3
BITMAP
FFC0
ENDCHAR
STARTCHAR quoteleft
ENCODING 96
SWIDTH 204 0
DWIDTH 4 0
BBX 3 5 2 9
BITMAP
20
40
80
C0
C0
ENDCHAR
STARTCHAR a
ENCODING 97
SWIDTH 574 0
DWIDTH 11 0
BBX 10 9 1 0
BITMAP
1D80
6380
6180
C180
C300
C300
C300
6740
3980
ENDCHAR
STARTCHAR b
ENCODING 98
SWIDTH 556 0
DWIDTH 11 0
BBX 9 14 1 0
BITMAP
7000
3000
3000
3000
6000
6E00
7300
6180
C180
C180
C180
C300
6300
3C00
ENDCHAR
STARTCHAR c
ENCODING 99
SWIDTH 444 0
DWIDTH 9 0
BBX 8 9 1 0
BITMAP
1E
63
63
C0
C0
C0
C1
62
3C
ENDCHAR
STARTCHAR d
ENCODING 100
SWIDTH 611 0
DWIDTH 11 0
BBX 10 14 1 0
BITMAP
01C0
00C0
00C0
00C0
0180
1D80
6380
6180
C180
C300
C300
C300
6740
3980
ENDCHAR
STARTCHAR e
ENCODING 101
SWIDTH 444 0
DWIDTH 9 0
BBX 8 9 1 0
BITMAP
1E
63
63
C6
CC
F0
C1
62
3C
ENDCHAR
STARTCHAR f
ENCODING 102
SWIDTH 333 0
DWIDTH 7 0
BBX 9 17 1 -3
BITMAP
0300
0D80
0980
1800
1800
FE00
3000
3000
3000
6000
6000
6000
6000
6000
C000
C000
C000
ENDCHAR
STARTCHAR g
ENCODING 103
SWIDTH 537 0
DWIDTH 9 0
BBX 11 15 -1 -4
BITMAP
0060
0080
0780
18C0
30C0
30C0
3180
1E00
2000
3F00
4180
C180
C100
E300
7E00
ENDCHAR
STARTCHAR h
ENCODING 104
SWIDTH 611 0
DWIDTH 11 0
BBX 10 14 1 0
BITMAP
7000
3000
3000
3000
3000
6700
6980
7180
6180
6180
C300
C300
C340
C180
ENDCHAR
STARTCHAR i
ENCODING 105
SWIDTH 333 0
DWIDTH 5 0
BBX 4 13 1 0
BITMAP
30
30
00
00
E0
60
60
60
60
C0
C0
D0
E0
ENDCHAR
STARTCHAR j
ENCODING 106
SWIDTH 315 0
DWIDTH 5 0
BBX 7 17 -2 -4
BITMAP
06
06
00
00
1C
0C
0C
0C
0C
0C
18
18
18
18
10
D0
E0
ENDCHAR
STARTCHAR k
ENCODING 107
SWIDTH 556 0
DWIDTH 11 0
BBX 9 14 1 0
BITMAP
7000
3000
3000
3000
3000
6700
6980
7180
6300
6C00
C600
C600
C680
C300
ENDCHAR
STARTCHAR l
ENCODING 108
SWIDTH 333 0
DWIDTH 5 0
BBX 4 14 1 0
BITMAP
70
30
30
30
30
60
60
60
60
C0
C0
C0
D0
E0
ENDCHAR
STARTCHAR m
ENCODING 109
SWIDTH 889 0
DWIDTH 17 0
BBX 16 9 1 0
BITMAP
E71C
69A6
71C6
6186
6186
C30C
C30C
C30D
C306
ENDCHAR
STARTCHAR n
ENCODING 110
SWIDTH 611 0
DWIDTH 11 0
BBX 10 9 1 0
BITMAP
E700
6980
7180
6180
6180
C300
C300
C340
C180
ENDCHAR
STARTCHAR o
ENCODING 111
SWIDTH 500 0
DWIDTH 11 0
BBX 9 9 1 0
BITMAP
1E00
6300
6180
C180
C180
C180
C300
6300
3C00
ENDCHAR
STARTCHAR p
ENCODING 112
SWIDTH 574 0
DWIDTH 11 0
BBX 11 13 -1 -4
BITMAP
3B80
1CC0
1860
1860
3060
3060
30C0
38C0
3700
6000
6000
6000
F000
ENDCHAR
STARTCHAR q
ENCODING 113
SWIDTH 556 0
DWIDTH 11 0
BBX 9 13 1 -4
BITMAP
1C80
6380
6180
C180
C300
C300
C300
6700
3B00
0600
0600
0600
0F00
ENDCHAR
STARTCHAR r
ENCODING 114
SWIDTH 444 0
DWIDTH 7 0
BBX 7 9 1 0
BITMAP
EE
76
60
60
60
C0
C0
C0
C0
ENDCHAR
STARTCHAR s
ENCODING 115
SWIDTH 444 0
DWIDTH 8 0
BBX 8 9 0 0
BITMAP
1E
23
63
70
3C
0E
C6
C4
78
ENDCHAR
STARTCHAR t
ENCODING 116
SWIDTH 352 0
DWIDTH 6 0
BBX 7 12 0 0
BITMAP
18
18
18
FE
30
30
30
60
60
60
68
70
ENDCHAR
STARTCHAR u
ENCODING 117
SWIDTH 611 0
DWIDTH 11 0
BBX 10 9 1 0
BITMAP
E180
6180
6180
6180
C300
C300
C700
CB40
7180
ENDCHAR
STARTCHAR v
ENCODING 118
SWIDTH 519 0
DWIDTH 10 0
BBX 8 9 1 0
BITMAP
E7
63
61
61
C1
C2
C2
C4
78
ENDCHAR
STARTCHAR w
ENCODING 119
SWIDTH 778 0
DWIDTH 15 0
BBX 13 9 1 0
BITMAP
E338
6318
6308
6308
C608
C610
C610
CA20
71C0
ENDCHAR
STARTCHAR x
ENCODING 120
SWIDTH 500 0
DWIDTH 11 0
BBX 11 9 0 0
BITMAP
1860
38C0
0D00
0E00
0400
0E00
1600
E380
C300
ENDCHAR
STARTCHAR y
ENCODING 121
SWIDTH 500 0
DWIDTH 9 0
BBX 10 12 -1 -3
BITMAP
30C0
7040
1880
1880
0D00
0D00
0600
0600
0400
0800
C800
F000
ENDCHAR
STARTCHAR z
ENCODING 122
SWIDTH 463 0
DWIDTH 9 0
BBX 9 9 0 0
BITMAP
3C80
4F80
0300
0600
0C00
1800
3000
7900
9E00
ENDCHAR
STARTCHAR braceleft
ENCODING 123
SWIDTH 333 0
DWIDTH 6 0
BBX 7 16 0 -2
BITMAP
0E
18
18
18
30
30
20
C0
60
60
60
C0
C0
C0
C0
70
ENDCHAR
STARTCHAR bar
ENCODING 124
SWIDTH 606 0
DWIDTH 10 0
BBX 1 14 4 0
BITMAP
80
80
80
80
80
80
80
80
80
80
80
80
80
80
ENDCHAR
STARTCHAR braceright
ENCODING 125
SWIDTH 333 0
DWIDTH 8 0
BBX 7 16 0 -2
BITMAP
1C
06
06
06
0C
0C
0C
06
08
18
18
18
30
30
30
E0
ENDCHAR
STARTCHAR asciitilde
ENCODING 126
SWIDTH 606 0
DWIDTH 9 0
BBX 8 2 1 5
BITMAP
71
8E
ENDCHAR
STARTCHAR Aogonek
ENCODING 161
SWIDTH 704 0
DWIDTH 13 0
BBX 13 17 0 -3
BITMAP
0100
0300
0380
0580
0580
08C0
08C0
10C0
1FC0
2060
2060
4060
4060
E0F0
0060
00C8
0070
ENDCHAR
STARTCHAR breve
ENCODING 162
SWIDTH 490 0
DWIDTH 9 0
BBX 5 3 2 10
BITMAP
88
D8
70
ENDCHAR
STARTCHAR Lslash
ENCODING 163
SWIDTH 667 0
DWIDTH 12 0
BBX 12 14 0 0
BITMAP
1E00
0C00
0C00
0C00
0C00
1B00
1C00
3800
D800
3010
3010
3020
3060
7FE0
ENDCHAR
STARTCHAR currency
ENCODING 164
SWIDTH 606 0
DWIDTH 12 0
BBX 9 9 2 3
BITMAP
9C80
FF80
6300
C180
C180
C180
6300
FF80
9C80
ENDCHAR
STARTCHAR Lcaron
ENCODING 165
SWIDTH 667 0
DWIDTH 12 0
BBX 11 14 1 0
BITMAP
3D80
1880
1880
1900
1800
3000
3000
3000
3000
6020
6020
6040
60C0
FFC0
ENDCHAR
STARTCHAR Sacute
ENCODING 166
SWIDTH 667 0
DWIDTH 12 0
BBX 12 18 1 0
BITMAP
0030
0060
0080
0000
07A0
1860
1040
2040
3000
3800
3F00
0FC0
01C0
00C0
4040
4080
E180
9E00
ENDCHAR
STARTCHAR section
ENCODING 167
SWIDTH 500 0
DWIDTH 10 0
BBX 9 17 1 -3
BITMAP
0F00
1180
2180
3000
3800
3C00
4E00
4700
6300
7100
3900
1E00
0E00
0600
C200
C400
7800
ENDCHAR
STARTCHAR dieresis
ENCODING 168
SWIDTH 333 0
DWIDTH 7 0
BBX 6 2 1 10
BITMAP
CC
CC
ENDCHAR
STARTCHAR Scaron
ENCODING 169
SWIDTH 667 0
DWIDTH 12 0
BBX 11 18 1 0
BITMAP
0220
0240
0180
0100
0000
07A0
1860
1040
2040
3000
3800
3F00
0FC0
01C0
4040
40C0
E080
9F00
ENDCHAR
STARTCHAR Scedilla
ENCODING 170
SWIDTH 667 0
DWIDTH 12 0
BBX 11 18 1 -4
BITMAP
07A0
1860
1040
2040
3000
3800
3F00
0FC0
01C0
00C0
4040
4080
E180
9E00
1000
1800
0800
3000
ENDCHAR
STARTCHAR Tcaron
ENCODING 171
SWIDTH 685 0
DWIDTH 12 0
BBX 12 18 1 0
BITMAP
0440
0480
0300
0200
0000
FFF0
C630
8610
8610
0600
0C00
0C00
0C00
0C00
1800
1800
1800
3C00
ENDCHAR
STARTCHAR Zacute
ENCODING 172
SWIDTH 667 0
DWIDTH 13 0
BBX 12 18 1 0
BITMAP
0060
00C0
0100
0000
3FF0
3070
60E0
41C0
0180
0300
0700
0E00
0C00
1800
3820
7060
E0C0
FFC0
ENDCHAR
STARTCHAR hyphen
ENCODING 173
SWIDTH 333 0
DWIDTH 6 0
BBX 5 1 0 5
BITMAP
F8
ENDCHAR
STARTCHAR Zcaron
ENCODING 174
SWIDTH 667 0
DWIDTH 13 0
BBX 12 18 1 0
BITMAP
0220
0240
0180
0100
0000
3FF0
3070
60E0
41C0
0180
0300
0700
0E00
0C00
1820
3860
70C0
FFC0
ENDCHAR
STARTCHAR Zdotaccent
ENCODING 175
SWIDTH 667 0
DWIDTH 13 0
BBX 12 17 1 0
BITMAP
0380
0380
0000
3FF0
3070
60E0
41C0
0180
0300
0700
0E00
0C00
1800
3820
7060
E0C0
FFC0
ENDCHAR
STARTCHAR degree
ENCODING 176
SWIDTH 400 0
DWIDTH 7 0
BBX 6 6 1 8
BITMAP
78
CC
84
84
CC
78
ENDCHAR
STARTCHAR aogonek
ENCODING 177
SWIDTH 574 0
DWIDTH 11 0
BBX 12 12 1 -3
BITMAP
1D80
6380
6180
C180
C300
C300
C300
6740
3980
00C0
0190
00E0
ENDCHAR
STARTCHAR ogonek
ENCODING 178
SWIDTH 544 0
DWIDTH 10 0
BBX 4 4 3 -4
BITMAP
40
80
90
E0
ENDCHAR
STARTCHAR lslash
ENCODING 179
SWIDTH 333 0
DWIDTH 6 0
BBX 6 14 0 0
BITMAP
38
18
18
18
18
34
38
70
B0
60
60
60
68
70
ENDCHAR
STARTCHAR acute
ENCODING 180
SWIDTH 333 0
DWIDTH 5 0
BBX 4 3 1 11
BITMAP
30
60
80
ENDCHAR
STARTCHAR lcaron
ENCODING 181
SWIDTH 466 0
DWIDTH 7 0
BBX 8 14 1 0
BITMAP
73
31
31
32
30
60
60
60
60
C0
C0
C0
D0
E0
ENDCHAR
STARTCHAR sacute
ENCODING 182
SWIDTH 444 0
DWIDTH 8 0
BBX 9 13 0 0
BITMAP
0180
0300
0400
0000
1E00
2300
6300
7000
3C00
0E00
C600
C400
7800
ENDCHAR
STARTCHAR caron
ENCODING 183
SWIDTH 490 0
DWIDTH 9 0
BBX 5 4 2 10
BITMAP
88
90
60
40
ENDCHAR
STARTCHAR cedilla
ENCODING 184
SWIDTH 490 0
DWIDTH 9 0
BBX 3 4 3 -4
BITMAP
40
60
20
C0
ENDCHAR
STARTCHAR scaron
ENCODING 185
SWIDTH 444 0
DWIDTH 8 0
BBX 8 13 0 0
BITMAP
09
0A
04
00
1E
23
63
70
3C
0E
C6
C4
78
ENDCHAR
STARTCHAR scedilla
ENCODING 186
SWIDTH 444 0
DWIDTH 8 0
BBX 8 13 0 -4
BITMAP
1E
23
63
70
3C
0E
C6
C4
78
10
18
08
30
ENDCHAR
STARTCHAR tcaron
ENCODING 187
SWIDTH 352 0
DWIDTH 6 0
BBX 9 15 0 0
BITMAP
0180
0080
0080
1900
1800
1800
FE00
3000
3000
3000
6000
6000
6000
6800
7000
ENDCHAR
STARTCHAR zacute
ENCODING 188
SWIDTH 463 0
DWIDTH 9 0
BBX 9 13 0 0
BITMAP
0180
0300
0400
0000
3C80
4F80
0300
0600
0C00
1800
3000
7900
9E00
ENDCHAR
STARTCHAR hungarumlaut
ENCODING 189
SWIDTH 653 0
DWIDTH 12 0
BBX 8 3 2 10
BITMAP
33
66
88
ENDCHAR
STARTCHAR zcaron
ENCODING 190
SWIDTH 463 0
DWIDTH 9 0
BBX 9 13 0 0
BITMAP
0900
0A00
0400
0000
3C80
4F80
0300
0600
0C00
1800
3000
7900
9E00
ENDCHAR
STARTCHAR zdotaccent
ENCODING 191
SWIDTH 463 0
DWIDTH 9 0
BBX 9 12 0 0
BITMAP
0600
0600
0000
3C80
4F80
0300
0600
0C00
1800
3000
7900
9E00
ENDCHAR
STARTCHAR Racute
ENCODING 192
SWIDTH 741 0
DWIDTH 14 0
BBX 13 18 1 0
BITMAP
00C0
0180
0200
0000
3FC0
1830
1830
1830
1830
3060
3F80
3180
30C0
60C0
60C0
60C0
60C8
F070
ENDCHAR
STARTCHAR Aacute
ENCODING 193
SWIDTH 704 0
DWIDTH 13 0
BBX 12 18 0 0
BITMAP
00C0
0180
0200
0000
0100
0300
0380
0580
0580
08C0
08C0
10C0
1FC0
2060
2060
4060
4060
E0F0
ENDCHAR
STARTCHAR Acircumflex
ENCODING 194
SWIDTH 704 0
DWIDTH 13 0
BBX 12 18 0 0
BITMAP
0180
03C0
0440
0000
0100
0300
0380
0580
0580
08C0
08C0
10C0
1FC0
2060
2060
4060
4060
E0F0
ENDCHAR
STARTCHAR Abreve
ENCODING 195
SWIDTH 704 0
DWIDTH 13 0
BBX 12 18 0 0
BITMAP
0440
06C0
0380
0000
0100
0300
0380
0580
0580
08C0
08C0
10C0
1FC0
2060
2060
4060
4060
E0F0
ENDCHAR
STARTCHAR Adieresis
ENCODING 196
SWIDTH 704 0
DWIDTH 13 0
BBX 12 17 0 0
BITMAP
0660
0660
0000
0100
0300
0380
0580
0580
08C0
08C0
10C0
1FC0
2060
2060
4060
4060
E0F0
ENDCHAR
STARTCHAR Lacute
ENCODING 197
SWIDTH 667 0
DWIDTH 12 0
BBX 11 18 1 0
BITMAP
0300
0600
0800
0000
3C00
1800
1800
1800
1800
3000
3000
3000
3000
6020
6020
6040
60C0
FFC0
ENDCHAR
STARTCHAR Cacute
ENCODING 198
SWIDTH 722 0
DWIDTH 13 0
BBX 12 18 1 0
BITMAP
0030
0060
0080
0000
07D0
1830
3020
6020
6020
C000
C000
C000
C000
C020
C020
6040
60C0
1F00
ENDCHAR
STARTCHAR Ccedilla
ENCODING 199
SWIDTH 722 0
DWIDTH 13 0
BBX 12 18 1 -4
BITMAP
07D0
1830
3020
6020
6020
C000
C000
C000
C000
C000
C000
6020
60C0
1F00
0400
0600
0200
0C00
ENDCHAR
STARTCHAR Ccaron
ENCODING 200
SWIDTH 722 0
DWIDTH 13 0
BBX 12 18 1 0
BITMAP
0220
0240
0180
0100
0000
07D0
1830
3020
6020
6020
C000
C000
C000
C020
C020
C040
60C0
3F00
ENDCHAR
STARTCHAR Eacute
ENCODING 201
SWIDTH 722 0
DWIDTH 13 0
BBX 12 18 1 0
BITMAP
00C0
0180
0200
0000
3FF0
1830
1810
1810
1880
3080
3F00
3300
3100
6120
6020
6040
60C0
FFC0
ENDCHAR
STARTCHAR Eogonek
ENCODING 202
SWIDTH 722 0
DWIDTH 13 0
BBX 12 17 1 -3
BITMAP
3FF0
1830
1810
1810
1880
3080
3F00
3300
3100
6120
6020
6040
60C0
FFC0
00C0
0190
00E0
ENDCHAR
STARTCHAR Edieresis
ENCODING 203
SWIDTH 722 0
DWIDTH 13 0
BBX 12 17 1 0
BITMAP
0660
0660
0000
3FF0
1830
1810
1810
1880
3080
3F00
3300
3100
6120
6020
6040
60C0
FFC0
ENDCHAR
STARTCHAR Ecaron
ENCODING 204
SWIDTH 722 0
DWIDTH 13 0
BBX 12 18 1 0
BITMAP
0220
0240
0180
0100
0000
3FF0
1830
1810
1810
1880
3080
3F00
3300
3100
6020
6060
60C0
FFC0
ENDCHAR
STARTCHAR Iacute
ENCODING 205
SWIDTH 407 0
DWIDTH 9 0
BBX 7 18 2 0
BITMAP
06
0C
10
00
3C
18
18
18
18
30
30
30
30
60
60
60
60
F0
ENDCHAR
STARTCHAR Icircumflex
ENCODING 206
SWIDTH 407 0
DWIDTH 9 0
BBX 7 18 2 0
BITMAP
0C
1E
22
00
18
18
18
18
18
30
30
30
30
60
60
60
60
F0
ENDCHAR
STARTCHAR Dcaron
ENCODING 207
SWIDTH 778 0
DWIDTH 15 0
BBX 13 18 1 0
BITMAP
0220
0240
0180
0100
0000
3FE0
1830
1818
1818
1818
3018
3018
3018
3030
6030
6030
6060
FFC0
ENDCHAR
STARTCHAR Eth
ENCODING 208
SWIDTH 778 0
DWIDTH 15 0
BBX 13 14 1 0
BITMAP
3FE0
1830
1818
1818
1818
3018
FE18
3018
3030
6030
6030
6060
60C0
FF00
ENDCHAR
STARTCHAR Nacute
ENCODING 209
SWIDTH 815 0
DWIDTH 15 0
BBX 14 18 1 0
BITMAP
0018
0030
0040
0000
3C1C
1C08
1608
1608
1308
3318
2190
2190
20D0
60F0
4060
4060
4020
E020
ENDCHAR
STARTCHAR Ncaron
ENCODING 210
SWIDTH 815 0
DWIDTH 15 0
BBX 14 18 1 0
BITMAP
0110
0120
00C0
0080
0000
3C1C
1C08
1608
1608
1308
3318
2190
2190
20D0
60F0
4060
4060
E020
ENDCHAR
STARTCHAR Oacute
ENCODING 211
SWIDTH 778 0
DWIDTH 14 0
BBX 13 18 1 0
BITMAP
00C0
0180
0200
0000
07C0
1830
3030
6018
6018
C018
C018
C018
C018
C030
C030
6060
60C0
1F00
ENDCHAR
STARTCHAR Ocircumflex
ENCODING 212
SWIDTH 778 0
DWIDTH 14 0
BBX 13 18 1 0
BITMAP
0180
03C0
0440
0000
07C0
1830
3030
6018
6018
C018
C018
C018
C018
C030
C030
6060
60C0
1F00
ENDCHAR
STARTCHAR Ohungarumlaut
ENCODING 213
SWIDTH 778 0
DWIDTH 14 0
BBX 13 18 1 0
BITMAP
0198
0330
0660
0000
07C0
1830
3030
6018
6018
C018
C018
C018
C018
C030
C030
6060
60C0
1F00
ENDCHAR
STARTCHAR Odieresis
ENCODING 214
SWIDTH 778 0
DWIDTH 14 0
BBX 13 17 1 0
BITMAP
0660
0660
0000
07C0
1830
3030
6018
6018
C018
C018
C018
C018
C030
C030
6060
60C0
1F00
ENDCHAR
STARTCHAR multiply
ENCODING 215
SWIDTH 606 0
DWIDTH 10 0
BBX 10 9 0 0
BITMAP
C0C0
6180
3300
1E00
0C00
1E00
3300
6180
C0C0
ENDCHAR
STARTCHAR Rcaron
ENCODING 216
SWIDTH 741 0
DWIDTH 14 0
BBX 13 18 1 0
BITMAP
0220
0240
0180
0100
0000
3FC0
1830
1830
1830
1830
3060
3F80
3180
30C0
60C0
60C0
60C8
F070
ENDCHAR
STARTCHAR Uring
ENCODING 217
SWIDTH 815 0
DWIDTH 15 0
BBX 13 18 2 0
BITMAP
0300
0480
0480
0300
7C38
3010
3010
3010
6020
6020
6020
6020
C020
C040
C040
C040
6080
3F00
ENDCHAR
STARTCHAR Uacute
ENCODING 218
SWIDTH 815 0
DWIDTH 15 0
BBX 13 18 2 0
BITMAP
00C0
0180
0200
0000
7C38
3010
3010
3010
6020
6020
6020
6020
C020
C040
C040
C040
6080
3F00
ENDCHAR
STARTCHAR Uhungarumlaut
ENCODING 219
SWIDTH 815 0
DWIDTH 15 0
BBX 13 18 2 0
BITMAP
0330
0660
0CC0
0000
7C38
3010
3010
3010
6020
6020
6020
6020
C020
C040
C040
C040
6080
3F00
ENDCHAR
STARTCHAR Udieresis
ENCODING 220
SWIDTH 815 0
DWIDTH 15 0
BBX 13 17 2 0
BITMAP
0660
0660
0000
7C38
3010
3010
3010
6020
6020
6020
6020
C020
C040
C040
C040
6080
3F00
ENDCHAR
STARTCHAR Yacute
ENCODING 221
SWIDTH 685 0
DWIDTH 14 0
BBX 13 18 2 0
BITMAP
00C0
0180
0200
0000
F078
6030
3020
3040
1880
1900
0E00
0C00
0C00
1800
1800
1800
1800
3C00
ENDCHAR
STARTCHAR Tcedilla
ENCODING 222
SWIDTH 685 0
DWIDTH 12 0
BBX 12 18 1 -4
BITMAP
FFF0
C630
8610
8610
0600
0C00
0C00
0C00
0C00
1800
1800
1800
1800
3C00
0800
0C00
0400
1800
ENDCHAR
STARTCHAR germandbls
ENCODING 223
SWIDTH 556 0
DWIDTH 10 0
BBX 9 17 0 -3
BITMAP
0E00
1100
3180
3180
3180
3100
3600
6100
6180
6180
6180
6180
6B00
CE00
C000
C000
C000
ENDCHAR
STARTCHAR racute
ENCODING 224
SWIDTH 444 0
DWIDTH 7 0
BBX 7 13 1 0
BITMAP
06
0C
10
00
EE
76
60
60
60
C0
C0
C0
C0
ENDCHAR
STARTCHAR aacute
ENCODING 225
SWIDTH 574 0
DWIDTH 11 0
BBX 10 13 1 0
BITMAP
0300
0600
0800
0000
1D80
6380
6180
C180
C300
C300
C300
6740
3980
ENDCHAR
STARTCHAR acircumflex
ENCODING 226
SWIDTH 574 0
DWIDTH 11 0
BBX 10 13 1 0
BITMAP
0200
0700
0900
0000
1D80
6380
6180
C180
C300
C300
C300
6740
3980
ENDCHAR
STARTCHAR abreve
ENCODING 227
SWIDTH 574 0
DWIDTH 11 0
BBX 10 13 1 0
BITMAP
0880
0D80
0700
0000
1D80
6380
6180
C180
C300
C300
C300
6740
3980
ENDCHAR
STARTCHAR adieresis
ENCODING 228
SWIDTH 574 0
DWIDTH 11 0
BBX 10 12 1 0
BITMAP
1980
1980
0000
1D80
6380
6180
C180
C300
C300
C300
6740
3980
ENDCHAR
STARTCHAR lacute
ENCODING 229
SWIDTH 333 0
DWIDTH 5 0
BBX 6 18 1 0
BITMAP
0C
18
20
00
70
30
30
30
30
60
60
60
60
C0
C0
C0
D0
E0
ENDCHAR
STARTCHAR cacute
ENCODING 230
SWIDTH 444 0
DWIDTH 9 0
BBX 9 13 1 0
BITMAP
0180
0300
0400
0000
1E00
6300
6300
C000
C000
C000
C100
6200
3C00
ENDCHAR
STARTCHAR ccedilla
ENCODING 231
SWIDTH 444 0
DWIDTH 9 0
BBX 8 13 1 -4
BITMAP
1E
63
63
C0
C0
C0
C1
62
3C
10
18
08
30
ENDCHAR
STARTCHAR ccaron
ENCODING 232
SWIDTH 444 0
DWIDTH 9 0
BBX 8 13 1 0
BITMAP
09
0A
04
00
1E
63
63
C0
C0
C0
C1
62
3C
ENDCHAR
STARTCHAR eacute
ENCODING 233
SWIDTH 444 0
DWIDTH 9 0
BBX 8 13 1 0
BITMAP
06
0C
10
00
1E
63
63
C6
CC
F0
C1
62
3C
ENDCHAR
STARTCHAR eogonek
ENCODING 234
SWIDTH 444 0
DWIDTH 9 0
BBX 8 12 1 -3
BITMAP
1E
63
63
C6
CC
F0
C1
62
3C
30
64
38
ENDCHAR
STARTCHAR edieresis
ENCODING 235
SWIDTH 444 0
DWIDTH 9 0
BBX 8 12 1 0
BITMAP
33
33
00
1E
63
63
C6
CC
F0
C1
62
3C
ENDCHAR
STARTCHAR ecaron
ENCODING 236
SWIDTH 444 0
DWIDTH 9 0
BBX 8 13 1 0
BITMAP
09
0A
04
00
1E
63
63
C6
CC
F0
C1
62
3C
ENDCHAR
STARTCHAR iacute
ENCODING 237
SWIDTH 333 0
DWIDTH 5 0
BBX 5 13 1 0
BITMAP
18
30
40
00
E0
60
60
60
C0
C0
C0
D0
E0
ENDCHAR
STARTCHAR icircumflex
ENCODING 238
SWIDTH 333 0
DWIDTH 5 0
BBX 4 13 1 0
BITMAP
20
70
90
00
E0
60
60
60
C0
C0
C0
D0
E0
ENDCHAR
STARTCHAR dcaron
ENCODING 239
SWIDTH 666 0
DWIDTH 12 0
BBX 13 14 1 0
BITMAP
01D8
00C8
00C8
00D0
0180
1D80
6380
6180
C180
C300
C300
C300
6740
3980
ENDCHAR
STARTCHAR dmacron
ENCODING 240
SWIDTH 611 0
DWIDTH 11 0
BBX 12 14 1 0
BITMAP
01C0
00C0
0FF0
00C0
0180
1D80
6380
6180
C180
C300
C300
C300
6740
3980
ENDCHAR
STARTCHAR nacute
ENCODING 241
SWIDTH 611 0
DWIDTH 11 0
BBX 10 13 1 0
BITMAP
0180
0300
0400
0000
E700
6980
7180
6180
6180
C300
C300
C340
C180
ENDCHAR
STARTCHAR ncaron
ENCODING 242
SWIDTH 611 0
DWIDTH 11 0
BBX 10 13 1 0
BITMAP
0480
0500
0200
0000
E700
6980
7180
6180
6180
C300
C300
C340
C180
ENDCHAR
STARTCHAR oacute
ENCODING 243
SWIDTH 500 0
DWIDTH 11 0
BBX 9 13 1 0
BITMAP
0300
0600
0800
0000
1E00
6300
6180
C180
C180
C180
C300
6300
3C00
ENDCHAR
STARTCHAR ocircumflex
ENCODING 244
SWIDTH 500 0
DWIDTH 11 0
BBX 9 13 1 0
BITMAP
0400
0E00
1200
0000
1E00
6300
6180
C180
C180
C180
C300
6300
3C00
ENDCHAR
STARTCHAR ohungarumlaut
ENCODING 245
SWIDTH 500 0
DWIDTH 11 0
BBX 10 13 1 0
BITMAP
0CC0
1980
3300
0000
1E00
6300
6180
C180
C180
C180
C300
6300
3C00
ENDCHAR
STARTCHAR odieresis
ENCODING 246
SWIDTH 500 0
DWIDTH 11 0
BBX 9 12 1 0
BITMAP
1B00
1B00
0000
1E00
6300
6180
C180
C180
C180
C300
6300
3C00
ENDCHAR
STARTCHAR divide
ENCODING 247
SWIDTH 606 0
DWIDTH 10 0
BBX 8 7 1 2
BITMAP
18
18
00
FF
00
18
18
ENDCHAR
STARTCHAR rcaron
ENCODING 248
SWIDTH 444 0
DWIDTH 7 0
BBX 7 13 1 0
BITMAP
12
14
08
00
EE
76
60
60
60
C0
C0
C0
C0
ENDCHAR
STARTCHAR uring
ENCODING 249
SWIDTH 611 0
DWIDTH 11 0
BBX 10 14 1 0
BITMAP
0C00
1200
1200
0C00
0000
E180
6180
6180
6180
C300
C300
C700
CB40
7180
ENDCHAR
STARTCHAR uacute
ENCODING 250
SWIDTH 611 0
DWIDTH 11 0
BBX 10 13 1 0
BITMAP
0300
0600
0800
0000
E180
6180
6180
6180
C300
C300
C700
CB40
7180
ENDCHAR
STARTCHAR uhungarumlaut
ENCODING 251
SWIDTH 611 0
DWIDTH 11 0
BBX 10 13 1 0
BITMAP
0CC0
1980
3300
0000
E180
6180
6180
6180
C300
C300
C700
CB40
7180
ENDCHAR
STARTCHAR udieresis
ENCODING 252
SWIDTH 611 0
DWIDTH 11 0
BBX 10 12 1 0
BITMAP
1B00
1B00
0000
E180
6180
6180
6180
C300
C300
C700
CB40
7180
ENDCHAR
STARTCHAR yacute
ENCODING 253
SWIDTH 500 0
DWIDTH 9 0
BBX 10 16 -1 -3
BITMAP
0180
0300
0400
0000
30C0
7040
1880
1880
0D00
0D00
0600
0600
0400
0800
C800
F000
ENDCHAR
STARTCHAR tcedilla
ENCODING 254
SWIDTH 352 0
DWIDTH 6 0
BBX 7 16 0 -4
BITMAP
18
18
18
FE
30
30
30
60
60
60
68
70
20
30
10
60
ENDCHAR
STARTCHAR dotaccent
ENCODING 255
SWIDTH 435 0
DWIDTH 8 0
BBX 2 2 3 10
BITMAP
C0
C0
ENDCHAR
ENDFONT
